lvl4/lab3/waveform.vcd
$version Generated by VerilatedVcd $end
$date Thu Oct 17 14:13:43 2024
 $end
$timescale   1ns $end

 $scope module TOP $end
  $var wire  1 S$ carry_in $end
  $var wire  1 U% carry_out $end
  $var wire  1 ;$ clk $end
  $var wire 16 K$ d_instr [15:0] $end
  $var wire 16 M% d_out [15:0] $end
  $var wire  1 ]% done $end
  $var wire 16 [$ reg0 [15:0] $end
  $var wire 16 c$ reg1 [15:0] $end
  $var wire 16 k$ reg2 [15:0] $end
  $var wire 16 s$ reg3 [15:0] $end
  $var wire 16 {$ reg4 [15:0] $end
  $var wire 16 %% reg5 [15:0] $end
  $var wire 16 -% reg6 [15:0] $end
  $var wire 16 5% reg7 [15:0] $end
  $var wire 16 E% regc [15:0] $end
  $var wire 16 =% regs [15:0] $end
  $var wire  1 C$ reset $end
  $var wire  1 3$ run $end
  $scope module bitty $end
   $var wire 16 ?" alu_out [15:0] $end
   $var wire  4 g" alu_sel [3:0] $end
   $var wire  1 S$ carry_in $end
   $var wire  1 U% carry_out $end
   $var wire  1 ;$ clk $end
   $var wire 16 K$ d_instr [15:0] $end
   $var wire 16 M% d_out [15:0] $end
   $var wire  1 ]% done $end
   $var wire  8 E! en [7:0] $end
   $var wire  1 O" en_c $end
   $var wire  1 W" en_inst $end
   $var wire  1 G" en_s $end
   $var wire 16 A# instruction [15:0] $end
   $var wire  1 _" mode $end
   $var wire  4 /" mux_sel [3:0] $end
   $var wire 16 # out(0) [15:0] $end
   $var wire 16 $ out(1) [15:0] $end
   $var wire 16 % out(2) [15:0] $end
   $var wire 16 & out(3) [15:0] $end
   $var wire 16 ' out(4) [15:0] $end
   $var wire 16 ( out(5) [15:0] $end
   $var wire 16 ) out(6) [15:0] $end
   $var wire 16 * out(7) [15:0] $end
   $var wire 16 7" out_mux [15:0] $end
   $var wire 16 [$ reg0 [15:0] $end
   $var wire 16 c$ reg1 [15:0] $end
   $var wire 16 k$ reg2 [15:0] $end
   $var wire 16 s$ reg3 [15:0] $end
   $var wire 16 {$ reg4 [15:0] $end
   $var wire 16 %% reg5 [15:0] $end
   $var wire 16 -% reg6 [15:0] $end
   $var wire 16 5% reg7 [15:0] $end
   $var wire 16 E% regc [15:0] $end
   $var wire 16 =% regs [15:0] $end
   $var wire  1 C$ reset $end
   $var wire  1 3$ run $end
   $scope module alu_inst $end
    $var wire 32 e% WIDTH [31:0] $end
    $var wire 16 =% a_in [15:0] $end
    $var wire 16 ?" alu_out [15:0] $end
    $var wire 16 !# arithmetic_res [15:0] $end
    $var wire 16 7" b_in [15:0] $end
    $var wire  1 1# car_arith $end
    $var wire  1 )# car_out $end
    $var wire  1 S$ carry_in $end
    $var wire  1 U% carry_out $end
    $var wire 16 w" logic_res [15:0] $end
    $var wire  1 _" mode $end
    $var wire 16 ?" res [15:0] $end
    $var wire  4 g" select [3:0] $end
    $scope module u1 $end
     $var wire 32 e% WIDTH [31:0] $end
     $var wire 16 =% in_a [15:0] $end
     $var wire 16 7" in_b [15:0] $end
     $var wire 16 w" logic_out [15:0] $end
     $var wire 16 w" res [15:0] $end
     $var wire  4 g" select [3:0] $end
    $upscope $end
    $scope module u2 $end
     $var wire 32 e% WIDTH [31:0] $end
     $var wire 16 !# arithmetic_out [15:0] $end
     $var wire  1 S$ carry_in $end
     $var wire  1 1# carry_out $end
     $var wire 17 9# extended_res [16:0] $end
     $var wire 16 =% in_a [15:0] $end
     $var wire 16 7" in_b [15:0] $end
     $var wire  4 g" select [3:0] $end
    $upscope $end
   $upscope $end
   $scope module cpu_inst $end
    $var wire  1 ;$ clk $end
    $var wire  2 I# cur_state [1:0] $end
    $var wire 16 A# d_inst [15:0] $end
    $var wire  1 ]% done $end
    $var wire  8 E! en [7:0] $end
    $var wire  1 O" en_c $end
    $var wire  1 W" en_inst $end
    $var wire  1 G" en_s $end
    $var wire  1 _" mode $end
    $var wire  4 /" mux_sel [3:0] $end
    $var wire  2 o" next_state [1:0] $end
    $var wire  1 C$ reset $end
    $var wire  1 3$ run $end
    $var wire  4 g" sel [3:0] $end
   $upscope $end
   $scope module genblk1(0) $end
    $scope module reg_out $end
     $var wire  1 ;$ clk $end
     $var wire 16 E% d_in [15:0] $end
     $var wire  1 M! en $end
     $var wire 16 Q# mux_out [15:0] $end
    $upscope $end
   $upscope $end
   $scope module genblk1(1) $end
    $scope module reg_out $end
     $var wire  1 ;$ clk $end
     $var wire 16 E% d_in [15:0] $end
     $var wire  1 U! en $end
     $var wire 16 Y# mux_out [15:0] $end
    $upscope $end
   $upscope $end
   $scope module genblk1(2) $end
    $scope module reg_out $end
     $var wire  1 ;$ clk $end
     $var wire 16 E% d_in [15:0] $end
     $var wire  1 ]! en $end
     $var wire 16 a# mux_out [15:0] $end
    $upscope $end
   $upscope $end
   $scope module genblk1(3) $end
    $scope module reg_out $end
     $var wire  1 ;$ clk $end
     $var wire 16 E% d_in [15:0] $end
     $var wire  1 e! en $end
     $var wire 16 i# mux_out [15:0] $end
    $upscope $end
   $upscope $end
   $scope module genblk1(4) $end
    $scope module reg_out $end
     $var wire  1 ;$ clk $end
     $var wire 16 E% d_in [15:0] $end
     $var wire  1 m! en $end
     $var wire 16 q# mux_out [15:0] $end
    $upscope $end
   $upscope $end
   $scope module genblk1(5) $end
    $scope module reg_out $end
     $var wire  1 ;$ clk $end
     $var wire 16 E% d_in [15:0] $end
     $var wire  1 u! en $end
     $var wire 16 y# mux_out [15:0] $end
    $upscope $end
   $upscope $end
   $scope module genblk1(6) $end
    $scope module reg_out $end
     $var wire  1 ;$ clk $end
     $var wire 16 E% d_in [15:0] $end
     $var wire  1 }! en $end
     $var wire 16 #$ mux_out [15:0] $end
    $upscope $end
   $upscope $end
   $scope module genblk1(7) $end
    $scope module reg_out $end
     $var wire  1 ;$ clk $end
     $var wire 16 E% d_in [15:0] $end
     $var wire  1 '" en $end
     $var wire 16 +$ mux_out [15:0] $end
    $upscope $end
   $upscope $end
   $scope module mux_inst $end
    $var wire 16 7" mux_out [15:0] $end
    $var wire  4 /" mux_sel [3:0] $end
    $var wire 16 c reg0 [15:0] $end
    $var wire 16 k reg1 [15:0] $end
    $var wire 16 s reg2 [15:0] $end
    $var wire 16 { reg3 [15:0] $end
    $var wire 16 %! reg4 [15:0] $end
    $var wire 16 -! reg5 [15:0] $end
    $var wire 16 5! reg6 [15:0] $end
    $var wire 16 =! reg7 [15:0] $end
   $upscope $end
   $scope module reg_c $end
    $var wire  1 ;$ clk $end
    $var wire 16 ?" d_in [15:0] $end
    $var wire  1 O" en $end
    $var wire 16 E% mux_out [15:0] $end
   $upscope $end
   $scope module reg_inst $end
    $var wire  1 ;$ clk $end
    $var wire 16 K$ d_in [15:0] $end
    $var wire  1 W" en $end
    $var wire 16 A# mux_out [15:0] $end
   $upscope $end
   $scope module reg_s $end
    $var wire  1 ;$ clk $end
    $var wire 16 7" d_in [15:0] $end
    $var wire  1 G" en $end
    $var wire 16 =% mux_out [15:0] $end
   $upscope $end
  $upscope $end
 $upscope $end
$enddefinitions $end


#0
b1011001101101101 #
b1101101110101010 $
b1101100111000000 %
b0000111110010100 &
b1011101001111000 '
b1001100110000111 (
b1101000110110011 )
b0011110000001100 *
b1011001101101101 c
b1101101110101010 k
b1101100111000000 s
b0000111110010100 {
b1011101001111000 %!
b1001100110000111 -!
b1101000110110011 5!
b0011110000001100 =!
b00000000 E!
0M!
0U!
0]!
0e!
0m!
0u!
0}!
0'"
b0001 /"
b1101101110101010 7"
b1100010000001111 ?"
1G"
0O"
0W"
0_"
b0000 g"
b01 o"
b0011101111110000 w"
b1100010000001111 !#
0)#
01#
b01100010000001111 9#
b0010000110110011 A#
b00 I#
b1011001101101101 Q#
b1101101110101010 Y#
b1101100111000000 a#
b0000111110010100 i#
b1011101001111000 q#
b1001100110000111 y#
b1101000110110011 #$
b0011110000001100 +$
13$
1;$
0C$
b0100011010010001 K$
1S$
b1011001101101101 [$
b1101101110101010 c$
b1101100111000000 k$
b0000111110010100 s$
b1011101001111000 {$
b1001100110000111 %%
b1101000110110011 -%
b0011110000001100 5%
b1100010000001111 =%
b1111101001011111 E%
b1100010000001111 M%
0U%
0]%
b00000000000000000000000000010000 e%
#1
#2
#3
#4
#5
#6
#7
0;$
#8
1;$
#9
b0000 /"
b1011001101101101 7"
b0010100000111100 ?"
0G"
1O"
b0110 g"
b11 o"
b0110100011000111 w"
b0010100000111100 !#
1)#
11#
b10010100000111100 9#
b01 I#
0;$
b1101101110101010 =%
b0010100000111100 M%
1U%
#10
1;$
#11
b00000010 E!
1U!
b1101101110101010 ?"
0O"
b0000 g"
b00 o"
b0010010001010101 w"
b1101101110101010 !#
0)#
01#
b01101101110101010 9#
b11 I#
0;$
b0010100000111100 E%
b1101101110101010 M%
0U%
1]%
#12
1;$
1C$
b0000001010000011 K$
0S$
#13
b0000000000000000 #
b0000000000000000 $
b0000000000000000 %
b0000000000000000 &
b0000000000000000 '
b0000000000000000 (
b0000000000000000 )
b0000000000000000 *
b0000000000000000 c
b0000000000000000 k
b0000000000000000 s
b0000000000000000 {
b0000000000000000 %!
b0000000000000000 -!
b0000000000000000 5!
b0000000000000000 =!
b00000000 E!
0U!
b0001 /"
b0000000000000000 7"
1G"
b01 o"
b00 I#
b0010100000111100 Y#
0;$
0C$
b0001111011100010 K$
b0000000000000000 [$
b0000000000000000 c$
b0000000000000000 k$
b0000000000000000 s$
b0000000000000000 {$
b0000000000000000 %%
b0000000000000000 -%
b0000000000000000 5%
0]%
#14
03$
1;$
b0000001111000001 K$
#15
b1011001101101101 #
b0010100000111100 $
b1101100111000000 %
b0000111110010100 &
b1011101001111000 '
b1001100110000111 (
b1101000110110011 )
b0011110000001100 *
b1011001101101101 c
b0010100000111100 k
b1101100111000000 s
b0000111110010100 {
b1011101001111000 %!
b1001100110000111 -!
b1101000110110011 5!
b0011110000001100 =!
b0000 /"
b1011001101101101 7"
b0000000000000000 ?"
0G"
b00 o"
b1111111111111111 w"
b0000000000000000 !#
b00000000000000000 9#
b01 I#
0;$
1C$
b0101010010000001 K$
1S$
b1011001101101101 [$
b0010100000111100 c$
b1101100111000000 k$
b0000111110010100 s$
b1011101001111000 {$
b1001100110000111 %%
b1101000110110011 -%
b0011110000001100 5%
b0000000000000000 =%
b0000000000000000 M%
#16
b0000000000000000 #
b0000000000000000 $
b0000000000000000 %
b0000000000000000 &
b0000000000000000 '
b0000000000000000 (
b0000000000000000 )
b0000000000000000 *
b0000000000000000 c
b0000000000000000 k
b0000000000000000 s
b0000000000000000 {
b0000000000000000 %!
b0000000000000000 -!
b0000000000000000 5!
b0000000000000000 =!
b0000000000000000 7"
1;$
b0000000000000000 [$
b0000000000000000 c$
b0000000000000000 k$
b0000000000000000 s$
b0000000000000000 {$
b0000000000000000 %%
b0000000000000000 -%
b0000000000000000 5%
#17
b00 I#
0;$
#18
1;$
#19
0;$
#20
13$
1;$
b1100010000101111 K$
#21
b0001 /"
1G"
b01 o"
0;$
#22
1;$
#23
0;$
#24
1;$
#25
0;$
#26
1;$
b1110001100000100 K$
#27
0;$
#28
1;$
0C$
b1010100010110001 K$
#29
b1011001101101101 #
b0010100000111100 $
b1101100111000000 %
b0000111110010100 &
b1011101001111000 '
b1001100110000111 (
b1101000110110011 )
b0011110000001100 *
b1011001101101101 c
b0010100000111100 k
b1101100111000000 s
b0000111110010100 {
b1011101001111000 %!
b1001100110000111 -!
b1101000110110011 5!
b0011110000001100 =!
b0000 /"
b1011001101101101 7"
b0100110010010010 ?"
0G"
1O"
b0110 g"
b11 o"
b1011001101101101 w"
b0100110010010010 !#
b00100110010010010 9#
b01 I#
0;$
b1011001101101101 [$
b0010100000111100 c$
b1101100111000000 k$
b0000111110010100 s$
b1011101001111000 {$
b1001100110000111 %%
b1101000110110011 -%
b0011110000001100 5%
b0100110010010010 M%
#30
1;$
#31
b00000010 E!
1U!
b0000000000000000 ?"
0O"
b0000 g"
b00 o"
b1111111111111111 w"
b0000000000000000 !#
b00000000000000000 9#
b11 I#
0;$
b0100110010010010 E%
b0000000000000000 M%
1]%
#32
1;$
#33
b0000000000000000 #
b0000000000000000 $
b0000000000000000 %
b0000000000000000 &
b0000000000000000 '
b0000000000000000 (
b0000000000000000 )
b0000000000000000 *
b0000000000000000 c
b0000000000000000 k
b0000000000000000 s
b0000000000000000 {
b0000000000000000 %!
b0000000000000000 -!
b0000000000000000 5!
b0000000000000000 =!
b00000000 E!
0U!
b0001 /"
b0000000000000000 7"
1G"
b01 o"
b00 I#
b0100110010010010 Y#
0;$
b0000000000000000 [$
b0000000000000000 c$
b0000000000000000 k$
b0000000000000000 s$
b0000000000000000 {$
b0000000000000000 %%
b0000000000000000 -%
b0000000000000000 5%
0]%
#34
1;$
#35
b1011001101101101 #
b0100110010010010 $
b1101100111000000 %
b0000111110010100 &
b1011101001111000 '
b1001100110000111 (
b1101000110110011 )
b0011110000001100 *
b1011001101101101 c
b0100110010010010 k
b1101100111000000 s
b0000111110010100 {
b1011101001111000 %!
b1001100110000111 -!
b1101000110110011 5!
b0011110000001100 =!
b0000 /"
b1011001101101101 7"
b0100110010010010 ?"
0G"
1O"
b0110 g"
b11 o"
b1011001101101101 w"
b0100110010010010 !#
b00100110010010010 9#
b01 I#
0;$
b1011001101101101 [$
b0100110010010010 c$
b1101100111000000 k$
b0000111110010100 s$
b1011101001111000 {$
b1001100110000111 %%
b1101000110110011 -%
b0011110000001100 5%
b0100110010010010 M%
#36
03$
1;$
b1000011001100001 K$
0S$
#37
b0000000000000000 ?"
0O"
b0000 g"
b1111111111111111 w"
b0000000000000000 !#
b00000000000000000 9#
b11 I#
0;$
b0000000000000000 M%
#38
1;$
#39
0;$
#40
1;$
#41
0;$
1C$
b0111000011111010 K$
#42
b0000000000000000 #
b0000000000000000 $
b0000000000000000 %
b0000000000000000 &
b0000000000000000 '
b0000000000000000 (
b0000000000000000 )
b0000000000000000 *
b0000000000000000 c
b0000000000000000 k
b0000000000000000 s
b0000000000000000 {
b0000000000000000 %!
b0000000000000000 -!
b0000000000000000 5!
b0000000000000000 =!
b0000000000000000 7"
1;$
b0000000000000000 [$
b0000000000000000 c$
b0000000000000000 k$
b0000000000000000 s$
b0000000000000000 {$
b0000000000000000 %%
b0000000000000000 -%
b0000000000000000 5%
#43
b00 o"
b00 I#
0;$
#44
1;$
#45
0;$
#46
1;$
#47
0;$
#48
13$
1;$
b1010011011101110 K$
1S$
#49
b0001 /"
1G"
b01 o"
0;$
#50
1;$
#51
0;$
#52
1;$
#53
03$
0;$
b1010010010100110 K$
0S$
#54
b0000 /"
0G"
b00 o"
1;$
b0001100010100100 K$
1S$
#55
0;$
#56
1;$
0C$
b0000000010101110 K$
#57
b1011001101101101 #
b0100110010010010 $
b1101100111000000 %
b0000111110010100 &
b1011101001111000 '
b1001100110000111 (
b1101000110110011 )
b0011110000001100 *
b1011001101101101 c
b0100110010010010 k
b1101100111000000 s
b0000111110010100 {
b1011101001111000 %!
b1001100110000111 -!
b1101000110110011 5!
b0011110000001100 =!
b1011001101101101 7"
0;$
b1011001101101101 [$
b0100110010010010 c$
b1101100111000000 k$
b0000111110010100 s$
b1011101001111000 {$
b1001100110000111 %%
b1101000110110011 -%
b0011110000001100 5%
#58
1;$
#59
0;$
1C$
b1001011011100010 K$
#60
b0000000000000000 #
b0000000000000000 $
b0000000000000000 %
b0000000000000000 &
b0000000000000000 '
b0000000000000000 (
b0000000000000000 )
b0000000000000000 *
b0000000000000000 c
b0000000000000000 k
b0000000000000000 s
b0000000000000000 {
b0000000000000000 %!
b0000000000000000 -!
b0000000000000000 5!
b0000000000000000 =!
b0000000000000000 7"
1;$
b0000000000000000 [$
b0000000000000000 c$
b0000000000000000 k$
b0000000000000000 s$
b0000000000000000 {$
b0000000000000000 %%
b0000000000000000 -%
b0000000000000000 5%
#61
0;$
#62
1;$
#63
0;$
#64
1;$
#65
0;$
#66
13$
1;$
b1111111010011000 K$
0S$
#67
b0001 /"
1G"
b01 o"
0;$
#68
1;$
#69
0;$
#70
1;$
#71
0;$
#72
03$
1;$
0C$
b0010110100010101 K$
#73
b1011001101101101 #
b0100110010010010 $
b1101100111000000 %
b0000111110010100 &
b1011101001111000 '
b1001100110000111 (
b1101000110110011 )
b0011110000001100 *
b1011001101101101 c
b0100110010010010 k
b1101100111000000 s
b0000111110010100 {
b1011101001111000 %!
b1001100110000111 -!
b1101000110110011 5!
b0011110000001100 =!
b0000 /"
b1011001101101101 7"
0G"
b00 o"
b01 I#
0;$
b1011001101101101 [$
b0100110010010010 c$
b1101100111000000 k$
b0000111110010100 s$
b1011101001111000 {$
b1001100110000111 %%
b1101000110110011 -%
b0011110000001100 5%
#74
1;$
#75
b00 I#
0;$
#76
1;$
#77
0;$
#78
1;$
#79
0;$
#80
1;$
#81
0;$
#82
1;$
#83
0;$
#84
1;$
#85
0;$
#86
1;$
#87
0;$
#88
1;$
b0110111011100010 K$
1S$
#89
0;$
#90
1;$
1C$
b1100110011110100 K$
#91
b0000000000000000 #
b0000000000000000 $
b0000000000000000 %
b0000000000000000 &
b0000000000000000 '
b0000000000000000 (
b0000000000000000 )
b0000000000000000 *
b0000000000000000 c
b0000000000000000 k
b0000000000000000 s
b0000000000000000 {
b0000000000000000 %!
b0000000000000000 -!
b0000000000000000 5!
b0000000000000000 =!
b0000000000000000 7"
0;$
b0000000000000000 [$
b0000000000000000 c$
b0000000000000000 k$
b0000000000000000 s$
b0000000000000000 {$
b0000000000000000 %%
b0000000000000000 -%
b0000000000000000 5%
#92
1;$
0C$
b0000111011111010 K$
0S$
#93
b1011001101101101 #
b0100110010010010 $
b1101100111000000 %
b0000111110010100 &
b1011101001111000 '
b1001100110000111 (
b1101000110110011 )
b0011110000001100 *
b1011001101101101 c
b0100110010010010 k
b1101100111000000 s
b0000111110010100 {
b1011101001111000 %!
b1001100110000111 -!
b1101000110110011 5!
b0011110000001100 =!
b1011001101101101 7"
0;$
b1011001101101101 [$
b0100110010010010 c$
b1101100111000000 k$
b0000111110010100 s$
b1011101001111000 {$
b1001100110000111 %%
b1101000110110011 -%
b0011110000001100 5%
#94
1;$
#95
0;$
#96
13$
1;$
b0100001111010011 K$
#97
b0001 /"
b0100110010010010 7"
1G"
b01 o"
0;$
b0101010001110110 K$
1S$
#98
1;$
#99
b0000 /"
b1011001101101101 7"
b1001100100100100 ?"
0G"
1O"
b0110 g"
b11 o"
b1001100100100100 !#
b01001100100100100 9#
b01 I#
0;$
b0100110010010010 =%
b1001100100100100 M%
#100
1;$
#101
b00000010 E!
1U!
b0100110010010010 ?"
0O"
b0000 g"
b00 o"
b1011001101101101 w"
b0100110010010010 !#
b00100110010010010 9#
b11 I#
03$
0;$
1C$
b1010010010101011 K$
b1001100100100100 E%
b0100110010010010 M%
1]%
#102
b0000000000000000 #
b0000000000000000 $
b0000000000000000 %
b0000000000000000 &
b0000000000000000 '
b0000000000000000 (
b0000000000000000 )
b0000000000000000 *
b0000000000000000 c
b0000000000000000 k
b0000000000000000 s
b0000000000000000 {
b0000000000000000 %!
b0000000000000000 -!
b0000000000000000 5!
b0000000000000000 =!
b00000000 E!
0U!
b0000000000000000 7"
b11 o"
1;$
b0000000000000000 [$
b0000000000000000 c$
b0000000000000000 k$
b0000000000000000 s$
b0000000000000000 {$
b0000000000000000 %%
b0000000000000000 -%
b0000000000000000 5%
0]%
#103
b00 o"
b00 I#
0;$
#104
1;$
#105
13$
0;$
b0001001010011010 K$
#106
b0001 /"
1G"
b01 o"
1;$
b1011000110111110 K$
0S$
#107
b0000000000000000 ?"
b1111111111111111 w"
b0000000000000000 !#
b00000000000000000 9#
0;$
b0000000000000000 =%
b0000000000000000 M%
#108
03$
1;$
0C$
b0011101000001101 K$
#109
b1011001101101101 #
b0100110010010010 $
b1101100111000000 %
b0000111110010100 &
b1011101001111000 '
b1001100110000111 (
b1101000110110011 )
b0011110000001100 *
b1011001101101101 c
b0100110010010010 k
b1101100111000000 s
b0000111110010100 {
b1011101001111000 %!
b1001100110000111 -!
b1101000110110011 5!
b0011110000001100 =!
b0000 /"
b1011001101101101 7"
0G"
b00 o"
b01 I#
0;$
b1011001101101101 [$
b0100110010010010 c$
b1101100111000000 k$
b0000111110010100 s$
b1011101001111000 {$
b1001100110000111 %%
b1101000110110011 -%
b0011110000001100 5%
#110
1;$
#111
b00 I#
0;$
#112
1;$
b0100101110100010 K$
#113
0;$
#114
1;$
#115
0;$
#116
1;$
#117
0;$
#118
13$
1;$
b0100000110110000 K$
#119
b0001 /"
b0100110010010010 7"
1G"
b01 o"
0;$
#120
1;$
#121
b0000 /"
b1011001101101101 7"
b1001100100100100 ?"
0G"
1O"
b0110 g"
b11 o"
b1001100100100100 !#
b01001100100100100 9#
b01 I#
0;$
b0100110010010010 =%
b1001100100100100 M%
#122
1;$
#123
b00000010 E!
1U!
b0100110010010010 ?"
0O"
b0000 g"
b00 o"
b1011001101101101 w"
b0100110010010010 !#
b00100110010010010 9#
b11 I#
0;$
b0100110010010010 M%
1]%
#124
1;$
#125
b0000000000000000 #
b0000000000000000 $
b0000000000000000 %
b0000000000000000 &
b0000000000000000 '
b0000000000000000 (
b0000000000000000 )
b0000000000000000 *
b0000000000000000 c
b0000000000000000 k
b0000000000000000 s
b0000000000000000 {
b0000000000000000 %!
b0000000000000000 -!
b0000000000000000 5!
b0000000000000000 =!
b00000000 E!
0U!
b0001 /"
b0000000000000000 7"
1G"
b01 o"
b00 I#
b1001100100100100 Y#
0;$
b0000000000000000 [$
b0000000000000000 c$
b0000000000000000 k$
b0000000000000000 s$
b0000000000000000 {$
b0000000000000000 %%
b0000000000000000 -%
b0000000000000000 5%
0]%
#126
1;$
b1000101100001010 K$
#127
b1011001101101101 #
b1001100100100100 $
b1101100111000000 %
b0000111110010100 &
b1011101001111000 '
b1001100110000111 (
b1101000110110011 )
b0011110000001100 *
b1011001101101101 c
b1001100100100100 k
b1101100111000000 s
b0000111110010100 {
b1011101001111000 %!
b1001100110000111 -!
b1101000110110011 5!
b0011110000001100 =!
b0000 /"
b1011001101101101 7"
0G"
1O"
b0110 g"
b11 o"
b01 I#
03$
0;$
1C$
b0000001001001110 K$
1S$
b1011001101101101 [$
b1001100100100100 c$
b1101100111000000 k$
b0000111110010100 s$
b1011101001111000 {$
b1001100110000111 %%
b1101000110110011 -%
b0011110000001100 5%
b0000000000000000 =%
#128
b0000000000000000 #
b0000000000000000 $
b0000000000000000 %
b0000000000000000 &
b0000000000000000 '
b0000000000000000 (
b0000000000000000 )
b0000000000000000 *
b0000000000000000 c
b0000000000000000 k
b0000000000000000 s
b0000000000000000 {
b0000000000000000 %!
b0000000000000000 -!
b0000000000000000 5!
b0000000000000000 =!
b0000000000000000 7"
b0000000000000000 ?"
0O"
b0000 g"
b00 o"
b1111111111111111 w"
b0000000000000000 !#
b00000000000000000 9#
1;$
b0000000000000000 [$
b0000000000000000 c$
b0000000000000000 k$
b0000000000000000 s$
b0000000000000000 {$
b0000000000000000 %%
b0000000000000000 -%
b0000000000000000 5%
b0000000000000000 M%
#129
b00 I#
13$
0;$
b0000011111010000 K$
#130
b0001 /"
1G"
b01 o"
03$
1;$
b0000001100011111 K$
#131
b0000 /"
0G"
b00 o"
0;$
#132
1;$
#133
0;$
#134
13$
1;$
0C$
b1111011100011001 K$
#135
b1011001101101101 #
b1001100100100100 $
b1101100111000000 %
b0000111110010100 &
b1011101001111000 '
b1001100110000111 (
b1101000110110011 )
b0011110000001100 *
b1011001101101101 c
b1001100100100100 k
b1101100111000000 s
b0000111110010100 {
b1011101001111000 %!
b1001100110000111 -!
b1101000110110011 5!
b0011110000001100 =!
b0001 /"
b1001100100100100 7"
1G"
b01 o"
0;$
b1011001101101101 [$
b1001100100100100 c$
b1101100111000000 k$
b0000111110010100 s$
b1011101001111000 {$
b1001100110000111 %%
b1101000110110011 -%
b0011110000001100 5%
#136
1;$
#137
b0000 /"
b1011001101101101 7"
b1110010110110110 ?"
0G"
1O"
b0110 g"
b11 o"
b0010101001001001 w"
b1110010110110110 !#
b01110010110110110 9#
b01 I#
0;$
b1001100100100100 =%
b1110010110110110 M%
#138
1;$
#139
b00000010 E!
1U!
b1001100100100100 ?"
0O"
b0000 g"
b00 o"
b0110011011011011 w"
b1001100100100100 !#
b01001100100100100 9#
b11 I#
0;$
b1110010110110110 E%
b1001100100100100 M%
1]%
#140
1;$
#141
b0000000000000000 #
b0000000000000000 $
b0000000000000000 %
b0000000000000000 &
b0000000000000000 '
b0000000000000000 (
b0000000000000000 )
b0000000000000000 *
b0000000000000000 c
b0000000000000000 k
b0000000000000000 s
b0000000000000000 {
b0000000000000000 %!
b0000000000000000 -!
b0000000000000000 5!
b0000000000000000 =!
b00000000 E!
0U!
b0001 /"
b0000000000000000 7"
1G"
b01 o"
b00 I#
b1110010110110110 Y#
03$
0;$
b1010011011101101 K$
b0000000000000000 [$
b0000000000000000 c$
b0000000000000000 k$
b0000000000000000 s$
b0000000000000000 {$
b0000000000000000 %%
b0000000000000000 -%
b0000000000000000 5%
0]%
#142
b0000 /"
0G"
b00 o"
1;$
#143
b1011001101101101 #
b1110010110110110 $
b1101100111000000 %
b0000111110010100 &
b1011101001111000 '
b1001100110000111 (
b1101000110110011 )
b0011110000001100 *
b1011001101101101 c
b1110010110110110 k
b1101100111000000 s
b0000111110010100 {
b1011101001111000 %!
b1001100110000111 -!
b1101000110110011 5!
b0011110000001100 =!
b1011001101101101 7"
0;$
b1011001101101101 [$
b1110010110110110 c$
b1101100111000000 k$
b0000111110010100 s$
b1011101001111000 {$
b1001100110000111 %%
b1101000110110011 -%
b0011110000001100 5%
#144
1;$
#145
0;$
#146
1;$
#147
0;$
1C$
b1000010001011101 K$
#148
b0000000000000000 #
b0000000000000000 $
b0000000000000000 %
b0000000000000000 &
b0000000000000000 '
b0000000000000000 (
b0000000000000000 )
b0000000000000000 *
b0000000000000000 c
b0000000000000000 k
b0000000000000000 s
b0000000000000000 {
b0000000000000000 %!
b0000000000000000 -!
b0000000000000000 5!
b0000000000000000 =!
b0000000000000000 7"
1;$
b0000000000000000 [$
b0000000000000000 c$
b0000000000000000 k$
b0000000000000000 s$
b0000000000000000 {$
b0000000000000000 %%
b0000000000000000 -%
b0000000000000000 5%
#149
13$
0;$
0C$
b1110010001100101 K$
#150
b0001 /"
1G"
b01 o"
1;$
#151
b1011001101101101 #
b1110010110110110 $
b1101100111000000 %
b0000111110010100 &
b1011101001111000 '
b1001100110000111 (
b1101000110110011 )
b0011110000001100 *
b1011001101101101 c
b1110010110110110 k
b1101100111000000 s
b0000111110010100 {
b1011101001111000 %!
b1001100110000111 -!
b1101000110110011 5!
b0011110000001100 =!
b0000 /"
b1011001101101101 7"
b0100110010010010 ?"
0G"
1O"
b0110 g"
b11 o"
b1011001101101101 w"
b0100110010010010 !#
b00100110010010010 9#
b01 I#
0;$
b1011001101101101 [$
b1110010110110110 c$
b1101100111000000 k$
b0000111110010100 s$
b1011101001111000 {$
b1001100110000111 %%
b1101000110110011 -%
b0011110000001100 5%
b0000000000000000 =%
b0100110010010010 M%
#152
03$
1;$
b1101101100110111 K$
0S$
#153
b0000000000000000 ?"
0O"
b0000 g"
b1111111111111111 w"
b0000000000000000 !#
b00000000000000000 9#
b11 I#
0;$
b0100110010010010 E%
b0000000000000000 M%
#154
1;$
#155
0;$
#156
1;$
#157
0;$
#158
1;$
#159
0;$
#160
13$
1;$
1C$
b0100001001000111 K$
1S$
#161
b0000000000000000 #
b0000000000000000 $
b0000000000000000 %
b0000000000000000 &
b0000000000000000 '
b0000000000000000 (
b0000000000000000 )
b0000000000000000 *
b0000000000000000 c
b0000000000000000 k
b0000000000000000 s
b0000000000000000 {
b0000000000000000 %!
b0000000000000000 -!
b0000000000000000 5!
b0000000000000000 =!
b0001 /"
b0000000000000000 7"
1G"
b01 o"
b00 I#
0;$
b0000000000000000 [$
b0000000000000000 c$
b0000000000000000 k$
b0000000000000000 s$
b0000000000000000 {$
b0000000000000000 %%
b0000000000000000 -%
b0000000000000000 5%
#162
1;$
#163
0;$
#164
1;$
#165
03$
0;$
b1001001111110010 K$
#166
b0000 /"
0G"
b00 o"
13$
1;$
b1110001111010010 K$
0S$
#167
b0001 /"
1G"
b01 o"
0;$
0C$
b0101010000001000 K$
1S$
#168
1;$
#169
b1011001101101101 #
b1110010110110110 $
b1101100111000000 %
b0000111110010100 &
b1011101001111000 '
b1001100110000111 (
b1101000110110011 )
b0011110000001100 *
b1011001101101101 c
b1110010110110110 k
b1101100111000000 s
b0000111110010100 {
b1011101001111000 %!
b1001100110000111 -!
b1101000110110011 5!
b0011110000001100 =!
b0000 /"
b1011001101101101 7"
b0100110010010010 ?"
0G"
1O"
b0110 g"
b11 o"
b1011001101101101 w"
b0100110010010010 !#
b00100110010010010 9#
b01 I#
0;$
b1011001101101101 [$
b1110010110110110 c$
b1101100111000000 k$
b0000111110010100 s$
b1011101001111000 {$
b1001100110000111 %%
b1101000110110011 -%
b0011110000001100 5%
b0100110010010010 M%
#170
1;$
#171
b00000010 E!
1U!
b0000000000000000 ?"
0O"
b0000 g"
b00 o"
b1111111111111111 w"
b0000000000000000 !#
b00000000000000000 9#
b11 I#
0;$
b0000000000000000 M%
1]%
#172
1;$
