lvl4/lab3/waveform.vcd
$version Generated by VerilatedVcd $end
$date Thu Jun 27 11:02:24 2024
 $end
$timescale   1ns $end

 $scope module TOP $end
  $var wire  1 S$ carry_in $end
  $var wire  1 U% carry_out $end
  $var wire  1 ;$ clk $end
  $var wire 16 K$ d_instr [15:0] $end
  $var wire 16 M% d_out [15:0] $end
  $var wire  1 ]% done $end
  $var wire 16 [$ reg0 [15:0] $end
  $var wire 16 c$ reg1 [15:0] $end
  $var wire 16 k$ reg2 [15:0] $end
  $var wire 16 s$ reg3 [15:0] $end
  $var wire 16 {$ reg4 [15:0] $end
  $var wire 16 %% reg5 [15:0] $end
  $var wire 16 -% reg6 [15:0] $end
  $var wire 16 5% reg7 [15:0] $end
  $var wire 16 E% regc [15:0] $end
  $var wire 16 =% regs [15:0] $end
  $var wire  1 C$ reset $end
  $var wire  1 3$ run $end
  $scope module bitty $end
   $var wire 16 ?" alu_out [15:0] $end
   $var wire  4 g" alu_sel [3:0] $end
   $var wire  1 S$ carry_in $end
   $var wire  1 U% carry_out $end
   $var wire  1 ;$ clk $end
   $var wire 16 K$ d_instr [15:0] $end
   $var wire 16 M% d_out [15:0] $end
   $var wire  1 ]% done $end
   $var wire  8 E! en [7:0] $end
   $var wire  1 O" en_c $end
   $var wire  1 W" en_inst $end
   $var wire  1 G" en_s $end
   $var wire 16 A# instruction [15:0] $end
   $var wire  1 _" mode $end
   $var wire  4 /" mux_sel [3:0] $end
   $var wire 16 # out(0) [15:0] $end
   $var wire 16 $ out(1) [15:0] $end
   $var wire 16 % out(2) [15:0] $end
   $var wire 16 & out(3) [15:0] $end
   $var wire 16 ' out(4) [15:0] $end
   $var wire 16 ( out(5) [15:0] $end
   $var wire 16 ) out(6) [15:0] $end
   $var wire 16 * out(7) [15:0] $end
   $var wire 16 7" out_mux [15:0] $end
   $var wire 16 [$ reg0 [15:0] $end
   $var wire 16 c$ reg1 [15:0] $end
   $var wire 16 k$ reg2 [15:0] $end
   $var wire 16 s$ reg3 [15:0] $end
   $var wire 16 {$ reg4 [15:0] $end
   $var wire 16 %% reg5 [15:0] $end
   $var wire 16 -% reg6 [15:0] $end
   $var wire 16 5% reg7 [15:0] $end
   $var wire 16 E% regc [15:0] $end
   $var wire 16 =% regs [15:0] $end
   $var wire  1 C$ reset $end
   $var wire  1 3$ run $end
   $scope module alu_inst $end
    $var wire 32 e% WIDTH [31:0] $end
    $var wire 16 =% a_in [15:0] $end
    $var wire 16 ?" alu_out [15:0] $end
    $var wire 16 !# arithmetic_res [15:0] $end
    $var wire 16 7" b_in [15:0] $end
    $var wire  1 1# car_arith $end
    $var wire  1 )# car_out $end
    $var wire  1 S$ carry_in $end
    $var wire  1 U% carry_out $end
    $var wire 16 w" logic_res [15:0] $end
    $var wire  1 _" mode $end
    $var wire 16 ?" res [15:0] $end
    $var wire  4 g" select [3:0] $end
    $scope module u1 $end
     $var wire 32 e% WIDTH [31:0] $end
     $var wire 16 =% in_a [15:0] $end
     $var wire 16 7" in_b [15:0] $end
     $var wire 16 w" logic_out [15:0] $end
     $var wire 16 w" res [15:0] $end
     $var wire  4 g" select [3:0] $end
    $upscope $end
    $scope module u2 $end
     $var wire 32 e% WIDTH [31:0] $end
     $var wire 16 !# arithmetic_out [15:0] $end
     $var wire  1 S$ carry_in $end
     $var wire  1 1# carry_out $end
     $var wire 17 9# extended_res [16:0] $end
     $var wire 16 =% in_a [15:0] $end
     $var wire 16 7" in_b [15:0] $end
     $var wire  4 g" select [3:0] $end
    $upscope $end
   $upscope $end
   $scope module cpu_inst $end
    $var wire  1 ;$ clk $end
    $var wire  2 I# cur_state [1:0] $end
    $var wire 16 A# d_inst [15:0] $end
    $var wire  1 ]% done $end
    $var wire  8 E! en [7:0] $end
    $var wire  1 O" en_c $end
    $var wire  1 W" en_inst $end
    $var wire  1 G" en_s $end
    $var wire  1 _" mode $end
    $var wire  4 /" mux_sel [3:0] $end
    $var wire  2 o" next_state [1:0] $end
    $var wire  1 C$ reset $end
    $var wire  1 3$ run $end
    $var wire  4 g" sel [3:0] $end
   $upscope $end
   $scope module genblk1(0) $end
    $scope module reg_out $end
     $var wire  1 ;$ clk $end
     $var wire 16 E% d_in [15:0] $end
     $var wire  1 M! en $end
     $var wire 16 Q# mux_out [15:0] $end
    $upscope $end
   $upscope $end
   $scope module genblk1(1) $end
    $scope module reg_out $end
     $var wire  1 ;$ clk $end
     $var wire 16 E% d_in [15:0] $end
     $var wire  1 U! en $end
     $var wire 16 Y# mux_out [15:0] $end
    $upscope $end
   $upscope $end
   $scope module genblk1(2) $end
    $scope module reg_out $end
     $var wire  1 ;$ clk $end
     $var wire 16 E% d_in [15:0] $end
     $var wire  1 ]! en $end
     $var wire 16 a# mux_out [15:0] $end
    $upscope $end
   $upscope $end
   $scope module genblk1(3) $end
    $scope module reg_out $end
     $var wire  1 ;$ clk $end
     $var wire 16 E% d_in [15:0] $end
     $var wire  1 e! en $end
     $var wire 16 i# mux_out [15:0] $end
    $upscope $end
   $upscope $end
   $scope module genblk1(4) $end
    $scope module reg_out $end
     $var wire  1 ;$ clk $end
     $var wire 16 E% d_in [15:0] $end
     $var wire  1 m! en $end
     $var wire 16 q# mux_out [15:0] $end
    $upscope $end
   $upscope $end
   $scope module genblk1(5) $end
    $scope module reg_out $end
     $var wire  1 ;$ clk $end
     $var wire 16 E% d_in [15:0] $end
     $var wire  1 u! en $end
     $var wire 16 y# mux_out [15:0] $end
    $upscope $end
   $upscope $end
   $scope module genblk1(6) $end
    $scope module reg_out $end
     $var wire  1 ;$ clk $end
     $var wire 16 E% d_in [15:0] $end
     $var wire  1 }! en $end
     $var wire 16 #$ mux_out [15:0] $end
    $upscope $end
   $upscope $end
   $scope module genblk1(7) $end
    $scope module reg_out $end
     $var wire  1 ;$ clk $end
     $var wire 16 E% d_in [15:0] $end
     $var wire  1 '" en $end
     $var wire 16 +$ mux_out [15:0] $end
    $upscope $end
   $upscope $end
   $scope module mux_inst $end
    $var wire 16 7" mux_out [15:0] $end
    $var wire  4 /" mux_sel [3:0] $end
    $var wire 16 c reg0 [15:0] $end
    $var wire 16 k reg1 [15:0] $end
    $var wire 16 s reg2 [15:0] $end
    $var wire 16 { reg3 [15:0] $end
    $var wire 16 %! reg4 [15:0] $end
    $var wire 16 -! reg5 [15:0] $end
    $var wire 16 5! reg6 [15:0] $end
    $var wire 16 =! reg7 [15:0] $end
   $upscope $end
   $scope module reg_c $end
    $var wire  1 ;$ clk $end
    $var wire 16 ?" d_in [15:0] $end
    $var wire  1 O" en $end
    $var wire 16 E% mux_out [15:0] $end
   $upscope $end
   $scope module reg_inst $end
    $var wire  1 ;$ clk $end
    $var wire 16 K$ d_in [15:0] $end
    $var wire  1 W" en $end
    $var wire 16 A# mux_out [15:0] $end
   $upscope $end
   $scope module reg_s $end
    $var wire  1 ;$ clk $end
    $var wire 16 7" d_in [15:0] $end
    $var wire  1 G" en $end
    $var wire 16 =% mux_out [15:0] $end
   $upscope $end
  $upscope $end
 $upscope $end
$enddefinitions $end


#0
b1011001101101101 #
b1101101110101010 $
b1101100111000000 %
b0000111110010100 &
b1011101001111000 '
b1001100110000111 (
b1101000110110011 )
b0011110000001100 *
b1011001101101101 c
b1101101110101010 k
b1101100111000000 s
b0000111110010100 {
b1011101001111000 %!
b1001100110000111 -!
b1101000110110011 5!
b0011110000001100 =!
b00000000 E!
0M!
0U!
0]!
0e!
0m!
0u!
0}!
0'"
b0001 /"
b1101101110101010 7"
b1100010000001111 ?"
1G"
0O"
0W"
0_"
b0000 g"
b01 o"
b0011101111110000 w"
b1100010000001111 !#
0)#
01#
b01100010000001111 9#
b0010000110110011 A#
b00 I#
b1011001101101101 Q#
b1101101110101010 Y#
b1101100111000000 a#
b0000111110010100 i#
b1011101001111000 q#
b1001100110000111 y#
b1101000110110011 #$
b0011110000001100 +$
13$
1;$
0C$
b0100011010010001 K$
1S$
b1011001101101101 [$
b1101101110101010 c$
b1101100111000000 k$
b0000111110010100 s$
b1011101001111000 {$
b1001100110000111 %%
b1101000110110011 -%
b0011110000001100 5%
b1100010000001111 =%
b1111101001011111 E%
b1100010000001111 M%
0U%
0]%
b00000000000000000000000000010000 e%
#1
#2
#3
#4
#5
#6
#7
0;$
#8
1;$
#9
b0000 /"
b1011001101101101 7"
b0010100000111100 ?"
0G"
1O"
b0110 g"
b11 o"
b0110100011000111 w"
b0010100000111100 !#
1)#
11#
b10010100000111100 9#
b01 I#
0;$
b1101101110101010 =%
b0010100000111100 M%
1U%
#10
1;$
#11
b00000010 E!
1U!
b1101101110101010 ?"
0O"
b0000 g"
b00 o"
b0010010001010101 w"
b1101101110101010 !#
0)#
01#
b01101101110101010 9#
b11 I#
0;$
b0010100000111100 E%
b1101101110101010 M%
0U%
1]%
#12
1;$
#13
b0000000000000000 #
b0000000000000000 $
b0000000000000000 %
b0000000000000000 &
b0000000000000000 '
b0000000000000000 (
b0000000000000000 )
b0000000000000000 *
b0000000000000000 c
b0000000000000000 k
b0000000000000000 s
b0000000000000000 {
b0000000000000000 %!
b0000000000000000 -!
b0000000000000000 5!
b0000000000000000 =!
b00000000 E!
0U!
b0001 /"
b0000000000000000 7"
1G"
b01 o"
b00 I#
b0010100000111100 Y#
03$
0;$
1C$
b0010000100111101 K$
b0000000000000000 [$
b0000000000000000 c$
b0000000000000000 k$
b0000000000000000 s$
b0000000000000000 {$
b0000000000000000 %%
b0000000000000000 -%
b0000000000000000 5%
0]%
#14
b0000 /"
0G"
b00 o"
1;$
#15
0;$
#16
1;$
#17
0;$
#18
1;$
#19
0;$
#20
13$
1;$
0C$
b0111010110000101 K$
0S$
#21
b1011001101101101 #
b0010100000111100 $
b1101100111000000 %
b0000111110010100 &
b1011101001111000 '
b1001100110000111 (
b1101000110110011 )
b0011110000001100 *
b1011001101101101 c
b0010100000111100 k
b1101100111000000 s
b0000111110010100 {
b1011101001111000 %!
b1001100110000111 -!
b1101000110110011 5!
b0011110000001100 =!
b0001 /"
b0010100000111100 7"
1G"
b01 o"
0;$
1C$
b0010101011011101 K$
1S$
b1011001101101101 [$
b0010100000111100 c$
b1101100111000000 k$
b0000111110010100 s$
b1011101001111000 {$
b1001100110000111 %%
b1101000110110011 -%
b0011110000001100 5%
#22
b0000000000000000 #
b0000000000000000 $
b0000000000000000 %
b0000000000000000 &
b0000000000000000 '
b0000000000000000 (
b0000000000000000 )
b0000000000000000 *
b0000000000000000 c
b0000000000000000 k
b0000000000000000 s
b0000000000000000 {
b0000000000000000 %!
b0000000000000000 -!
b0000000000000000 5!
b0000000000000000 =!
b0000000000000000 7"
1;$
b0000000000000000 [$
b0000000000000000 c$
b0000000000000000 k$
b0000000000000000 s$
b0000000000000000 {$
b0000000000000000 %%
b0000000000000000 -%
b0000000000000000 5%
#23
b0000000000000000 ?"
b1111111111111111 w"
b0000000000000000 !#
b00000000000000000 9#
0;$
b0000000000000000 =%
b0000000000000000 M%
#24
1;$
#25
0;$
#26
1;$
0C$
b0101110011100111 K$
0S$
#27
b1011001101101101 #
b0010100000111100 $
b1101100111000000 %
b0000111110010100 &
b1011101001111000 '
b1001100110000111 (
b1101000110110011 )
b0011110000001100 *
b1011001101101101 c
b0010100000111100 k
b1101100111000000 s
b0000111110010100 {
b1011101001111000 %!
b1001100110000111 -!
b1101000110110011 5!
b0011110000001100 =!
b0000 /"
b1011001101101101 7"
b0100110010010010 ?"
0G"
1O"
b0110 g"
b11 o"
b1011001101101101 w"
b0100110010010010 !#
b00100110010010010 9#
b01 I#
0;$
b1011001101101101 [$
b0010100000111100 c$
b1101100111000000 k$
b0000111110010100 s$
b1011101001111000 {$
b1001100110000111 %%
b1101000110110011 -%
b0011110000001100 5%
b0100110010010010 M%
#28
1;$
#29
b00000010 E!
1U!
b0000000000000000 ?"
0O"
b0000 g"
b00 o"
b1111111111111111 w"
b0000000000000000 !#
b00000000000000000 9#
b11 I#
0;$
b0100110010010010 E%
b0000000000000000 M%
1]%
#30
1;$
#31
b0000000000000000 #
b0000000000000000 $
b0000000000000000 %
b0000000000000000 &
b0000000000000000 '
b0000000000000000 (
b0000000000000000 )
b0000000000000000 *
b0000000000000000 c
b0000000000000000 k
b0000000000000000 s
b0000000000000000 {
b0000000000000000 %!
b0000000000000000 -!
b0000000000000000 5!
b0000000000000000 =!
b00000000 E!
0U!
b0001 /"
b0000000000000000 7"
1G"
b01 o"
b00 I#
b0100110010010010 Y#
0;$
b0000000000000000 [$
b0000000000000000 c$
b0000000000000000 k$
b0000000000000000 s$
b0000000000000000 {$
b0000000000000000 %%
b0000000000000000 -%
b0000000000000000 5%
0]%
#32
1;$
#33
b1011001101101101 #
b0100110010010010 $
b1101100111000000 %
b0000111110010100 &
b1011101001111000 '
b1001100110000111 (
b1101000110110011 )
b0011110000001100 *
b1011001101101101 c
b0100110010010010 k
b1101100111000000 s
b0000111110010100 {
b1011101001111000 %!
b1001100110000111 -!
b1101000110110011 5!
b0011110000001100 =!
b0000 /"
b1011001101101101 7"
b0100110010010010 ?"
0G"
1O"
b0110 g"
b11 o"
b1011001101101101 w"
b0100110010010010 !#
b00100110010010010 9#
b01 I#
0;$
b0110110111011000 K$
1S$
b1011001101101101 [$
b0100110010010010 c$
b1101100111000000 k$
b0000111110010100 s$
b1011101001111000 {$
b1001100110000111 %%
b1101000110110011 -%
b0011110000001100 5%
b0100110010010010 M%
#34
1;$
#35
b00000010 E!
1U!
b0000000000000000 ?"
0O"
b0000 g"
b00 o"
b1111111111111111 w"
b0000000000000000 !#
b00000000000000000 9#
b11 I#
0;$
b0000000000000000 M%
1]%
#36
1;$
1C$
b1100100000001111 K$
#37
b0000000000000000 #
b0000000000000000 $
b0000000000000000 %
b0000000000000000 &
b0000000000000000 '
b0000000000000000 (
b0000000000000000 )
b0000000000000000 *
b0000000000000000 c
b0000000000000000 k
b0000000000000000 s
b0000000000000000 {
b0000000000000000 %!
b0000000000000000 -!
b0000000000000000 5!
b0000000000000000 =!
b00000000 E!
0U!
b0001 /"
b0000000000000000 7"
1G"
b01 o"
b00 I#
0;$
b0000000000000000 [$
b0000000000000000 c$
b0000000000000000 k$
b0000000000000000 s$
b0000000000000000 {$
b0000000000000000 %%
b0000000000000000 -%
b0000000000000000 5%
0]%
#38
1;$
#39
0;$
#40
1;$
#41
0;$
#42
03$
1;$
0C$
b1000010000000101 K$
0S$
#43
b1011001101101101 #
b0100110010010010 $
b1101100111000000 %
b0000111110010100 &
b1011101001111000 '
b1001100110000111 (
b1101000110110011 )
b0011110000001100 *
b1011001101101101 c
b0100110010010010 k
b1101100111000000 s
b0000111110010100 {
b1011101001111000 %!
b1001100110000111 -!
b1101000110110011 5!
b0011110000001100 =!
b0000 /"
b1011001101101101 7"
0G"
b00 o"
b01 I#
0;$
b1011001101101101 [$
b0100110010010010 c$
b1101100111000000 k$
b0000111110010100 s$
b1011101001111000 {$
b1001100110000111 %%
b1101000110110011 -%
b0011110000001100 5%
#44
13$
1;$
1C$
b0010100101000001 K$
#45
b0000000000000000 #
b0000000000000000 $
b0000000000000000 %
b0000000000000000 &
b0000000000000000 '
b0000000000000000 (
b0000000000000000 )
b0000000000000000 *
b0000000000000000 c
b0000000000000000 k
b0000000000000000 s
b0000000000000000 {
b0000000000000000 %!
b0000000000000000 -!
b0000000000000000 5!
b0000000000000000 =!
b0001 /"
b0000000000000000 7"
1G"
b01 o"
b00 I#
0;$
b0000000000000000 [$
b0000000000000000 c$
b0000000000000000 k$
b0000000000000000 s$
b0000000000000000 {$
b0000000000000000 %%
b0000000000000000 -%
b0000000000000000 5%
#46
03$
1;$
b0110110011110011 K$
#47
b0000 /"
0G"
b00 o"
0;$
#48
1;$
b1011001010101100 K$
#49
0;$
#50
1;$
#51
0;$
#52
1;$
#53
0;$
#54
1;$
#55
0;$
0C$
b0100000100101010 K$
#56
1;$
#57
b1011001101101101 #
b0100110010010010 $
b1101100111000000 %
b0000111110010100 &
b1011101001111000 '
b1001100110000111 (
b1101000110110011 )
b0011110000001100 *
b1011001101101101 c
b0100110010010010 k
b1101100111000000 s
b0000111110010100 {
b1011101001111000 %!
b1001100110000111 -!
b1101000110110011 5!
b0011110000001100 =!
b1011001101101101 7"
0;$
b1011001101101101 [$
b0100110010010010 c$
b1101100111000000 k$
b0000111110010100 s$
b1011101001111000 {$
b1001100110000111 %%
b1101000110110011 -%
b0011110000001100 5%
#58
13$
1;$
b0010101111111011 K$
#59
b0001 /"
b0100110010010010 7"
1G"
b01 o"
0;$
#60
03$
1;$
b0100011000101000 K$
#61
b0000 /"
b1011001101101101 7"
b0100110010010010 ?"
0G"
b00 o"
b1011001101101101 w"
b0100110010010010 !#
b00100110010010010 9#
b01 I#
0;$
b0100110010010010 =%
b0100110010010010 M%
#62
1;$
#63
b00 I#
0;$
#64
1;$
#65
0;$
#66
1;$
#67
0;$
#68
1;$
#69
0;$
1C$
b1101100110101101 K$
#70
b0000000000000000 #
b0000000000000000 $
b0000000000000000 %
b0000000000000000 &
b0000000000000000 '
b0000000000000000 (
b0000000000000000 )
b0000000000000000 *
b0000000000000000 c
b0000000000000000 k
b0000000000000000 s
b0000000000000000 {
b0000000000000000 %!
b0000000000000000 -!
b0000000000000000 5!
b0000000000000000 =!
b0000000000000000 7"
1;$
b0000000000000000 [$
b0000000000000000 c$
b0000000000000000 k$
b0000000000000000 s$
b0000000000000000 {$
b0000000000000000 %%
b0000000000000000 -%
b0000000000000000 5%
#71
0;$
#72
13$
1;$
b0001110001101000 K$
#73
b0001 /"
1G"
b01 o"
0;$
#74
1;$
#75
b0000000000000000 ?"
b1111111111111111 w"
b0000000000000000 !#
b00000000000000000 9#
0;$
b0000000000000000 =%
b0000000000000000 M%
#76
1;$
#77
0;$
#78
1;$
#79
0;$
#80
1;$
#81
0;$
#82
1;$
#83
0;$
#84
1;$
#85
0;$
#86
1;$
#87
0;$
#88
1;$
#89
0;$
#90
1;$
#91
0;$
#92
1;$
#93
0;$
#94
03$
1;$
0C$
b0110111110111111 K$
#95
b1011001101101101 #
b0100110010010010 $
b1101100111000000 %
b0000111110010100 &
b1011101001111000 '
b1001100110000111 (
b1101000110110011 )
b0011110000001100 *
b1011001101101101 c
b0100110010010010 k
b1101100111000000 s
b0000111110010100 {
b1011101001111000 %!
b1001100110000111 -!
b1101000110110011 5!
b0011110000001100 =!
b0000 /"
b1011001101101101 7"
0G"
b00 o"
b01 I#
13$
0;$
b0001111110011100 K$
b1011001101101101 [$
b0100110010010010 c$
b1101100111000000 k$
b0000111110010100 s$
b1011101001111000 {$
b1001100110000111 %%
b1101000110110011 -%
b0011110000001100 5%
#96
b0100110010010010 ?"
1O"
b0110 g"
b11 o"
b1011001101101101 w"
b0100110010010010 !#
b00100110010010010 9#
1;$
b0100110010010010 M%
#97
b00000010 E!
1U!
b0000000000000000 ?"
0O"
b0000 g"
b00 o"
b1111111111111111 w"
b0000000000000000 !#
b00000000000000000 9#
b11 I#
0;$
b0000000000000000 M%
1]%
#98
1;$
#99
b0000000000000000 #
b0000000000000000 $
b0000000000000000 %
b0000000000000000 &
b0000000000000000 '
b0000000000000000 (
b0000000000000000 )
b0000000000000000 *
b0000000000000000 c
b0000000000000000 k
b0000000000000000 s
b0000000000000000 {
b0000000000000000 %!
b0000000000000000 -!
b0000000000000000 5!
b0000000000000000 =!
b00000000 E!
0U!
b0001 /"
b0000000000000000 7"
1G"
b01 o"
b00 I#
0;$
b0000000000000000 [$
b0000000000000000 c$
b0000000000000000 k$
b0000000000000000 s$
b0000000000000000 {$
b0000000000000000 %%
b0000000000000000 -%
b0000000000000000 5%
0]%
#100
1;$
#101
b1011001101101101 #
b0100110010010010 $
b1101100111000000 %
b0000111110010100 &
b1011101001111000 '
b1001100110000111 (
b1101000110110011 )
b0011110000001100 *
b1011001101101101 c
b0100110010010010 k
b1101100111000000 s
b0000111110010100 {
b1011101001111000 %!
b1001100110000111 -!
b1101000110110011 5!
b0011110000001100 =!
b0000 /"
b1011001101101101 7"
b0100110010010010 ?"
0G"
1O"
b0110 g"
b11 o"
b1011001101101101 w"
b0100110010010010 !#
b00100110010010010 9#
b01 I#
0;$
1C$
b1011111100101110 K$
b1011001101101101 [$
b0100110010010010 c$
b1101100111000000 k$
b0000111110010100 s$
b1011101001111000 {$
b1001100110000111 %%
b1101000110110011 -%
b0011110000001100 5%
b0100110010010010 M%
#102
b0000000000000000 #
b0000000000000000 $
b0000000000000000 %
b0000000000000000 &
b0000000000000000 '
b0000000000000000 (
b0000000000000000 )
b0000000000000000 *
b0000000000000000 c
b0000000000000000 k
b0000000000000000 s
b0000000000000000 {
b0000000000000000 %!
b0000000000000000 -!
b0000000000000000 5!
b0000000000000000 =!
b0000000000000000 7"
b1111111111111111 ?"
b0000000000000000 w"
b1111111111111111 !#
b01111111111111111 9#
1;$
b0000000000000000 [$
b0000000000000000 c$
b0000000000000000 k$
b0000000000000000 s$
b0000000000000000 {$
b0000000000000000 %%
b0000000000000000 -%
b0000000000000000 5%
b1111111111111111 M%
#103
b0001 /"
b0000000000000000 ?"
1G"
0O"
b0000 g"
b01 o"
b1111111111111111 w"
b0000000000000000 !#
b00000000000000000 9#
b00 I#
0;$
b1111111111111111 E%
b0000000000000000 M%
#104
1;$
0C$
b1001011110101111 K$
#105
b1011001101101101 #
b0100110010010010 $
b1101100111000000 %
b0000111110010100 &
b1011101001111000 '
b1001100110000111 (
b1101000110110011 )
b0011110000001100 *
b1011001101101101 c
b0100110010010010 k
b1101100111000000 s
b0000111110010100 {
b1011101001111000 %!
b1001100110000111 -!
b1101000110110011 5!
b0011110000001100 =!
b0000 /"
b1011001101101101 7"
b0100110010010010 ?"
0G"
1O"
b0110 g"
b11 o"
b1011001101101101 w"
b0100110010010010 !#
b00100110010010010 9#
b01 I#
0;$
b1011001101101101 [$
b0100110010010010 c$
b1101100111000000 k$
b0000111110010100 s$
b1011101001111000 {$
b1001100110000111 %%
b1101000110110011 -%
b0011110000001100 5%
b0100110010010010 M%
#106
1;$
#107
b00000010 E!
1U!
b0000000000000000 ?"
0O"
b0000 g"
b00 o"
b1111111111111111 w"
b0000000000000000 !#
b00000000000000000 9#
b11 I#
0;$
b0100110010010010 E%
b0000000000000000 M%
1]%
#108
1;$
#109
b0000000000000000 #
b0000000000000000 $
b0000000000000000 %
b0000000000000000 &
b0000000000000000 '
b0000000000000000 (
b0000000000000000 )
b0000000000000000 *
b0000000000000000 c
b0000000000000000 k
b0000000000000000 s
b0000000000000000 {
b0000000000000000 %!
b0000000000000000 -!
b0000000000000000 5!
b0000000000000000 =!
b00000000 E!
0U!
b0001 /"
b0000000000000000 7"
1G"
b01 o"
b00 I#
0;$
b0000000000000000 [$
b0000000000000000 c$
b0000000000000000 k$
b0000000000000000 s$
b0000000000000000 {$
b0000000000000000 %%
b0000000000000000 -%
b0000000000000000 5%
0]%
#110
1;$
#111
b1011001101101101 #
b0100110010010010 $
b1101100111000000 %
b0000111110010100 &
b1011101001111000 '
b1001100110000111 (
b1101000110110011 )
b0011110000001100 *
b1011001101101101 c
b0100110010010010 k
b1101100111000000 s
b0000111110010100 {
b1011101001111000 %!
b1001100110000111 -!
b1101000110110011 5!
b0011110000001100 =!
b0000 /"
b1011001101101101 7"
b0100110010010010 ?"
0G"
1O"
b0110 g"
b11 o"
b1011001101101101 w"
b0100110010010010 !#
b00100110010010010 9#
b01 I#
0;$
b1011001101101101 [$
b0100110010010010 c$
b1101100111000000 k$
b0000111110010100 s$
b1011101001111000 {$
b1001100110000111 %%
b1101000110110011 -%
b0011110000001100 5%
b0100110010010010 M%
#112
1;$
#113
b00000010 E!
1U!
b0000000000000000 ?"
0O"
b0000 g"
b00 o"
b1111111111111111 w"
b0000000000000000 !#
b00000000000000000 9#
b11 I#
0;$
b0000000000000000 M%
1]%
#114
1;$
#115
b0000000000000000 #
b0000000000000000 $
b0000000000000000 %
b0000000000000000 &
b0000000000000000 '
b0000000000000000 (
b0000000000000000 )
b0000000000000000 *
b0000000000000000 c
b0000000000000000 k
b0000000000000000 s
b0000000000000000 {
b0000000000000000 %!
b0000000000000000 -!
b0000000000000000 5!
b0000000000000000 =!
b00000000 E!
0U!
b0001 /"
b0000000000000000 7"
1G"
b01 o"
b00 I#
0;$
b0000000000000000 [$
b0000000000000000 c$
b0000000000000000 k$
b0000000000000000 s$
b0000000000000000 {$
b0000000000000000 %%
b0000000000000000 -%
b0000000000000000 5%
0]%
#116
1;$
#117
b1011001101101101 #
b0100110010010010 $
b1101100111000000 %
b0000111110010100 &
b1011101001111000 '
b1001100110000111 (
b1101000110110011 )
b0011110000001100 *
b1011001101101101 c
b0100110010010010 k
b1101100111000000 s
b0000111110010100 {
b1011101001111000 %!
b1001100110000111 -!
b1101000110110011 5!
b0011110000001100 =!
b0000 /"
b1011001101101101 7"
b0100110010010010 ?"
0G"
1O"
b0110 g"
b11 o"
b1011001101101101 w"
b0100110010010010 !#
b00100110010010010 9#
b01 I#
0;$
b1011001101101101 [$
b0100110010010010 c$
b1101100111000000 k$
b0000111110010100 s$
b1011101001111000 {$
b1001100110000111 %%
b1101000110110011 -%
b0011110000001100 5%
b0100110010010010 M%
#118
1;$
#119
b00000010 E!
1U!
b0000000000000000 ?"
0O"
b0000 g"
b00 o"
b1111111111111111 w"
b0000000000000000 !#
b00000000000000000 9#
b11 I#
0;$
b0000000000000000 M%
1]%
#120
1;$
#121
b0000000000000000 #
b0000000000000000 $
b0000000000000000 %
b0000000000000000 &
b0000000000000000 '
b0000000000000000 (
b0000000000000000 )
b0000000000000000 *
b0000000000000000 c
b0000000000000000 k
b0000000000000000 s
b0000000000000000 {
b0000000000000000 %!
b0000000000000000 -!
b0000000000000000 5!
b0000000000000000 =!
b00000000 E!
0U!
b0001 /"
b0000000000000000 7"
1G"
b01 o"
b00 I#
03$
0;$
b0010100011000101 K$
b0000000000000000 [$
b0000000000000000 c$
b0000000000000000 k$
b0000000000000000 s$
b0000000000000000 {$
b0000000000000000 %%
b0000000000000000 -%
b0000000000000000 5%
0]%
#122
b0000 /"
0G"
b00 o"
1;$
#123
b1011001101101101 #
b0100110010010010 $
b1101100111000000 %
b0000111110010100 &
b1011101001111000 '
b1001100110000111 (
b1101000110110011 )
b0011110000001100 *
b1011001101101101 c
b0100110010010010 k
b1101100111000000 s
b0000111110010100 {
b1011101001111000 %!
b1001100110000111 -!
b1101000110110011 5!
b0011110000001100 =!
b1011001101101101 7"
0;$
b1111100101001101 K$
1S$
b1011001101101101 [$
b0100110010010010 c$
b1101100111000000 k$
b0000111110010100 s$
b1011101001111000 {$
b1001100110000111 %%
b1101000110110011 -%
b0011110000001100 5%
#124
1;$
#125
0;$
#126
13$
1;$
1C$
b0101100000100110 K$
#127
b0000000000000000 #
b0000000000000000 $
b0000000000000000 %
b0000000000000000 &
b0000000000000000 '
b0000000000000000 (
b0000000000000000 )
b0000000000000000 *
b0000000000000000 c
b0000000000000000 k
b0000000000000000 s
b0000000000000000 {
b0000000000000000 %!
b0000000000000000 -!
b0000000000000000 5!
b0000000000000000 =!
b0001 /"
b0000000000000000 7"
1G"
b01 o"
0;$
b0000000000000000 [$
b0000000000000000 c$
b0000000000000000 k$
b0000000000000000 s$
b0000000000000000 {$
b0000000000000000 %%
b0000000000000000 -%
b0000000000000000 5%
#128
1;$
#129
0;$
#130
1;$
#131
0;$
#132
1;$
#133
0;$
#134
03$
1;$
0C$
b0100000100010111 K$
#135
b1011001101101101 #
b0100110010010010 $
b1101100111000000 %
b0000111110010100 &
b1011101001111000 '
b1001100110000111 (
b1101000110110011 )
b0011110000001100 *
b1011001101101101 c
b0100110010010010 k
b1101100111000000 s
b0000111110010100 {
b1011101001111000 %!
b1001100110000111 -!
b1101000110110011 5!
b0011110000001100 =!
b0000 /"
b1011001101101101 7"
0G"
b00 o"
b01 I#
0;$
b0101101010001000 K$
0S$
b1011001101101101 [$
b0100110010010010 c$
b1101100111000000 k$
b0000111110010100 s$
b1011101001111000 {$
b1001100110000111 %%
b1101000110110011 -%
b0011110000001100 5%
#136
1;$
#137
b00 I#
0;$
#138
13$
1;$
b1011111100111000 K$
1S$
#139
b0001 /"
b0100110010010010 7"
1G"
b01 o"
0;$
#140
1;$
1C$
b1000101110101100 K$
0S$
#141
b0000000000000000 #
b0000000000000000 $
b0000000000000000 %
b0000000000000000 &
b0000000000000000 '
b0000000000000000 (
b0000000000000000 )
b0000000000000000 *
b0000000000000000 c
b0000000000000000 k
b0000000000000000 s
b0000000000000000 {
b0000000000000000 %!
b0000000000000000 -!
b0000000000000000 5!
b0000000000000000 =!
b0000000000000000 7"
b0100110010010010 ?"
b1011001101101101 w"
b0100110010010010 !#
b00100110010010010 9#
0;$
b0000000000000000 [$
b0000000000000000 c$
b0000000000000000 k$
b0000000000000000 s$
b0000000000000000 {$
b0000000000000000 %%
b0000000000000000 -%
b0000000000000000 5%
b0100110010010010 =%
b0100110010010010 M%
#142
1;$
#143
b0000000000000000 ?"
b1111111111111111 w"
b0000000000000000 !#
b00000000000000000 9#
0;$
b0000000000000000 =%
b0000000000000000 M%
#144
1;$
#145
0;$
#146
1;$
#147
0;$
#148
1;$
#149
0;$
#150
1;$
#151
0;$
#152
1;$
b0110010100110001 K$
1S$
#153
0;$
0C$
b1111111001011111 K$
0S$
#154
03$
1;$
b0010011010000111 K$
