lvl3/lab3/waveform.vcd
$version Generated by VerilatedVcd $end
$date Wed Jun 26 10:42:45 2024
 $end
$timescale   1ns $end

 $scope module TOP $end
  $var wire  1 =% carry_in $end
  $var wire  1 ?& carry_out $end
  $var wire  1 %% clk $end
  $var wire 16 5% d_instr [15:0] $end
  $var wire 16 7& d_out [15:0] $end
  $var wire 16 E% reg0 [15:0] $end
  $var wire 16 M% reg1 [15:0] $end
  $var wire 16 U% reg2 [15:0] $end
  $var wire 16 ]% reg3 [15:0] $end
  $var wire 16 e% reg4 [15:0] $end
  $var wire 16 m% reg5 [15:0] $end
  $var wire 16 u% reg6 [15:0] $end
  $var wire 16 }% reg7 [15:0] $end
  $var wire 16 /& regc [15:0] $end
  $var wire 16 '& regs [15:0] $end
  $var wire  1 -% reset $end
  $var wire  1 {$ run $end
  $scope module bitty $end
   $var wire 16 G" alu_out [15:0] $end
   $var wire  4 w" alu_sel [3:0] $end
   $var wire  1 =% carry_in $end
   $var wire  1 ?& carry_out $end
   $var wire  1 %% clk $end
   $var wire 16 5% d_instr [15:0] $end
   $var wire 16 7& d_out [15:0] $end
   $var wire  1 g" done $end
   $var wire  8 7" en [7:0] $end
   $var wire  1 W" en_c $end
   $var wire  1 _" en_inst $end
   $var wire  1 O" en_s $end
   $var wire 16 +$ instruction [15:0] $end
   $var wire  1 o" mode $end
   $var wire  4 /" mux_sel [3:0] $end
   $var wire 16 # out(0) [15:0] $end
   $var wire 16 $ out(1) [15:0] $end
   $var wire 16 % out(2) [15:0] $end
   $var wire 16 & out(3) [15:0] $end
   $var wire 16 ' out(4) [15:0] $end
   $var wire 16 ( out(5) [15:0] $end
   $var wire 16 ) out(6) [15:0] $end
   $var wire 16 * out(7) [15:0] $end
   $var wire 16 ?" out_mux [15:0] $end
   $var wire 16 E% reg0 [15:0] $end
   $var wire 16 M% reg1 [15:0] $end
   $var wire 16 U% reg2 [15:0] $end
   $var wire 16 ]% reg3 [15:0] $end
   $var wire 16 e% reg4 [15:0] $end
   $var wire 16 m% reg5 [15:0] $end
   $var wire 16 u% reg6 [15:0] $end
   $var wire 16 }% reg7 [15:0] $end
   $var wire 16 /& regc [15:0] $end
   $var wire 16 '& regs [15:0] $end
   $var wire  1 -% reset $end
   $var wire  1 {$ run $end
   $scope module alu_inst $end
    $var wire 32 G& WIDTH [31:0] $end
    $var wire 16 '& a_in [15:0] $end
    $var wire 16 G" alu_out [15:0] $end
    $var wire 16 )# arithmetic_res [15:0] $end
    $var wire 16 ?" b_in [15:0] $end
    $var wire  1 9# car_arith $end
    $var wire  1 1# car_out $end
    $var wire  1 =% carry_in $end
    $var wire  1 ?& carry_out $end
    $var wire 16 !# logic_res [15:0] $end
    $var wire  1 o" mode $end
    $var wire 16 G" res [15:0] $end
    $var wire  4 w" select [3:0] $end
    $scope module u1 $end
     $var wire 32 G& WIDTH [31:0] $end
     $var wire 16 '& in_a [15:0] $end
     $var wire 16 ?" in_b [15:0] $end
     $var wire 16 !# logic_out [15:0] $end
     $var wire 16 !# res [15:0] $end
     $var wire  4 w" select [3:0] $end
    $upscope $end
    $scope module u2 $end
     $var wire 32 G& WIDTH [31:0] $end
     $var wire 16 )# arithmetic_out [15:0] $end
     $var wire  1 =% carry_in $end
     $var wire  1 9# carry_out $end
     $var wire 17 A# extended_res [16:0] $end
     $var wire 16 '& in_a [15:0] $end
     $var wire 16 ?" in_b [15:0] $end
     $var wire  4 w" select [3:0] $end
    $upscope $end
   $upscope $end
   $scope module cpu_inst $end
    $var wire  1 %% clk $end
    $var wire  2 s$ cur_state [1:0] $end
    $var wire 16 +$ d_inst [15:0] $end
    $var wire  1 g" done $end
    $var wire  8 7" en [7:0] $end
    $var wire  1 W" en_c $end
    $var wire  1 _" en_inst $end
    $var wire  1 O" en_s $end
    $var wire  1 o" mode $end
    $var wire  4 /" mux_sel [3:0] $end
    $var wire  2 '" next_state [1:0] $end
    $var wire  1 -% reset $end
    $var wire  1 {$ run $end
    $var wire  4 w" sel [3:0] $end
   $upscope $end
   $scope module genblk1(0) $end
    $scope module reg_out $end
     $var wire  1 %% clk $end
     $var wire 16 E! d_in [15:0] $end
     $var wire  1 I# en $end
     $var wire 16 3$ mux_out [15:0] $end
    $upscope $end
   $upscope $end
   $scope module genblk1(1) $end
    $scope module reg_out $end
     $var wire  1 %% clk $end
     $var wire 16 M! d_in [15:0] $end
     $var wire  1 Q# en $end
     $var wire 16 ;$ mux_out [15:0] $end
    $upscope $end
   $upscope $end
   $scope module genblk1(2) $end
    $scope module reg_out $end
     $var wire  1 %% clk $end
     $var wire 16 U! d_in [15:0] $end
     $var wire  1 Y# en $end
     $var wire 16 C$ mux_out [15:0] $end
    $upscope $end
   $upscope $end
   $scope module genblk1(3) $end
    $scope module reg_out $end
     $var wire  1 %% clk $end
     $var wire 16 ]! d_in [15:0] $end
     $var wire  1 a# en $end
     $var wire 16 K$ mux_out [15:0] $end
    $upscope $end
   $upscope $end
   $scope module genblk1(4) $end
    $scope module reg_out $end
     $var wire  1 %% clk $end
     $var wire 16 e! d_in [15:0] $end
     $var wire  1 i# en $end
     $var wire 16 S$ mux_out [15:0] $end
    $upscope $end
   $upscope $end
   $scope module genblk1(5) $end
    $scope module reg_out $end
     $var wire  1 %% clk $end
     $var wire 16 m! d_in [15:0] $end
     $var wire  1 q# en $end
     $var wire 16 [$ mux_out [15:0] $end
    $upscope $end
   $upscope $end
   $scope module genblk1(6) $end
    $scope module reg_out $end
     $var wire  1 %% clk $end
     $var wire 16 u! d_in [15:0] $end
     $var wire  1 y# en $end
     $var wire 16 c$ mux_out [15:0] $end
    $upscope $end
   $upscope $end
   $scope module genblk1(7) $end
    $scope module reg_out $end
     $var wire  1 %% clk $end
     $var wire 16 }! d_in [15:0] $end
     $var wire  1 #$ en $end
     $var wire 16 k$ mux_out [15:0] $end
    $upscope $end
   $upscope $end
   $scope module mux_inst $end
    $var wire 16 ?" mux_out [15:0] $end
    $var wire  4 /" mux_sel [3:0] $end
    $var wire 16 c reg0 [15:0] $end
    $var wire 16 k reg1 [15:0] $end
    $var wire 16 s reg2 [15:0] $end
    $var wire 16 { reg3 [15:0] $end
    $var wire 16 %! reg4 [15:0] $end
    $var wire 16 -! reg5 [15:0] $end
    $var wire 16 5! reg6 [15:0] $end
    $var wire 16 =! reg7 [15:0] $end
   $upscope $end
   $scope module reg_c $end
    $var wire  1 %% clk $end
    $var wire 16 G" d_in [15:0] $end
    $var wire  1 W" en $end
    $var wire 16 /& mux_out [15:0] $end
   $upscope $end
   $scope module reg_inst $end
    $var wire  1 %% clk $end
    $var wire 16 5% d_in [15:0] $end
    $var wire  1 _" en $end
    $var wire 16 +$ mux_out [15:0] $end
   $upscope $end
   $scope module reg_s $end
    $var wire  1 %% clk $end
    $var wire 16 ?" d_in [15:0] $end
    $var wire  1 O" en $end
    $var wire 16 '& mux_out [15:0] $end
   $upscope $end
  $upscope $end
 $upscope $end
$enddefinitions $end


#0
b1011001101101101 #
b1101101110101010 $
b1101100111000000 %
b0000111110010100 &
b1011101001111000 '
b1001100110000111 (
b1101000110110011 )
b0011110000001100 *
b1011001101101101 c
b1101101110101010 k
b1101100111000000 s
b0000111110010100 {
b1011101001111000 %!
b1001100110000111 -!
b1101000110110011 5!
b0011110000001100 =!
b1011001101101101 E!
b1101101110101010 M!
b1101100111000000 U!
b0000111110010100 ]!
b1011101001111000 e!
b1001100110000111 m!
b1101000110110011 u!
b0011110000001100 }!
b01 '"
b0001 /"
b01011000 7"
b1101101110101010 ?"
b1111101111111010 G"
1O"
1W"
0_"
1g"
1o"
b1000 w"
b1111101111111010 !#
b1000010000011010 )#
01#
19#
b11000010000011010 A#
0I#
0Q#
0Y#
1a#
1i#
0q#
1y#
0#$
b0010000110110011 +$
b1011001101101101 3$
b1101101110101010 ;$
b1101100111000000 C$
b0000111110010100 K$
b1011101001111000 S$
b1001100110000111 [$
b1101000110110011 c$
b0011110000001100 k$
b00 s$
1{$
1%%
0-%
b0100011010010001 5%
1=%
b1011001101101101 E%
b1101101110101010 M%
b1101100111000000 U%
b0000111110010100 ]%
b1011101001111000 e%
b1001100110000111 m%
b1101000110110011 u%
b0011110000001100 }%
b1100010000001111 '&
b1111101001011111 /&
b1111101111111010 7&
0?&
b00000000000000000000000000010000 G&
#1
#2
#3
#4
#5
#6
#7
0%%
#8
0{$
1%%
#9
b11 '"
b1111111111111111 G"
b1111111111111111 !#
b1011011101010101 )#
b11011011101010101 A#
b01 s$
0%%
b1101101110101010 '&
b1111101111111010 /&
b1111111111111111 7&
#10
1%%
#11
b00 '"
b11 s$
0%%
b1111111111111111 /&
#12
1%%
#13
b01 '"
b00 s$
0%%
1-%
0=%
#14
b0000 /"
b00000000 7"
b1011001101101101 ?"
b1101101110101010 G"
0O"
0W"
0g"
0o"
b0000 w"
b0010010001010101 !#
b1101101110101010 )#
09#
b01101101110101010 A#
0a#
0i#
0y#
1{$
1%%
0-%
1=%
b1101101110101010 7&
#15
b11 '"
b0010100000111100 G"
1W"
b0110 w"
b0110100011000111 !#
b0010100000111100 )#
11#
19#
b10010100000111100 A#
b01 s$
0{$
0%%
1-%
b0000000000000000 E%
b0000000000000000 M%
b0000000000000000 U%
b0000000000000000 ]%
b0000000000000000 e%
b0000000000000000 m%
b0000000000000000 u%
b0000000000000000 }%
b0010100000111100 7&
1?&
#16
b01 '"
b1101101110101010 G"
0W"
b0000 w"
b0010010001010101 !#
b1101101110101010 )#
01#
09#
b01101101110101010 A#
b00 s$
1%%
b1101101110101010 7&
0?&
#17
0%%
0-%
0=%
b1011001101101101 E%
b1101101110101010 M%
b1101100111000000 U%
b0000111110010100 ]%
b1011101001111000 e%
b1001100110000111 m%
b1101000110110011 u%
b0011110000001100 }%
#18
1%%
#19
b11 '"
b01 s$
0%%
1=%
#20
1%%
#21
b11 s$
0%%
#22
1%%
#23
0%%
#24
1%%
#25
0%%
0=%
#26
1%%
#27
0%%
#28
1%%
#29
0%%
#30
1%%
#31
0%%
#32
1%%
#33
0%%
#34
1%%
1-%
1=%
#35
b01 '"
b00 s$
0%%
#36
1%%
#37
0%%
#38
1%%
#39
0%%
#40
1%%
#41
0%%
#42
1%%
0=%
#43
1{$
0%%
0-%
1=%
#44
b0001 /"
b1101101110101010 ?"
1O"
1%%
b0000000000000000 E%
b0000000000000000 M%
b0000000000000000 U%
b0000000000000000 ]%
b0000000000000000 e%
b0000000000000000 m%
b0000000000000000 u%
b0000000000000000 }%
#45
b11 '"
b0000 /"
b1011001101101101 ?"
b0010100000111100 G"
1W"
b0110 w"
b0110100011000111 !#
b0010100000111100 )#
11#
19#
b10010100000111100 A#
b01 s$
0%%
b1011001101101101 E%
b1101101110101010 M%
b1101100111000000 U%
b0000111110010100 ]%
b1011101001111000 e%
b1001100110000111 m%
b1101000110110011 u%
b0011110000001100 }%
b0010100000111100 7&
1?&
#46
1%%
#47
b00 '"
b00000010 7"
b1111111111111111 G"
1g"
b0000000000000000 !#
b1111111111111111 )#
01#
09#
b01111111111111111 A#
1Q#
b11 s$
0%%
b1011001101101101 '&
b0010100000111100 /&
b1111111111111111 7&
0?&
#48
1%%
#49
b01 '"
b0001 /"
b1101101110101010 ?"
b1101011111000010 G"
b0110100011000111 !#
b1101011111000010 )#
b01101011111000010 A#
b00 s$
0{$
0%%
1-%
0=%
b1111111111111111 /&
b1101011111000010 7&
#50
b0000 /"
b00000000 7"
b1011001101101101 ?"
b1011001101101101 G"
0O"
0W"
0g"
b0000 w"
b0100110010010010 !#
b1011001101101101 )#
b01011001101101101 A#
0Q#
1%%
1=%
b1011001101101101 7&
#51
0%%
#52
1%%
#53
0%%
#54
1%%
#55
0%%
#56
1%%
#57
0%%
0-%
#58
1%%
#59
b11 '"
b01 s$
0%%
#60
1%%
#61
b11 s$
1{$
0%%
1-%
#62
b01 '"
b0001 /"
b1101101110101010 ?"
1O"
b00 s$
0{$
1%%
0=%
b0000000000000000 E%
b0000000000000000 M%
b0000000000000000 U%
b0000000000000000 ]%
b0000000000000000 e%
b0000000000000000 m%
b0000000000000000 u%
b0000000000000000 }%
#63
b0000 /"
b1011001101101101 ?"
b1101101110101010 G"
0O"
b0010010001010101 !#
b1101101110101010 )#
b01101101110101010 A#
0%%
0-%
1=%
b1011001101101101 E%
b1101101110101010 M%
b1101100111000000 U%
b0000111110010100 ]%
b1011101001111000 e%
b1001100110000111 m%
b1101000110110011 u%
b0011110000001100 }%
b1101101110101010 '&
b1101101110101010 7&
#64
1%%
#65
b11 '"
b01 s$
1{$
0%%
1-%
0=%
#66
b01 '"
b0001 /"
b1101101110101010 ?"
1O"
b00 s$
1%%
b0000000000000000 E%
b0000000000000000 M%
b0000000000000000 U%
b0000000000000000 ]%
b0000000000000000 e%
b0000000000000000 m%
b0000000000000000 u%
b0000000000000000 }%
#67
0%%
b1011001101101101 E%
b1101101110101010 M%
b1101100111000000 U%
b0000111110010100 ]%
b1011101001111000 e%
b1001100110000111 m%
b1101000110110011 u%
b0011110000001100 }%
#68
1%%
#69
0%%
#70
1%%
#71
0{$
0%%
0-%
#72
1%%
#73
b11 '"
b01 s$
0%%
#74
1%%
#75
b11 s$
0%%
#76
1%%
#77
0%%
#78
1%%
#79
0%%
#80
1%%
#81
1{$
0%%
1-%
#82
b01 '"
b00 s$
1%%
b0000000000000000 E%
b0000000000000000 M%
b0000000000000000 U%
b0000000000000000 ]%
b0000000000000000 e%
b0000000000000000 m%
b0000000000000000 u%
b0000000000000000 }%
#83
0%%
1=%
b1011001101101101 E%
b1101101110101010 M%
b1101100111000000 U%
b0000111110010100 ]%
b1011101001111000 e%
b1001100110000111 m%
b1101000110110011 u%
b0011110000001100 }%
#84
1%%
#85
0%%
#86
1%%
#87
0%%
#88
0{$
1%%
0-%
#89
b11 '"
b01 s$
0%%
1-%
0=%
#90
b01 '"
b0000 /"
b1011001101101101 ?"
0O"
b00 s$
1%%
#91
0%%
#92
1%%
#93
1{$
0%%
0-%
#94
b0001 /"
b1101101110101010 ?"
1O"
1%%
b0000000000000000 E%
b0000000000000000 M%
b0000000000000000 U%
b0000000000000000 ]%
b0000000000000000 e%
b0000000000000000 m%
b0000000000000000 u%
b0000000000000000 }%
#95
b11 '"
b0000 /"
b1011001101101101 ?"
b0010100000111100 G"
1W"
b0110 w"
b0110100011000111 !#
b0010100000111100 )#
11#
19#
b10010100000111100 A#
b01 s$
0%%
b1011001101101101 E%
b1101101110101010 M%
b1101100111000000 U%
b0000111110010100 ]%
b1011101001111000 e%
b1001100110000111 m%
b1101000110110011 u%
b0011110000001100 }%
b0010100000111100 7&
1?&
#96
1%%
1-%
#97
b01 '"
b0001 /"
b1101101110101010 ?"
b1011001101101101 G"
0W"
b0000 w"
b0100110010010010 !#
b1011001101101101 )#
01#
09#
b01011001101101101 A#
b00 s$
0%%
b1011001101101101 '&
b0010100000111100 /&
b1011001101101101 7&
0?&
#98
1%%
#99
b1101101110101010 G"
b0010010001010101 !#
b1101101110101010 )#
b01101101110101010 A#
0%%
b1101101110101010 '&
b1101101110101010 7&
#100
0{$
1%%
0-%
#101
b11 '"
b01 s$
0%%
#102
1%%
#103
b11 s$
0%%
#104
1%%
#105
0%%
#106
1%%
#107
0%%
#108
1%%
#109
0%%
1-%
#110
b01 '"
b0000 /"
b1011001101101101 ?"
0O"
b00 s$
1%%
#111
0%%
#112
1%%
#113
0%%
#114
1%%
#115
0%%
#116
1%%
#117
0%%
#118
1%%
#119
1{$
0%%
0-%
#120
b0001 /"
b1101101110101010 ?"
1O"
1%%
b0000000000000000 E%
b0000000000000000 M%
b0000000000000000 U%
b0000000000000000 ]%
b0000000000000000 e%
b0000000000000000 m%
b0000000000000000 u%
b0000000000000000 }%
#121
b11 '"
b0000 /"
b1011001101101101 ?"
b0010100000111100 G"
1W"
b0110 w"
b0110100011000111 !#
b0010100000111100 )#
11#
19#
b10010100000111100 A#
b01 s$
0%%
b1011001101101101 E%
b1101101110101010 M%
b1101100111000000 U%
b0000111110010100 ]%
b1011101001111000 e%
b1001100110000111 m%
b1101000110110011 u%
b0011110000001100 }%
b0010100000111100 7&
1?&
#122
1%%
#123
b00 '"
b00000010 7"
b1111111111111111 G"
1g"
b0000000000000000 !#
b1111111111111111 )#
01#
09#
b01111111111111111 A#
1Q#
b11 s$
0%%
b1011001101101101 '&
b1111111111111111 7&
0?&
#124
1%%
#125
b01 '"
b0001 /"
b1101101110101010 ?"
b1101011111000010 G"
b0110100011000111 !#
b1101011111000010 )#
b01101011111000010 A#
b00 s$
0%%
b1111111111111111 /&
b1101011111000010 7&
#126
1%%
#127
b11 '"
b0000 /"
b1011001101101101 ?"
b0010100000111100 G"
b0010100000111100 )#
11#
19#
b10010100000111100 A#
b01 s$
0%%
b1101101110101010 '&
b1101011111000010 /&
b0010100000111100 7&
1?&
#128
1%%
#129
b00 '"
b1111111111111111 G"
b0000000000000000 !#
b1111111111111111 )#
01#
09#
b01111111111111111 A#
b11 s$
0%%
b1011001101101101 '&
b0010100000111100 /&
b1111111111111111 7&
0?&
#130
1%%
#131
b01 '"
b0001 /"
b1101101110101010 ?"
b1101011111000010 G"
b0110100011000111 !#
b1101011111000010 )#
b01101011111000010 A#
b00 s$
0%%
b1111111111111111 /&
b1101011111000010 7&
#132
1%%
#133
b11 '"
b0000 /"
b1011001101101101 ?"
b0010100000111100 G"
b0010100000111100 )#
11#
19#
b10010100000111100 A#
b01 s$
0%%
b1101101110101010 '&
b1101011111000010 /&
b0010100000111100 7&
1?&
#134
1%%
1-%
1=%
#135
b01 '"
b0001 /"
b00000000 7"
b1101101110101010 ?"
b1011001101101101 G"
0W"
0g"
b0000 w"
b0100110010010010 !#
b1011001101101101 )#
01#
09#
b01011001101101101 A#
0Q#
b00 s$
0%%
b1011001101101101 '&
b0010100000111100 /&
b1011001101101101 7&
0?&
#136
1%%
#137
b1101101110101010 G"
b0010010001010101 !#
b1101101110101010 )#
b01101101110101010 A#
0%%
b1101101110101010 '&
b1101101110101010 7&
#138
1%%
#139
0%%
#140
1%%
#141
0%%
#142
1%%
#143
0%%
0=%
#144
0{$
1%%
0-%
1=%
#145
b11 '"
b01 s$
0%%
#146
1%%
#147
b11 s$
1{$
0%%
1-%
#148
b01 '"
b00 s$
1%%
b0000000000000000 E%
b0000000000000000 M%
b0000000000000000 U%
b0000000000000000 ]%
b0000000000000000 e%
b0000000000000000 m%
b0000000000000000 u%
b0000000000000000 }%
#149
0%%
b1011001101101101 E%
b1101101110101010 M%
b1101100111000000 U%
b0000111110010100 ]%
b1011101001111000 e%
b1001100110000111 m%
b1101000110110011 u%
b0011110000001100 }%
#150
1%%
#151
0%%
#152
1%%
#153
0%%
0=%
#154
1%%
#155
0%%
#156
1%%
#157
0%%
#158
1%%
#159
0%%
#160
1%%
#161
0{$
0%%
0-%
#162
1%%
#163
b11 '"
b01 s$
0%%
#164
1%%
#165
b11 s$
0%%
#166
1%%
#167
0%%
#168
1%%
1-%
#169
b01 '"
b0000 /"
b1011001101101101 ?"
0O"
b00 s$
0%%
#170
1%%
#171
0%%
#172
1%%
#173
0%%
#174
1%%
#175
0%%
#176
1%%
1=%
#177
0%%
0-%
#178
1%%
#179
b11 '"
b01 s$
0%%
#180
1%%
#181
b11 s$
0%%
#182
1%%
#183
1{$
0%%
1-%
0=%
#184
b01 '"
b0001 /"
b1101101110101010 ?"
1O"
b00 s$
1%%
b0000000000000000 E%
b0000000000000000 M%
b0000000000000000 U%
b0000000000000000 ]%
b0000000000000000 e%
b0000000000000000 m%
b0000000000000000 u%
b0000000000000000 }%
#185
0%%
b1011001101101101 E%
b1101101110101010 M%
b1101100111000000 U%
b0000111110010100 ]%
b1011101001111000 e%
b1001100110000111 m%
b1101000110110011 u%
b0011110000001100 }%
#186
1%%
#187
0%%
#188
1%%
#189
0{$
0%%
1=%
#190
b0000 /"
b1011001101101101 ?"
0O"
1%%
#191
0%%
#192
1%%
#193
0%%
#194
1%%
0=%
#195
0%%
#196
1%%
#197
0%%
#198
1%%
#199
0%%
#200
1%%
#201
0%%
#202
1%%
#203
0%%
#204
1%%
#205
0%%
#206
1%%
#207
0%%
#208
1%%
#209
0%%
#210
1%%
#211
0%%
#212
1%%
#213
0%%
#214
1%%
#215
0%%
1=%
#216
1%%
#217
0%%
#218
1%%
#219
0%%
#220
1%%
#221
0%%
#222
1{$
1%%
#223
b0001 /"
b1101101110101010 ?"
1O"
0%%
b0000000000000000 E%
b0000000000000000 M%
b0000000000000000 U%
b0000000000000000 ]%
b0000000000000000 e%
b0000000000000000 m%
b0000000000000000 u%
b0000000000000000 }%
#224
1%%
#225
0%%
b1011001101101101 E%
b1101101110101010 M%
b1101100111000000 U%
b0000111110010100 ]%
b1011101001111000 e%
b1001100110000111 m%
b1101000110110011 u%
b0011110000001100 }%
#226
0{$
1%%
0=%
#227
b0000 /"
b1011001101101101 ?"
0O"
0%%
#228
1%%
#229
0%%
#230
1%%
0-%
1=%
#231
b11 '"
b01 s$
0%%
#232
1%%
#233
b11 s$
0%%
#234
1%%
#235
0%%
1-%
#236
b01 '"
b00 s$
1%%
#237
1{$
0%%
0-%
0=%
#238
b0001 /"
b1101101110101010 ?"
1O"
1%%
b0000000000000000 E%
b0000000000000000 M%
b0000000000000000 U%
b0000000000000000 ]%
b0000000000000000 e%
b0000000000000000 m%
b0000000000000000 u%
b0000000000000000 }%
#239
b11 '"
b0000 /"
b1011001101101101 ?"
b0010100000111100 G"
1W"
b0110 w"
b0110100011000111 !#
b0010100000111100 )#
11#
19#
b10010100000111100 A#
b01 s$
0%%
b1011001101101101 E%
b1101101110101010 M%
b1101100111000000 U%
b0000111110010100 ]%
b1011101001111000 e%
b1001100110000111 m%
b1101000110110011 u%
b0011110000001100 }%
b0010100000111100 7&
1?&
#240
0{$
1%%
1-%
1=%
#241
b01 '"
b1011001101101101 G"
0O"
0W"
b0000 w"
b0100110010010010 !#
b1011001101101101 )#
01#
09#
b01011001101101101 A#
b00 s$
1{$
0%%
b1011001101101101 '&
b1011001101101101 7&
0?&
#242
b0001 /"
b1101101110101010 ?"
1O"
1%%
0=%
b0000000000000000 E%
b0000000000000000 M%
b0000000000000000 U%
b0000000000000000 ]%
b0000000000000000 e%
b0000000000000000 m%
b0000000000000000 u%
b0000000000000000 }%
#243
b1101101110101010 G"
b0010010001010101 !#
b1101101110101010 )#
b01101101110101010 A#
0%%
b1011001101101101 E%
b1101101110101010 M%
b1101100111000000 U%
b0000111110010100 ]%
b1011101001111000 e%
b1001100110000111 m%
b1101000110110011 u%
b0011110000001100 }%
b1101101110101010 '&
b1101101110101010 7&
#244
1%%
#245
0%%
#246
1%%
#247
0%%
#248
0{$
1%%
1=%
#249
b0000 /"
b1011001101101101 ?"
0O"
0%%
#250
1%%
#251
0%%
#252
1%%
#253
0%%
#254
1%%
0=%
#255
0%%
#256
1%%
#257
0%%
#258
1%%
#259
0%%
0-%
1=%
#260
1%%
#261
b11 '"
b01 s$
0%%
#262
1%%
#263
b11 s$
0%%
#264
1%%
#265
0%%
#266
1%%
#267
0%%
0=%
#268
1%%
#269
1{$
0%%
1-%
#270
b01 '"
b0001 /"
b1101101110101010 ?"
1O"
b00 s$
1%%
b0000000000000000 E%
b0000000000000000 M%
b0000000000000000 U%
b0000000000000000 ]%
b0000000000000000 e%
b0000000000000000 m%
b0000000000000000 u%
b0000000000000000 }%
#271
0%%
b1011001101101101 E%
b1101101110101010 M%
b1101100111000000 U%
b0000111110010100 ]%
b1011101001111000 e%
b1001100110000111 m%
b1101000110110011 u%
b0011110000001100 }%
#272
1%%
#273
0%%
#274
1%%
#275
0%%
#276
1%%
#277
0{$
0%%
0-%
1=%
#278
1%%
#279
b11 '"
b01 s$
0%%
#280
1%%
#281
b11 s$
0%%
#282
1%%
#283
0%%
1-%
0=%
#284
b01 '"
b0000 /"
b1011001101101101 ?"
0O"
b00 s$
1%%
#285
0%%
#286
1%%
#287
0%%
#288
1%%
#289
0%%
#290
1%%
#291
0%%
#292
1%%
#293
0%%
#294
1{$
1%%
0-%
1=%
#295
b11 '"
b0010100000111100 G"
1W"
b0110 w"
b0110100011000111 !#
b0010100000111100 )#
11#
19#
b10010100000111100 A#
b01 s$
0%%
b0000000000000000 E%
b0000000000000000 M%
b0000000000000000 U%
b0000000000000000 ]%
b0000000000000000 e%
b0000000000000000 m%
b0000000000000000 u%
b0000000000000000 }%
b0010100000111100 7&
1?&
#296
1%%
#297
b00 '"
b00000010 7"
1g"
1Q#
b11 s$
0%%
b1011001101101101 E%
b1101101110101010 M%
b1101100111000000 U%
b0000111110010100 ]%
b1011101001111000 e%
b1001100110000111 m%
b1101000110110011 u%
b0011110000001100 }%
#298
1%%
#299
b01 '"
b0001 /"
b1101101110101010 ?"
b1111111111111111 G"
1O"
b0000000000000000 !#
b1111111111111111 )#
01#
09#
b01111111111111111 A#
b00 s$
0%%
b1111111111111111 7&
0?&
