lvl3/lab3/waveform.vcd
$version Generated by VerilatedVcd $end
$date Thu Jun 27 10:52:44 2024
 $end
$timescale   1ns $end

 $scope module TOP $end
  $var wire  1 S$ carry_in $end
  $var wire  1 U% carry_out $end
  $var wire  1 ;$ clk $end
  $var wire 16 K$ d_instr [15:0] $end
  $var wire 16 M% d_out [15:0] $end
  $var wire  1 ]% done $end
  $var wire 16 [$ reg0 [15:0] $end
  $var wire 16 c$ reg1 [15:0] $end
  $var wire 16 k$ reg2 [15:0] $end
  $var wire 16 s$ reg3 [15:0] $end
  $var wire 16 {$ reg4 [15:0] $end
  $var wire 16 %% reg5 [15:0] $end
  $var wire 16 -% reg6 [15:0] $end
  $var wire 16 5% reg7 [15:0] $end
  $var wire 16 E% regc [15:0] $end
  $var wire 16 =% regs [15:0] $end
  $var wire  1 C$ reset $end
  $var wire  1 3$ run $end
  $scope module bitty $end
   $var wire 16 ?" alu_out [15:0] $end
   $var wire  4 g" alu_sel [3:0] $end
   $var wire  1 S$ carry_in $end
   $var wire  1 U% carry_out $end
   $var wire  1 ;$ clk $end
   $var wire 16 K$ d_instr [15:0] $end
   $var wire 16 M% d_out [15:0] $end
   $var wire  1 ]% done $end
   $var wire  8 E! en [7:0] $end
   $var wire  1 O" en_c $end
   $var wire  1 W" en_inst $end
   $var wire  1 G" en_s $end
   $var wire 16 A# instruction [15:0] $end
   $var wire  1 _" mode $end
   $var wire  4 /" mux_sel [3:0] $end
   $var wire 16 # out(0) [15:0] $end
   $var wire 16 $ out(1) [15:0] $end
   $var wire 16 % out(2) [15:0] $end
   $var wire 16 & out(3) [15:0] $end
   $var wire 16 ' out(4) [15:0] $end
   $var wire 16 ( out(5) [15:0] $end
   $var wire 16 ) out(6) [15:0] $end
   $var wire 16 * out(7) [15:0] $end
   $var wire 16 7" out_mux [15:0] $end
   $var wire 16 [$ reg0 [15:0] $end
   $var wire 16 c$ reg1 [15:0] $end
   $var wire 16 k$ reg2 [15:0] $end
   $var wire 16 s$ reg3 [15:0] $end
   $var wire 16 {$ reg4 [15:0] $end
   $var wire 16 %% reg5 [15:0] $end
   $var wire 16 -% reg6 [15:0] $end
   $var wire 16 5% reg7 [15:0] $end
   $var wire 16 E% regc [15:0] $end
   $var wire 16 =% regs [15:0] $end
   $var wire  1 C$ reset $end
   $var wire  1 3$ run $end
   $scope module alu_inst $end
    $var wire 32 e% WIDTH [31:0] $end
    $var wire 16 =% a_in [15:0] $end
    $var wire 16 ?" alu_out [15:0] $end
    $var wire 16 !# arithmetic_res [15:0] $end
    $var wire 16 7" b_in [15:0] $end
    $var wire  1 1# car_arith $end
    $var wire  1 )# car_out $end
    $var wire  1 S$ carry_in $end
    $var wire  1 U% carry_out $end
    $var wire 16 w" logic_res [15:0] $end
    $var wire  1 _" mode $end
    $var wire 16 ?" res [15:0] $end
    $var wire  4 g" select [3:0] $end
    $scope module u1 $end
     $var wire 32 e% WIDTH [31:0] $end
     $var wire 16 =% in_a [15:0] $end
     $var wire 16 7" in_b [15:0] $end
     $var wire 16 w" logic_out [15:0] $end
     $var wire 16 w" res [15:0] $end
     $var wire  4 g" select [3:0] $end
    $upscope $end
    $scope module u2 $end
     $var wire 32 e% WIDTH [31:0] $end
     $var wire 16 !# arithmetic_out [15:0] $end
     $var wire  1 S$ carry_in $end
     $var wire  1 1# carry_out $end
     $var wire 17 9# extended_res [16:0] $end
     $var wire 16 =% in_a [15:0] $end
     $var wire 16 7" in_b [15:0] $end
     $var wire  4 g" select [3:0] $end
    $upscope $end
   $upscope $end
   $scope module cpu_inst $end
    $var wire  1 ;$ clk $end
    $var wire  2 I# cur_state [1:0] $end
    $var wire 16 A# d_inst [15:0] $end
    $var wire  1 ]% done $end
    $var wire  8 E! en [7:0] $end
    $var wire  1 O" en_c $end
    $var wire  1 W" en_inst $end
    $var wire  1 G" en_s $end
    $var wire  1 _" mode $end
    $var wire  4 /" mux_sel [3:0] $end
    $var wire  2 o" next_state [1:0] $end
    $var wire  1 C$ reset $end
    $var wire  1 3$ run $end
    $var wire  4 g" sel [3:0] $end
   $upscope $end
   $scope module genblk1(0) $end
    $scope module reg_out $end
     $var wire  1 ;$ clk $end
     $var wire 16 E% d_in [15:0] $end
     $var wire  1 M! en $end
     $var wire 16 Q# mux_out [15:0] $end
    $upscope $end
   $upscope $end
   $scope module genblk1(1) $end
    $scope module reg_out $end
     $var wire  1 ;$ clk $end
     $var wire 16 E% d_in [15:0] $end
     $var wire  1 U! en $end
     $var wire 16 Y# mux_out [15:0] $end
    $upscope $end
   $upscope $end
   $scope module genblk1(2) $end
    $scope module reg_out $end
     $var wire  1 ;$ clk $end
     $var wire 16 E% d_in [15:0] $end
     $var wire  1 ]! en $end
     $var wire 16 a# mux_out [15:0] $end
    $upscope $end
   $upscope $end
   $scope module genblk1(3) $end
    $scope module reg_out $end
     $var wire  1 ;$ clk $end
     $var wire 16 E% d_in [15:0] $end
     $var wire  1 e! en $end
     $var wire 16 i# mux_out [15:0] $end
    $upscope $end
   $upscope $end
   $scope module genblk1(4) $end
    $scope module reg_out $end
     $var wire  1 ;$ clk $end
     $var wire 16 E% d_in [15:0] $end
     $var wire  1 m! en $end
     $var wire 16 q# mux_out [15:0] $end
    $upscope $end
   $upscope $end
   $scope module genblk1(5) $end
    $scope module reg_out $end
     $var wire  1 ;$ clk $end
     $var wire 16 E% d_in [15:0] $end
     $var wire  1 u! en $end
     $var wire 16 y# mux_out [15:0] $end
    $upscope $end
   $upscope $end
   $scope module genblk1(6) $end
    $scope module reg_out $end
     $var wire  1 ;$ clk $end
     $var wire 16 E% d_in [15:0] $end
     $var wire  1 }! en $end
     $var wire 16 #$ mux_out [15:0] $end
    $upscope $end
   $upscope $end
   $scope module genblk1(7) $end
    $scope module reg_out $end
     $var wire  1 ;$ clk $end
     $var wire 16 E% d_in [15:0] $end
     $var wire  1 '" en $end
     $var wire 16 +$ mux_out [15:0] $end
    $upscope $end
   $upscope $end
   $scope module mux_inst $end
    $var wire 16 7" mux_out [15:0] $end
    $var wire  4 /" mux_sel [3:0] $end
    $var wire 16 c reg0 [15:0] $end
    $var wire 16 k reg1 [15:0] $end
    $var wire 16 s reg2 [15:0] $end
    $var wire 16 { reg3 [15:0] $end
    $var wire 16 %! reg4 [15:0] $end
    $var wire 16 -! reg5 [15:0] $end
    $var wire 16 5! reg6 [15:0] $end
    $var wire 16 =! reg7 [15:0] $end
   $upscope $end
   $scope module reg_c $end
    $var wire  1 ;$ clk $end
    $var wire 16 ?" d_in [15:0] $end
    $var wire  1 O" en $end
    $var wire 16 E% mux_out [15:0] $end
   $upscope $end
   $scope module reg_inst $end
    $var wire  1 ;$ clk $end
    $var wire 16 K$ d_in [15:0] $end
    $var wire  1 W" en $end
    $var wire 16 A# mux_out [15:0] $end
   $upscope $end
   $scope module reg_s $end
    $var wire  1 ;$ clk $end
    $var wire 16 7" d_in [15:0] $end
    $var wire  1 G" en $end
    $var wire 16 =% mux_out [15:0] $end
   $upscope $end
  $upscope $end
 $upscope $end
$enddefinitions $end


#0
b1011001101101101 #
b1101101110101010 $
b1101100111000000 %
b0000111110010100 &
b1011101001111000 '
b1001100110000111 (
b1101000110110011 )
b0011110000001100 *
b1011001101101101 c
b1101101110101010 k
b1101100111000000 s
b0000111110010100 {
b1011101001111000 %!
b1001100110000111 -!
b1101000110110011 5!
b0011110000001100 =!
b00000000 E!
0M!
0U!
0]!
0e!
0m!
0u!
0}!
0'"
b0001 /"
b1101101110101010 7"
b1100010000001111 ?"
1G"
0O"
0W"
0_"
b0000 g"
b01 o"
b0011101111110000 w"
b1100010000001111 !#
0)#
01#
b01100010000001111 9#
b0010000110110011 A#
b00 I#
b1011001101101101 Q#
b1101101110101010 Y#
b1101100111000000 a#
b0000111110010100 i#
b1011101001111000 q#
b1001100110000111 y#
b1101000110110011 #$
b0011110000001100 +$
13$
1;$
0C$
b0100011010010001 K$
1S$
b1011001101101101 [$
b1101101110101010 c$
b1101100111000000 k$
b0000111110010100 s$
b1011101001111000 {$
b1001100110000111 %%
b1101000110110011 -%
b0011110000001100 5%
b1100010000001111 =%
b1111101001011111 E%
b1100010000001111 M%
0U%
0]%
b00000000000000000000000000010000 e%
#1
#2
#3
#4
#5
#6
#7
0;$
#8
1;$
#9
b0000 /"
b1011001101101101 7"
b0010100000111100 ?"
0G"
1O"
b0110 g"
b11 o"
b0110100011000111 w"
b0010100000111100 !#
1)#
11#
b10010100000111100 9#
b01 I#
03$
0;$
1C$
b0011110010111110 K$
b1101101110101010 =%
b0010100000111100 M%
1U%
#10
b1101101110101010 ?"
0O"
b0000 g"
b00 o"
b0010010001010101 w"
b1101101110101010 !#
0)#
01#
b01101101110101010 9#
1;$
b0000000000000000 [$
b0000000000000000 c$
b0000000000000000 k$
b0000000000000000 s$
b0000000000000000 {$
b0000000000000000 %%
b0000000000000000 -%
b0000000000000000 5%
b1101101110101010 M%
0U%
#11
b00 I#
0;$
#12
1;$
b1001011001010000 K$
#13
0;$
#14
1;$
#15
13$
0;$
0C$
b1010100110001001 K$
#16
b0001 /"
b1101101110101010 7"
1G"
b01 o"
1;$
#17
b0000 /"
b1011001101101101 7"
b0010100000111100 ?"
0G"
1O"
b0110 g"
b11 o"
b0110100011000111 w"
b0010100000111100 !#
1)#
11#
b10010100000111100 9#
b01 I#
03$
0;$
b1100100011010011 K$
b1011001101101101 [$
b1101101110101010 c$
b1101100111000000 k$
b0000111110010100 s$
b1011101001111000 {$
b1001100110000111 %%
b1101000110110011 -%
b0011110000001100 5%
b0010100000111100 M%
1U%
#18
b1101101110101010 ?"
0O"
b0000 g"
b00 o"
b0010010001010101 w"
b1101101110101010 !#
0)#
01#
b01101101110101010 9#
1;$
b1101101110101010 M%
0U%
#19
b00 I#
0;$
#20
1;$
b1110100111110001 K$
#21
0;$
#22
1;$
#23
0;$
#24
13$
1;$
b1100111110101001 K$
0S$
#25
b0001 /"
b1101101110101010 7"
1G"
b01 o"
0;$
#26
1;$
1C$
b0000101101000101 K$
1S$
#27
0;$
b0000000000000000 [$
b0000000000000000 c$
b0000000000000000 k$
b0000000000000000 s$
b0000000000000000 {$
b0000000000000000 %%
b0000000000000000 -%
b0000000000000000 5%
#28
1;$
#29
0;$
#30
1;$
#31
0;$
#32
1;$
#33
0;$
#34
1;$
#35
0;$
#36
1;$
#37
0;$
#38
1;$
#39
0;$
#40
1;$
#41
0;$
b0000000101011010 K$
#42
1;$
#43
0;$
#44
1;$
0C$
b1000100100010000 K$
0S$
#45
b0000 /"
b1011001101101101 7"
b0010100000111100 ?"
0G"
1O"
b0110 g"
b11 o"
b0110100011000111 w"
b0010100000111100 !#
1)#
11#
b10010100000111100 9#
b01 I#
0;$
b1011001101101101 [$
b1101101110101010 c$
b1101100111000000 k$
b0000111110010100 s$
b1011101001111000 {$
b1001100110000111 %%
b1101000110110011 -%
b0011110000001100 5%
b0010100000111100 M%
1U%
#46
1;$
#47
b00000010 E!
1U!
b1101101110101010 ?"
0O"
b0000 g"
b00 o"
b0010010001010101 w"
b1101101110101010 !#
0)#
01#
b01101101110101010 9#
b11 I#
03$
0;$
1C$
b1111110110100001 K$
b0010100000111100 E%
b1101101110101010 M%
0U%
1]%
#48
b00000000 E!
0U!
b11 o"
1;$
b0000000000000000 [$
b0000000000000000 c$
b0000000000000000 k$
b0000000000000000 s$
b0000000000000000 {$
b0000000000000000 %%
b0000000000000000 -%
b0000000000000000 5%
0]%
#49
b00 o"
b00 I#
0;$
#50
1;$
#51
0;$
#52
1;$
#53
0;$
#54
1;$
#55
0;$
#56
1;$
#57
0;$
0C$
b0011010111111100 K$
1S$
#58
13$
1;$
b1110101111000111 K$
0S$
#59
b0001 /"
b1101101110101010 7"
1G"
b01 o"
0;$
b1011001101101101 [$
b1101101110101010 c$
b1101100111000000 k$
b0000111110010100 s$
b1011101001111000 {$
b1001100110000111 %%
b1101000110110011 -%
b0011110000001100 5%
#60
1;$
b1011100101011100 K$
#61
b0000 /"
b1011001101101101 7"
b0010100000111100 ?"
0G"
1O"
b0110 g"
b11 o"
b0110100011000111 w"
b0010100000111100 !#
1)#
11#
b10010100000111100 9#
b01 I#
0;$
b0010100000111100 M%
1U%
#62
1;$
#63
b00000010 E!
1U!
b1101101110101010 ?"
0O"
b0000 g"
b00 o"
b0010010001010101 w"
b1101101110101010 !#
0)#
01#
b01101101110101010 9#
b11 I#
0;$
b1101101110101010 M%
0U%
1]%
#64
1;$
#65
b0010100000111100 $
b0010100000111100 k
b00000000 E!
0U!
b0001 /"
b0010100000111100 7"
1G"
b01 o"
b00 I#
b0010100000111100 Y#
0;$
b0000000000000000 [$
b0000000000000000 c$
b0000000000000000 k$
b0000000000000000 s$
b0000000000000000 {$
b0000000000000000 %%
b0000000000000000 -%
b0000000000000000 5%
0]%
#66
1;$
#67
b0000 /"
b1011001101101101 7"
b0111010011001110 ?"
0G"
1O"
b0110 g"
b11 o"
b1001101101010001 w"
b0111010011001110 !#
b00111010011001110 9#
b01 I#
0;$
b1011001101101101 [$
b0010100000111100 c$
b1101100111000000 k$
b0000111110010100 s$
b1011101001111000 {$
b1001100110000111 %%
b1101000110110011 -%
b0011110000001100 5%
b0010100000111100 =%
b0111010011001110 M%
#68
1;$
#69
b00000010 E!
1U!
b0010100000111100 ?"
0O"
b0000 g"
b00 o"
b1101011111000011 w"
b0010100000111100 !#
b00010100000111100 9#
b11 I#
0;$
b0111010011001110 E%
b0010100000111100 M%
1]%
#70
1;$
#71
b0111010011001110 $
b0111010011001110 k
b00000000 E!
0U!
b0001 /"
b0111010011001110 7"
1G"
b01 o"
b00 I#
b0111010011001110 Y#
0;$
b0000000000000000 [$
b0000000000000000 c$
b0000000000000000 k$
b0000000000000000 s$
b0000000000000000 {$
b0000000000000000 %%
b0000000000000000 -%
b0000000000000000 5%
0]%
#72
1;$
#73
b0000 /"
b1011001101101101 7"
b1100000101100000 ?"
0G"
1O"
b0110 g"
b11 o"
b1100011110100011 w"
b1100000101100000 !#
b01100000101100000 9#
b01 I#
0;$
b1011001101101101 [$
b0111010011001110 c$
b1101100111000000 k$
b0000111110010100 s$
b1011101001111000 {$
b1001100110000111 %%
b1101000110110011 -%
b0011110000001100 5%
b0111010011001110 =%
b1100000101100000 M%
#74
1;$
#75
b00000010 E!
1U!
b0111010011001110 ?"
0O"
b0000 g"
b00 o"
b1000101100110001 w"
b0111010011001110 !#
b00111010011001110 9#
b11 I#
03$
0;$
1C$
b0011111100101101 K$
b1100000101100000 E%
b0111010011001110 M%
1]%
#76
b00000000 E!
0U!
b11 o"
1;$
b0000000000000000 [$
b0000000000000000 c$
b0000000000000000 k$
b0000000000000000 s$
b0000000000000000 {$
b0000000000000000 %%
b0000000000000000 -%
b0000000000000000 5%
0]%
#77
b00 o"
b00 I#
0;$
#78
13$
1;$
0C$
b1000111101011101 K$
1S$
#79
b0001 /"
b0111010011001110 7"
1G"
b01 o"
0;$
b1011001101101101 [$
b0111010011001110 c$
b1101100111000000 k$
b0000111110010100 s$
b1011101001111000 {$
b1001100110000111 %%
b1101000110110011 -%
b0011110000001100 5%
#80
03$
1;$
1C$
b0000110111001010 K$
0S$
#81
b0000 /"
b1011001101101101 7"
0G"
b00 o"
0;$
b0000000000000000 [$
b0000000000000000 c$
b0000000000000000 k$
b0000000000000000 s$
b0000000000000000 {$
b0000000000000000 %%
b0000000000000000 -%
b0000000000000000 5%
#82
1;$
#83
0;$
#84
1;$
b0000101111110010 K$
1S$
#85
0;$
#86
1;$
#87
0;$
#88
1;$
#89
0;$
#90
1;$
#91
0;$
b1101111101111001 K$
0S$
#92
1;$
#93
13$
0;$
0C$
b1000011111101000 K$
#94
b0001 /"
b0111010011001110 7"
1G"
b01 o"
1;$
#95
b0000 /"
b1011001101101101 7"
b1100000101100000 ?"
0G"
1O"
b0110 g"
b11 o"
b1100011110100011 w"
b1100000101100000 !#
b01100000101100000 9#
b01 I#
0;$
b1011001101101101 [$
b0111010011001110 c$
b1101100111000000 k$
b0000111110010100 s$
b1011101001111000 {$
b1001100110000111 %%
b1101000110110011 -%
b0011110000001100 5%
b1100000101100000 M%
#96
1;$
#97
b00000010 E!
1U!
b0111010011001110 ?"
0O"
b0000 g"
b00 o"
b1000101100110001 w"
b0111010011001110 !#
b00111010011001110 9#
b11 I#
0;$
b0111010011001110 M%
1]%
#98
1;$
#99
b1100000101100000 $
b1100000101100000 k
b00000000 E!
0U!
b0001 /"
b1100000101100000 7"
1G"
b01 o"
b00 I#
b1100000101100000 Y#
0;$
b0000000000000000 [$
b0000000000000000 c$
b0000000000000000 k$
b0000000000000000 s$
b0000000000000000 {$
b0000000000000000 %%
b0000000000000000 -%
b0000000000000000 5%
0]%
#100
1;$
#101
b0000 /"
b1011001101101101 7"
b0000110111110010 ?"
0G"
1O"
b0110 g"
b11 o"
b0111001000001101 w"
b0000110111110010 !#
1)#
11#
b10000110111110010 9#
b01 I#
0;$
b1011001101101101 [$
b1100000101100000 c$
b1101100111000000 k$
b0000111110010100 s$
b1011101001111000 {$
b1001100110000111 %%
b1101000110110011 -%
b0011110000001100 5%
b1100000101100000 =%
b0000110111110010 M%
1U%
#102
1;$
#103
b00000010 E!
1U!
b1100000101100000 ?"
0O"
b0000 g"
b00 o"
b0011111010011111 w"
b1100000101100000 !#
0)#
01#
b01100000101100000 9#
b11 I#
0;$
b0101101101011100 K$
b0000110111110010 E%
b1100000101100000 M%
0U%
1]%
#104
1;$
#105
b0000110111110010 $
b0000110111110010 k
b00000000 E!
0U!
b0001 /"
b0000110111110010 7"
1G"
b01 o"
b00 I#
b0000110111110010 Y#
0;$
b1110111100000010 K$
b0000000000000000 [$
b0000000000000000 c$
b0000000000000000 k$
b0000000000000000 s$
b0000000000000000 {$
b0000000000000000 %%
b0000000000000000 -%
b0000000000000000 5%
0]%
#106
1;$
1C$
b0011011000110000 K$
#107
b0000110111110010 ?"
b1111001000001101 w"
b0000110111110010 !#
b00000110111110010 9#
0;$
b0000110111110010 =%
b0000110111110010 M%
#108
1;$
#109
0;$
#110
1;$
#111
0;$
#112
1;$
#113
0;$
#114
03$
1;$
0C$
b1111110011001111 K$
#115
b0000 /"
b1011001101101101 7"
0G"
b00 o"
b01 I#
0;$
b1011001101101101 [$
b0000110111110010 c$
b1101100111000000 k$
b0000111110010100 s$
b1011101001111000 {$
b1001100110000111 %%
b1101000110110011 -%
b0011110000001100 5%
#116
13$
1;$
b0101010011000101 K$
1S$
#117
b0001 /"
b0000110111110010 7"
1G"
b01 o"
b00 I#
0;$
#118
1;$
#119
b0000 /"
b1011001101101101 7"
b0101101010000100 ?"
0G"
1O"
b0110 g"
b11 o"
b1011111010011111 w"
b0101101010000100 !#
b00101101010000100 9#
b01 I#
0;$
b0101101010000100 M%
#120
1;$
#121
b00000010 E!
1U!
b0000110111110010 ?"
0O"
b0000 g"
b00 o"
b1111001000001101 w"
b0000110111110010 !#
b00000110111110010 9#
b11 I#
0;$
b0101101010000100 E%
b0000110111110010 M%
1]%
#122
1;$
#123
b0101101010000100 $
b0101101010000100 k
b00000000 E!
0U!
b0001 /"
b0101101010000100 7"
1G"
b01 o"
b00 I#
b0101101010000100 Y#
0;$
1C$
b0000011001011101 K$
0S$
b0000000000000000 [$
b0000000000000000 c$
b0000000000000000 k$
b0000000000000000 s$
b0000000000000000 {$
b0000000000000000 %%
b0000000000000000 -%
b0000000000000000 5%
0]%
#124
1;$
#125
b0101101010000100 ?"
b1010010101111011 w"
b0101101010000100 !#
b00101101010000100 9#
0;$
b0010000011111011 K$
b0101101010000100 =%
b0101101010000100 M%
#126
1;$
#127
0;$
#128
1;$
b1010000011001000 K$
#129
0;$
#130
1;$
#131
0;$
#132
1;$
#133
0;$
#134
1;$
b0001010110000100 K$
1S$
#135
0;$
#136
1;$
#137
0;$
#138
1;$
#139
0;$
#140
1;$
#141
0;$
#142
1;$
#143
0;$
b0000100011111011 K$
#144
1;$
#145
0;$
#146
1;$
#147
0;$
#148
1;$
#149
0;$
b1101100101000010 K$
#150
1;$
#151
0;$
#152
1;$
#153
0;$
#154
1;$
#155
0;$
0C$
b0100010010001001 K$
0S$
#156
1;$
1C$
b0000110001101111 K$
1S$
#157
0;$
#158
1;$
#159
0;$
b0101011111000000 K$
0S$
#160
1;$
#161
0;$
0C$
b1101110011000000 K$
1S$
#162
1;$
#163
b0000 /"
b1011001101101101 7"
b1010011100010110 ?"
0G"
1O"
b0110 g"
b11 o"
b1110100111101001 w"
b1010011100010110 !#
b01010011100010110 9#
b01 I#
0;$
b1011001101101101 [$
b0101101010000100 c$
b1101100111000000 k$
b0000111110010100 s$
b1011101001111000 {$
b1001100110000111 %%
b1101000110110011 -%
b0011110000001100 5%
b1010011100010110 M%
#164
03$
1;$
1C$
b1000101000110110 K$
#165
b0101101010000100 ?"
0O"
b0000 g"
b00 o"
b1010010101111011 w"
b0101101010000100 !#
b00101101010000100 9#
b00 I#
0;$
b0000000000000000 [$
b0000000000000000 c$
b0000000000000000 k$
b0000000000000000 s$
b0000000000000000 {$
b0000000000000000 %%
b0000000000000000 -%
b0000000000000000 5%
b1010011100010110 E%
b0101101010000100 M%
#166
1;$
#167
13$
0;$
b0011101010001000 K$
#168
b0001 /"
b0101101010000100 7"
1G"
b01 o"
1;$
#169
0;$
#170
1;$
#171
0;$
#172
1;$
#173
0;$
#174
1;$
#175
0;$
#176
1;$
#177
0;$
0C$
b0010110001110100 K$
0S$
#178
1;$
b0011001101010010 K$
1S$
#179
b0000 /"
b1011001101101101 7"
b1010011100010110 ?"
0G"
1O"
b0110 g"
b11 o"
b1110100111101001 w"
b1010011100010110 !#
b01010011100010110 9#
b01 I#
0;$
b1011001101101101 [$
b0101101010000100 c$
b1101100111000000 k$
b0000111110010100 s$
b1011101001111000 {$
b1001100110000111 %%
b1101000110110011 -%
b0011110000001100 5%
b1010011100010110 M%
#180
1;$
#181
b00000010 E!
1U!
b0101101010000100 ?"
0O"
b0000 g"
b00 o"
b1010010101111011 w"
b0101101010000100 !#
b00101101010000100 9#
b11 I#
0;$
b0101101010000100 M%
1]%
#182
1;$
#183
b1010011100010110 $
b1010011100010110 k
b00000000 E!
0U!
b0001 /"
b1010011100010110 7"
1G"
b01 o"
b00 I#
b1010011100010110 Y#
0;$
b0000000000000000 [$
b0000000000000000 c$
b0000000000000000 k$
b0000000000000000 s$
b0000000000000000 {$
b0000000000000000 %%
b0000000000000000 -%
b0000000000000000 5%
0]%
#184
1;$
#185
b0000 /"
b1011001101101101 7"
b1111001110101000 ?"
0G"
1O"
b0110 g"
b11 o"
b0001010001111011 w"
b1111001110101000 !#
b01111001110101000 9#
b01 I#
03$
0;$
b1100110100011101 K$
b1011001101101101 [$
b1010011100010110 c$
b1101100111000000 k$
b0000111110010100 s$
b1011101001111000 {$
b1001100110000111 %%
b1101000110110011 -%
b0011110000001100 5%
b1010011100010110 =%
b1111001110101000 M%
#186
b1010011100010110 ?"
0O"
b0000 g"
b00 o"
b0101100011101001 w"
b1010011100010110 !#
b01010011100010110 9#
1;$
b1010011100010110 M%
#187
b00 I#
0;$
1C$
b1001100111101000 K$
#188
1;$
b0000000000000000 [$
b0000000000000000 c$
b0000000000000000 k$
b0000000000000000 s$
b0000000000000000 {$
b0000000000000000 %%
b0000000000000000 -%
b0000000000000000 5%
#189
0;$
#190
1;$
#191
0;$
0C$
b0111010110011001 K$
#192
1;$
#193
0;$
b1011001101101101 [$
b1010011100010110 c$
b1101100111000000 k$
b0000111110010100 s$
b1011101001111000 {$
b1001100110000111 %%
b1101000110110011 -%
b0011110000001100 5%
#194
1;$
#195
0;$
#196
1;$
#197
0;$
#198
1;$
b0111110111000100 K$
#199
0;$
#200
1;$
#201
0;$
#202
1;$
#203
0;$
#204
1;$
#205
13$
0;$
b1100110100010011 K$
#206
b0001 /"
b1010011100010110 7"
1G"
b01 o"
1;$
#207
b0000 /"
b1011001101101101 7"
b1111001110101000 ?"
0G"
1O"
b0110 g"
b11 o"
b0001010001111011 w"
b1111001110101000 !#
b01111001110101000 9#
b01 I#
0;$
b1111001110101000 M%
#208
1;$
#209
b00000010 E!
1U!
b1010011100010110 ?"
0O"
b0000 g"
b00 o"
b0101100011101001 w"
b1010011100010110 !#
b01010011100010110 9#
b11 I#
0;$
b1111001110101000 E%
b1010011100010110 M%
1]%
#210
1;$
#211
b1111001110101000 $
b1111001110101000 k
b00000000 E!
0U!
b0001 /"
b1111001110101000 7"
1G"
b01 o"
b00 I#
b1111001110101000 Y#
0;$
b0000000000000000 [$
b0000000000000000 c$
b0000000000000000 k$
b0000000000000000 s$
b0000000000000000 {$
b0000000000000000 %%
b0000000000000000 -%
b0000000000000000 5%
0]%
#212
1;$
#213
b0000 /"
b1011001101101101 7"
b0100000000111010 ?"
0G"
1O"
b0110 g"
b11 o"
b0100000011000101 w"
b0100000000111010 !#
1)#
11#
b10100000000111010 9#
b01 I#
0;$
b1011001101101101 [$
b1111001110101000 c$
b1101100111000000 k$
b0000111110010100 s$
b1011101001111000 {$
b1001100110000111 %%
b1101000110110011 -%
b0011110000001100 5%
b1111001110101000 =%
b0100000000111010 M%
1U%
#214
1;$
#215
b00000010 E!
1U!
b1111001110101000 ?"
0O"
b0000 g"
b00 o"
b0000110001010111 w"
b1111001110101000 !#
0)#
01#
b01111001110101000 9#
b11 I#
0;$
b0100000000111010 E%
b1111001110101000 M%
0U%
1]%
#216
1;$
1C$
b0010011001000011 K$
0S$
#217
b0100000000111010 $
b0100000000111010 k
b00000000 E!
0U!
b0001 /"
b0100000000111010 7"
1G"
b01 o"
b00 I#
b0100000000111010 Y#
0;$
b0000000000000000 [$
b0000000000000000 c$
b0000000000000000 k$
b0000000000000000 s$
b0000000000000000 {$
b0000000000000000 %%
b0000000000000000 -%
b0000000000000000 5%
0]%
#218
1;$
#219
b0100000000111010 ?"
b1011111111000101 w"
b0100000000111010 !#
b00100000000111010 9#
0;$
b0100000000111010 =%
b0100000000111010 M%
#220
1;$
#221
03$
0;$
b1100111100001110 K$
#222
b0000 /"
b1011001101101101 7"
0G"
b00 o"
1;$
#223
0;$
#224
1;$
#225
0;$
#226
1;$
#227
13$
0;$
0C$
b1001101011011000 K$
#228
b0001 /"
b0100000000111010 7"
1G"
b01 o"
1;$
#229
b0000 /"
b1011001101101101 7"
b1000110011001100 ?"
0G"
1O"
b0110 g"
b11 o"
b1111001101010111 w"
b1000110011001100 !#
b01000110011001100 9#
b01 I#
0;$
b1011001101101101 [$
b0100000000111010 c$
b1101100111000000 k$
b0000111110010100 s$
b1011101001111000 {$
b1001100110000111 %%
b1101000110110011 -%
b0011110000001100 5%
b1000110011001100 M%
#230
1;$
#231
b00000010 E!
1U!
b0100000000111010 ?"
0O"
b0000 g"
b00 o"
b1011111111000101 w"
b0100000000111010 !#
b00100000000111010 9#
b11 I#
0;$
b1000110011001100 E%
b0100000000111010 M%
1]%
#232
1;$
#233
b1000110011001100 $
b1000110011001100 k
b00000000 E!
0U!
b0001 /"
b1000110011001100 7"
1G"
b01 o"
b00 I#
b1000110011001100 Y#
0;$
b0000000000000000 [$
b0000000000000000 c$
b0000000000000000 k$
b0000000000000000 s$
b0000000000000000 {$
b0000000000000000 %%
b0000000000000000 -%
b0000000000000000 5%
0]%
#234
1;$
#235
b0000 /"
b1011001101101101 7"
b1101100101011110 ?"
0G"
1O"
b0110 g"
b11 o"
b0011111110100001 w"
b1101100101011110 !#
b01101100101011110 9#
b01 I#
0;$
b1011001101101101 [$
b1000110011001100 c$
b1101100111000000 k$
b0000111110010100 s$
b1011101001111000 {$
b1001100110000111 %%
b1101000110110011 -%
b0011110000001100 5%
b1000110011001100 =%
b1101100101011110 M%
#236
03$
1;$
1C$
b0111110000101011 K$
1S$
#237
b1000110011001100 ?"
0O"
b0000 g"
b00 o"
b0111001100110011 w"
b1000110011001100 !#
b01000110011001100 9#
b00 I#
0;$
b0000000000000000 [$
b0000000000000000 c$
b0000000000000000 k$
b0000000000000000 s$
b0000000000000000 {$
b0000000000000000 %%
b0000000000000000 -%
b0000000000000000 5%
b1101100101011110 E%
b1000110011001100 M%
#238
1;$
#239
0;$
#240
13$
1;$
0C$
b1111110111010101 K$
0S$
#241
b0001 /"
b1000110011001100 7"
1G"
b01 o"
0;$
b1011001101101101 [$
b1000110011001100 c$
b1101100111000000 k$
b0000111110010100 s$
b1011101001111000 {$
b1001100110000111 %%
b1101000110110011 -%
b0011110000001100 5%
#242
1;$
#243
b0000 /"
b1011001101101101 7"
b1101100101011110 ?"
0G"
1O"
b0110 g"
b11 o"
b0011111110100001 w"
b1101100101011110 !#
b01101100101011110 9#
b01 I#
0;$
b1011111000011101 K$
1S$
b1101100101011110 M%
#244
03$
1;$
1C$
b0000011010010001 K$
#245
b1000110011001100 ?"
0O"
b0000 g"
b00 o"
b0111001100110011 w"
b1000110011001100 !#
b01000110011001100 9#
b00 I#
0;$
b0000000000000000 [$
b0000000000000000 c$
b0000000000000000 k$
b0000000000000000 s$
b0000000000000000 {$
b0000000000000000 %%
b0000000000000000 -%
b0000000000000000 5%
b1000110011001100 M%
#246
1;$
#247
0;$
#248
1;$
#249
0;$
#250
1;$
#251
0;$
b1111000010111111 K$
0S$
#252
1;$
#253
0;$
0C$
b0100000101011110 K$
#254
1;$
#255
0;$
b1011001101101101 [$
b1000110011001100 c$
b1101100111000000 k$
b0000111110010100 s$
b1011101001111000 {$
b1001100110000111 %%
b1101000110110011 -%
b0011110000001100 5%
#256
1;$
#257
0;$
b1011010100000000 K$
#258
1;$
b1010111010000101 K$
1S$
#259
0;$
#260
1;$
#261
0;$
#262
1;$
#263
0;$
#264
1;$
b1101111010000100 K$
0S$
#265
0;$
#266
1;$
#267
0;$
#268
1;$
#269
0;$
#270
1;$
#271
0;$
