lvl3/lab3/waveform.vcd
$version Generated by VerilatedVcd $end
$date Wed Jun 26 16:23:02 2024
 $end
$timescale   1ns $end

 $scope module TOP $end
  $var wire  1 S$ carry_in $end
  $var wire  1 U% carry_out $end
  $var wire  1 ;$ clk $end
  $var wire 16 K$ d_instr [15:0] $end
  $var wire 16 M% d_out [15:0] $end
  $var wire  1 ]% done $end
  $var wire 16 [$ reg0 [15:0] $end
  $var wire 16 c$ reg1 [15:0] $end
  $var wire 16 k$ reg2 [15:0] $end
  $var wire 16 s$ reg3 [15:0] $end
  $var wire 16 {$ reg4 [15:0] $end
  $var wire 16 %% reg5 [15:0] $end
  $var wire 16 -% reg6 [15:0] $end
  $var wire 16 5% reg7 [15:0] $end
  $var wire 16 E% regc [15:0] $end
  $var wire 16 =% regs [15:0] $end
  $var wire  1 C$ reset $end
  $var wire  1 3$ run $end
  $scope module bitty $end
   $var wire 16 _" alu_out [15:0] $end
   $var wire  4 m! alu_sel [3:0] $end
   $var wire  1 S$ carry_in $end
   $var wire  1 U% carry_out $end
   $var wire  1 ;$ clk $end
   $var wire 16 K$ d_instr [15:0] $end
   $var wire 16 M% d_out [15:0] $end
   $var wire  1 ]% done $end
   $var wire  8 M! en [7:0] $end
   $var wire  1 ]! en_c $end
   $var wire  1 g" en_inst $end
   $var wire  1 U! en_s $end
   $var wire 16 A# instruction [15:0] $end
   $var wire  1 e! mode $end
   $var wire  4 E! mux_sel [3:0] $end
   $var wire 16 # out(0) [15:0] $end
   $var wire 16 $ out(1) [15:0] $end
   $var wire 16 % out(2) [15:0] $end
   $var wire 16 & out(3) [15:0] $end
   $var wire 16 ' out(4) [15:0] $end
   $var wire 16 ( out(5) [15:0] $end
   $var wire 16 ) out(6) [15:0] $end
   $var wire 16 * out(7) [15:0] $end
   $var wire 16 W" out_mux [15:0] $end
   $var wire 16 [$ reg0 [15:0] $end
   $var wire 16 c$ reg1 [15:0] $end
   $var wire 16 k$ reg2 [15:0] $end
   $var wire 16 s$ reg3 [15:0] $end
   $var wire 16 {$ reg4 [15:0] $end
   $var wire 16 %% reg5 [15:0] $end
   $var wire 16 -% reg6 [15:0] $end
   $var wire 16 5% reg7 [15:0] $end
   $var wire 16 E% regc [15:0] $end
   $var wire 16 =% regs [15:0] $end
   $var wire  1 C$ reset $end
   $var wire  1 3$ run $end
   $scope module alu_inst $end
    $var wire 32 e% WIDTH [31:0] $end
    $var wire 16 =% a_in [15:0] $end
    $var wire 16 _" alu_out [15:0] $end
    $var wire 16 !# arithmetic_res [15:0] $end
    $var wire 16 W" b_in [15:0] $end
    $var wire  1 1# car_arith $end
    $var wire  1 )# car_out $end
    $var wire  1 S$ carry_in $end
    $var wire  1 U% carry_out $end
    $var wire 16 w" logic_res [15:0] $end
    $var wire  1 e! mode $end
    $var wire 16 _" res [15:0] $end
    $var wire  4 m! select [3:0] $end
    $scope module u1 $end
     $var wire 32 e% WIDTH [31:0] $end
     $var wire 16 =% in_a [15:0] $end
     $var wire 16 W" in_b [15:0] $end
     $var wire 16 w" logic_out [15:0] $end
     $var wire 16 w" res [15:0] $end
     $var wire  4 m! select [3:0] $end
    $upscope $end
    $scope module u2 $end
     $var wire 32 e% WIDTH [31:0] $end
     $var wire 16 !# arithmetic_out [15:0] $end
     $var wire  1 S$ carry_in $end
     $var wire  1 1# carry_out $end
     $var wire 17 9# extended_res [16:0] $end
     $var wire 16 =% in_a [15:0] $end
     $var wire 16 W" in_b [15:0] $end
     $var wire  4 m! select [3:0] $end
    $upscope $end
   $upscope $end
   $scope module cpu_inst $end
    $var wire  1 ;$ clk $end
    $var wire  2 +$ cur_state [1:0] $end
    $var wire 16 A# d_inst [15:0] $end
    $var wire  1 ]% done $end
    $var wire  8 M! en [7:0] $end
    $var wire  1 ]! en_c $end
    $var wire  1 g" en_inst $end
    $var wire  1 U! en_s $end
    $var wire  1 e! mode $end
    $var wire  4 E! mux_sel [3:0] $end
    $var wire  2 o" next_state [1:0] $end
    $var wire  1 C$ reset $end
    $var wire  1 3$ run $end
    $var wire  4 m! sel [3:0] $end
   $upscope $end
   $scope module genblk1(0) $end
    $scope module reg_out $end
     $var wire  1 ;$ clk $end
     $var wire 16 E% d_in [15:0] $end
     $var wire  1 u! en $end
     $var wire 16 I# mux_out [15:0] $end
    $upscope $end
   $upscope $end
   $scope module genblk1(1) $end
    $scope module reg_out $end
     $var wire  1 ;$ clk $end
     $var wire 16 E% d_in [15:0] $end
     $var wire  1 }! en $end
     $var wire 16 Q# mux_out [15:0] $end
    $upscope $end
   $upscope $end
   $scope module genblk1(2) $end
    $scope module reg_out $end
     $var wire  1 ;$ clk $end
     $var wire 16 E% d_in [15:0] $end
     $var wire  1 '" en $end
     $var wire 16 Y# mux_out [15:0] $end
    $upscope $end
   $upscope $end
   $scope module genblk1(3) $end
    $scope module reg_out $end
     $var wire  1 ;$ clk $end
     $var wire 16 E% d_in [15:0] $end
     $var wire  1 /" en $end
     $var wire 16 a# mux_out [15:0] $end
    $upscope $end
   $upscope $end
   $scope module genblk1(4) $end
    $scope module reg_out $end
     $var wire  1 ;$ clk $end
     $var wire 16 E% d_in [15:0] $end
     $var wire  1 7" en $end
     $var wire 16 i# mux_out [15:0] $end
    $upscope $end
   $upscope $end
   $scope module genblk1(5) $end
    $scope module reg_out $end
     $var wire  1 ;$ clk $end
     $var wire 16 E% d_in [15:0] $end
     $var wire  1 ?" en $end
     $var wire 16 q# mux_out [15:0] $end
    $upscope $end
   $upscope $end
   $scope module genblk1(6) $end
    $scope module reg_out $end
     $var wire  1 ;$ clk $end
     $var wire 16 E% d_in [15:0] $end
     $var wire  1 G" en $end
     $var wire 16 y# mux_out [15:0] $end
    $upscope $end
   $upscope $end
   $scope module genblk1(7) $end
    $scope module reg_out $end
     $var wire  1 ;$ clk $end
     $var wire 16 E% d_in [15:0] $end
     $var wire  1 O" en $end
     $var wire 16 #$ mux_out [15:0] $end
    $upscope $end
   $upscope $end
   $scope module mux_inst $end
    $var wire 16 W" mux_out [15:0] $end
    $var wire  4 E! mux_sel [3:0] $end
    $var wire 16 c reg0 [15:0] $end
    $var wire 16 k reg1 [15:0] $end
    $var wire 16 s reg2 [15:0] $end
    $var wire 16 { reg3 [15:0] $end
    $var wire 16 %! reg4 [15:0] $end
    $var wire 16 -! reg5 [15:0] $end
    $var wire 16 5! reg6 [15:0] $end
    $var wire 16 =! reg7 [15:0] $end
   $upscope $end
   $scope module reg_c $end
    $var wire  1 ;$ clk $end
    $var wire 16 _" d_in [15:0] $end
    $var wire  1 ]! en $end
    $var wire 16 E% mux_out [15:0] $end
   $upscope $end
   $scope module reg_inst $end
    $var wire  1 ;$ clk $end
    $var wire 16 K$ d_in [15:0] $end
    $var wire  1 g" en $end
    $var wire 16 A# mux_out [15:0] $end
   $upscope $end
   $scope module reg_s $end
    $var wire  1 ;$ clk $end
    $var wire 16 W" d_in [15:0] $end
    $var wire  1 U! en $end
    $var wire 16 =% mux_out [15:0] $end
   $upscope $end
  $upscope $end
 $upscope $end
$enddefinitions $end


#0
b1011001101101101 #
b1101101110101010 $
b1101100111000000 %
b0000111110010100 &
b1011101001111000 '
b1001100110000111 (
b1101000110110011 )
b0011110000001100 *
b1011001101101101 c
b1101101110101010 k
b1101100111000000 s
b0000111110010100 {
b1011101001111000 %!
b1001100110000111 -!
b1101000110110011 5!
b0011110000001100 =!
b0001 E!
b00000000 M!
1U!
0]!
1e!
b1000 m!
0u!
0}!
0'"
0/"
07"
0?"
0G"
0O"
b1101101110101010 W"
b1111101111111010 _"
1g"
b01 o"
b1111101111111010 w"
b1000010000011010 !#
0)#
11#
b11000010000011010 9#
b0010000110110011 A#
b1011001101101101 I#
b1101101110101010 Q#
b1101100111000000 Y#
b0000111110010100 a#
b1011101001111000 i#
b1001100110000111 q#
b1101000110110011 y#
b0011110000001100 #$
b00 +$
13$
0;$
0C$
b0100011010010001 K$
1S$
b1011001101101101 [$
b1101101110101010 c$
b1101100111000000 k$
b0000111110010100 s$
b1011101001111000 {$
b1001100110000111 %%
b1101000110110011 -%
b0011110000001100 5%
b1100010000001111 =%
b1111101001011111 E%
b1111101111111010 M%
0U%
0]%
b00000000000000000000000000010000 e%
#1
0U!
1]!
0e!
b0010 m!
b1111111111111111 _"
b11 o"
b0000000000000000 w"
b1111111111111111 !#
01#
b01111111111111111 9#
b0100011010010001 A#
b01 +$
1;$
b1101101110101010 =%
b1111111111111111 M%
#2
0;$
#3
b00000100 M!
1'"
b00 o"
b11 +$
1;$
b1111111111111111 E%
1]%
#4
0;$
#5
b1111111111111111 %
b1111111111111111 s
b0010 E!
b00000000 M!
1U!
0]!
0'"
b1111111111111111 W"
b1101101110101010 _"
b01 o"
b0010010001010101 w"
b1101101110101010 !#
b01101101110101010 9#
b1111111111111111 Y#
b00 +$
1;$
b1111111111111111 k$
b1101101110101010 M%
0]%
#6
0;$
#7
b0001 E!
0U!
1]!
b1101101110101010 W"
b1111111111111111 _"
b11 o"
b0000000000000000 w"
b1111111111111111 !#
b01111111111111111 9#
b01 +$
1;$
b1111111111111111 =%
b1111111111111111 M%
#8
0;$
b1101010000110110 K$
#9
b01000000 M!
1G"
b00 o"
b1101010000110110 A#
b11 +$
1;$
1]%
#10
0;$
1C$
b1111111100111001 K$
0S$
#11
b0000000000000000 #
b0000000000000000 $
b0000000000000000 %
b0000000000000000 &
b0000000000000000 '
b0000000000000000 (
b0000000000000000 )
b0000000000000000 *
b0000000000000000 c
b0000000000000000 k
b0000000000000000 s
b0000000000000000 {
b0000000000000000 %!
b0000000000000000 -!
b0000000000000000 5!
b0000000000000000 =!
b0111 E!
b00000000 M!
1U!
0]!
b0000 m!
0G"
b0000000000000000 W"
0g"
b01 o"
b1111111100111001 A#
b1111111111111111 y#
b00 +$
1;$
b0000000000000000 [$
b0000000000000000 c$
b0000000000000000 k$
b0000000000000000 s$
b0000000000000000 {$
b0000000000000000 %%
b0000000000000000 -%
b0000000000000000 5%
0]%
#12
0;$
b1000001001101010 K$
#13
b0000000000000000 _"
b1111111111111111 w"
b0000000000000000 !#
b00000000000000000 9#
1;$
b0000000000000000 =%
b0000000000000000 M%
#14
0;$
b1011010100110110 K$
1S$
#15
1;$
#16
0;$
b0101001010101100 K$
#17
1;$
#18
03$
0;$
0C$
b0001100100101000 K$
0S$
#19
b1011001101101101 #
b1101101110101010 $
b1111111111111111 %
b0000111110010100 &
b1011101001111000 '
b1001100110000111 (
b1111111111111111 )
b0011110000001100 *
b1011001101101101 c
b1101101110101010 k
b1111111111111111 s
b0000111110010100 {
b1011101001111000 %!
b1001100110000111 -!
b1111111111111111 5!
b0011110000001100 =!
b0011110000001100 W"
b11 o"
b01 +$
1;$
b1011001101101101 [$
b1101101110101010 c$
b1111111111111111 k$
b0000111110010100 s$
b1011101001111000 {$
b1001100110000111 %%
b1111111111111111 -%
b0011110000001100 5%
#20
13$
0;$
b1110001010001001 K$
#21
b10000000 M!
1O"
b0011110000001100 _"
b00 o"
b1100001111110011 w"
b0011110000001100 !#
b00011110000001100 9#
b11 +$
1;$
b0011110000001100 =%
b0011110000001100 M%
1]%
#22
03$
0;$
1C$
b0100111101011000 K$
1S$
#23
b0000000000000000 #
b0000000000000000 $
b0000000000000000 %
b0000000000000000 &
b0000000000000000 '
b0000000000000000 (
b0000000000000000 )
b0000000000000000 *
b0000000000000000 c
b0000000000000000 k
b0000000000000000 s
b0000000000000000 {
b0000000000000000 %!
b0000000000000000 -!
b0000000000000000 5!
b0000000000000000 =!
b0000 E!
b00000000 M!
0U!
0O"
b0000000000000000 W"
b01 o"
b1111111111111111 #$
b00 +$
1;$
b0000000000000000 [$
b0000000000000000 c$
b0000000000000000 k$
b0000000000000000 s$
b0000000000000000 {$
b0000000000000000 %%
b0000000000000000 -%
b0000000000000000 5%
0]%
#24
13$
0;$
0C$
b1101001001111000 K$
0S$
#25
b1011001101101101 #
b1101101110101010 $
b1111111111111111 %
b0000111110010100 &
b1011101001111000 '
b1001100110000111 (
b1111111111111111 )
b1111111111111111 *
b1011001101101101 c
b1101101110101010 k
b1111111111111111 s
b0000111110010100 {
b1011101001111000 %!
b1001100110000111 -!
b1111111111111111 5!
b1111111111111111 =!
b0111 E!
1]!
b0111 m!
b1111111111111111 W"
b0000000000000000 _"
b11 o"
b0000000000000000 w"
b0000000000000000 !#
b00000000000000000 9#
b01 +$
1;$
b1011001101101101 [$
b1101101110101010 c$
b1111111111111111 k$
b0000111110010100 s$
b1011101001111000 {$
b1001100110000111 %%
b1111111111111111 -%
b1111111111111111 5%
b0000000000000000 M%
#26
0;$
1C$
b0101111110111010 K$
#27
b0000000000000000 #
b0000000000000000 $
b0000000000000000 %
b0000000000000000 &
b0000000000000000 '
b0000000000000000 (
b0000000000000000 )
b0000000000000000 *
b0000000000000000 c
b0000000000000000 k
b0000000000000000 s
b0000000000000000 {
b0000000000000000 %!
b0000000000000000 -!
b0000000000000000 5!
b0000000000000000 =!
1U!
0]!
b0000 m!
b0000000000000000 W"
b0011110000001100 _"
b01 o"
b1100001111110011 w"
b0011110000001100 !#
b00011110000001100 9#
b00 +$
1;$
b0000000000000000 [$
b0000000000000000 c$
b0000000000000000 k$
b0000000000000000 s$
b0000000000000000 {$
b0000000000000000 %%
b0000000000000000 -%
b0000000000000000 5%
b0000000000000000 E%
b0011110000001100 M%
#28
03$
0;$
0C$
b0111010000011101 K$
#29
b1011001101101101 #
b1101101110101010 $
b1111111111111111 %
b0000111110010100 &
b1011101001111000 '
b1001100110000111 (
b1111111111111111 )
b1111111111111111 *
b1011001101101101 c
b1101101110101010 k
b1111111111111111 s
b0000111110010100 {
b1011101001111000 %!
b1001100110000111 -!
b1111111111111111 5!
b1111111111111111 =!
b1111111111111111 W"
b0000000000000000 _"
b11 o"
b1111111111111111 w"
b0000000000000000 !#
b00000000000000000 9#
b01 +$
1;$
b1011001101101101 [$
b1101101110101010 c$
b1111111111111111 k$
b0000111110010100 s$
b1011101001111000 {$
b1001100110000111 %%
b1111111111111111 -%
b1111111111111111 5%
b0000000000000000 =%
b0000000000000000 M%
#30
13$
0;$
1C$
b0101111100110100 K$
1S$
#31
b0000000000000000 #
b0000000000000000 $
b0000000000000000 %
b0000000000000000 &
b0000000000000000 '
b0000000000000000 (
b0000000000000000 )
b0000000000000000 *
b0000000000000000 c
b0000000000000000 k
b0000000000000000 s
b0000000000000000 {
b0000000000000000 %!
b0000000000000000 -!
b0000000000000000 5!
b0000000000000000 =!
b0000000000000000 W"
b1111111111111111 _"
b01 o"
b0000000000000000 w"
b1111111111111111 !#
b01111111111111111 9#
b00 +$
1;$
b0000000000000000 [$
b0000000000000000 c$
b0000000000000000 k$
b0000000000000000 s$
b0000000000000000 {$
b0000000000000000 %%
b0000000000000000 -%
b0000000000000000 5%
b1111111111111111 =%
b1111111111111111 M%
#32
03$
0;$
0C$
b0100010101101100 K$
0S$
#33
b1011001101101101 #
b1101101110101010 $
b1111111111111111 %
b0000111110010100 &
b1011101001111000 '
b1001100110000111 (
b1111111111111111 )
b1111111111111111 *
b1011001101101101 c
b1101101110101010 k
b1111111111111111 s
b0000111110010100 {
b1011101001111000 %!
b1001100110000111 -!
b1111111111111111 5!
b1111111111111111 =!
b1111111111111111 W"
b0000000000000000 _"
b11 o"
b1111111111111111 w"
b0000000000000000 !#
b00000000000000000 9#
b01 +$
1;$
b1011001101101101 [$
b1101101110101010 c$
b1111111111111111 k$
b0000111110010100 s$
b1011101001111000 {$
b1001100110000111 %%
b1111111111111111 -%
b1111111111111111 5%
b0000000000000000 =%
b0000000000000000 M%
#34
0;$
b0101000110100011 K$
1S$
#35
b1111111111111111 _"
b0000000000000000 w"
b1111111111111111 !#
b01111111111111111 9#
b11 +$
1;$
b1111111111111111 =%
b1111111111111111 M%
#36
0;$
1C$
b1110110010000011 K$
#37
b0000000000000000 #
b0000000000000000 $
b0000000000000000 %
b0000000000000000 &
b0000000000000000 '
b0000000000000000 (
b0000000000000000 )
b0000000000000000 *
b0000000000000000 c
b0000000000000000 k
b0000000000000000 s
b0000000000000000 {
b0000000000000000 %!
b0000000000000000 -!
b0000000000000000 5!
b0000000000000000 =!
b0000 E!
0U!
b0000000000000000 W"
b01 o"
b00 +$
1;$
b0000000000000000 [$
b0000000000000000 c$
b0000000000000000 k$
b0000000000000000 s$
b0000000000000000 {$
b0000000000000000 %%
b0000000000000000 -%
b0000000000000000 5%
#38
0;$
0C$
b0011011010101001 K$
#39
b1011001101101101 #
b1101101110101010 $
b1111111111111111 %
b0000111110010100 &
b1011101001111000 '
b1001100110000111 (
b1111111111111111 )
b1111111111111111 *
b1011001101101101 c
b1101101110101010 k
b1111111111111111 s
b0000111110010100 {
b1011101001111000 %!
b1001100110000111 -!
b1111111111111111 5!
b1111111111111111 =!
b1011001101101101 W"
b11 o"
b01 +$
1;$
b1011001101101101 [$
b1101101110101010 c$
b1111111111111111 k$
b0000111110010100 s$
b1011101001111000 {$
b1001100110000111 %%
b1111111111111111 -%
b1111111111111111 5%
#40
0;$
1C$
b0000000011010010 K$
#41
b0000000000000000 #
b0000000000000000 $
b0000000000000000 %
b0000000000000000 &
b0000000000000000 '
b0000000000000000 (
b0000000000000000 )
b0000000000000000 *
b0000000000000000 c
b0000000000000000 k
b0000000000000000 s
b0000000000000000 {
b0000000000000000 %!
b0000000000000000 -!
b0000000000000000 5!
b0000000000000000 =!
b0000000000000000 W"
b01 o"
b00 +$
1;$
b0000000000000000 [$
b0000000000000000 c$
b0000000000000000 k$
b0000000000000000 s$
b0000000000000000 {$
b0000000000000000 %%
b0000000000000000 -%
b0000000000000000 5%
#42
0;$
b1000001111001100 K$
0S$
#43
1;$
#44
13$
0;$
b1111101101011100 K$
1S$
#45
b0111 E!
1U!
1;$
#46
03$
0;$
b0011001111110101 K$
0S$
#47
b0000 E!
0U!
b0000000000000000 _"
b1111111111111111 w"
b0000000000000000 !#
b00000000000000000 9#
1;$
b0000000000000000 =%
b0000000000000000 M%
#48
13$
0;$
0C$
b1010011001100000 K$
1S$
#49
b1011001101101101 #
b1101101110101010 $
b1111111111111111 %
b0000111110010100 &
b1011101001111000 '
b1001100110000111 (
b1111111111111111 )
b1111111111111111 *
b1011001101101101 c
b1101101110101010 k
b1111111111111111 s
b0000111110010100 {
b1011101001111000 %!
b1001100110000111 -!
b1111111111111111 5!
b1111111111111111 =!
b0111 E!
1]!
b0111 m!
b1111111111111111 W"
b11 o"
b0000000000000000 w"
b01 +$
1;$
b1011001101101101 [$
b1101101110101010 c$
b1111111111111111 k$
b0000111110010100 s$
b1011101001111000 {$
b1001100110000111 %%
b1111111111111111 -%
b1111111111111111 5%
#50
03$
0;$
b0011101011111001 K$
#51
b11 +$
1;$
#52
13$
0;$
b0111101000110111 K$
0S$
#53
b10000000 M!
1O"
b00 o"
1;$
1]%
#54
03$
0;$
1C$
b1011111110001001 K$
#55
b0000000000000000 #
b0000000000000000 $
b0000000000000000 %
b0000000000000000 &
b0000000000000000 '
b0000000000000000 (
b0000000000000000 )
b0000000000000000 *
b0000000000000000 c
b0000000000000000 k
b0000000000000000 s
b0000000000000000 {
b0000000000000000 %!
b0000000000000000 -!
b0000000000000000 5!
b0000000000000000 =!
b0000 E!
b00000000 M!
0]!
b0000 m!
0O"
b0000000000000000 W"
b01 o"
b1111111111111111 w"
b0000000000000000 #$
b00 +$
1;$
b0000000000000000 [$
b0000000000000000 c$
b0000000000000000 k$
b0000000000000000 s$
b0000000000000000 {$
b0000000000000000 %%
b0000000000000000 -%
b0000000000000000 5%
0]%
#56
0;$
0C$
b0011000101100101 K$
1S$
#57
b1011001101101101 #
b1101101110101010 $
b1111111111111111 %
b0000111110010100 &
b1011101001111000 '
b1001100110000111 (
b1111111111111111 )
b1011001101101101 c
b1101101110101010 k
b1111111111111111 s
b0000111110010100 {
b1011101001111000 %!
b1001100110000111 -!
b1111111111111111 5!
b1011001101101101 W"
b11 o"
b01 +$
1;$
b1011001101101101 [$
b1101101110101010 c$
b1111111111111111 k$
b0000111110010100 s$
b1011101001111000 {$
b1001100110000111 %%
b1111111111111111 -%
#58
13$
0;$
1C$
b0101101001001111 K$
#59
b0000000000000000 #
b0000000000000000 $
b0000000000000000 %
b0000000000000000 &
b0000000000000000 '
b0000000000000000 (
b0000000000000000 )
b0000000000000000 c
b0000000000000000 k
b0000000000000000 s
b0000000000000000 {
b0000000000000000 %!
b0000000000000000 -!
b0000000000000000 5!
b0111 E!
1U!
b0000000000000000 W"
b01 o"
b00 +$
1;$
b0000000000000000 [$
b0000000000000000 c$
b0000000000000000 k$
b0000000000000000 s$
b0000000000000000 {$
b0000000000000000 %%
b0000000000000000 -%
#60
03$
0;$
b1000111010101011 K$
#61
b0000 E!
0U!
1;$
#62
0;$
0C$
b0000011100110101 K$
0S$
#63
b1011001101101101 #
b1101101110101010 $
b1111111111111111 %
b0000111110010100 &
b1011101001111000 '
b1001100110000111 (
b1111111111111111 )
b1011001101101101 c
b1101101110101010 k
b1111111111111111 s
b0000111110010100 {
b1011101001111000 %!
b1001100110000111 -!
b1111111111111111 5!
b1011001101101101 W"
b11 o"
b01 +$
1;$
b1011001101101101 [$
b1101101110101010 c$
b1111111111111111 k$
b0000111110010100 s$
b1011101001111000 {$
b1001100110000111 %%
b1111111111111111 -%
#64
0;$
1C$
b1101010001001101 K$
1S$
#65
b0000000000000000 #
b0000000000000000 $
b0000000000000000 %
b0000000000000000 &
b0000000000000000 '
b0000000000000000 (
b0000000000000000 )
b0000000000000000 c
b0000000000000000 k
b0000000000000000 s
b0000000000000000 {
b0000000000000000 %!
b0000000000000000 -!
b0000000000000000 5!
b0000000000000000 W"
b01 o"
b00 +$
1;$
b0000000000000000 [$
b0000000000000000 c$
b0000000000000000 k$
b0000000000000000 s$
b0000000000000000 {$
b0000000000000000 %%
b0000000000000000 -%
#66
0;$
b1100000000010101 K$
0S$
#67
1;$
#68
13$
0;$
0C$
b0011101011100100 K$
1S$
#69
b1011001101101101 #
b1101101110101010 $
b1111111111111111 %
b0000111110010100 &
b1011101001111000 '
b1001100110000111 (
b1111111111111111 )
b1011001101101101 c
b1101101110101010 k
b1111111111111111 s
b0000111110010100 {
b1011101001111000 %!
b1001100110000111 -!
b1111111111111111 5!
b0111 E!
1]!
b0111 m!
b11 o"
b0000000000000000 w"
b01 +$
1;$
b1011001101101101 [$
b1101101110101010 c$
b1111111111111111 k$
b0000111110010100 s$
b1011101001111000 {$
b1001100110000111 %%
b1111111111111111 -%
#70
0;$
1C$
b0101110011011001 K$
#71
b0000000000000000 #
b0000000000000000 $
b0000000000000000 %
b0000000000000000 &
b0000000000000000 '
b0000000000000000 (
b0000000000000000 )
b0000000000000000 c
b0000000000000000 k
b0000000000000000 s
b0000000000000000 {
b0000000000000000 %!
b0000000000000000 -!
b0000000000000000 5!
1U!
0]!
b0000 m!
b01 o"
b1111111111111111 w"
b00 +$
1;$
b0000000000000000 [$
b0000000000000000 c$
b0000000000000000 k$
b0000000000000000 s$
b0000000000000000 {$
b0000000000000000 %%
b0000000000000000 -%
#72
0;$
0C$
b0011101000000101 K$
0S$
#73
b1011001101101101 #
b1101101110101010 $
b1111111111111111 %
b0000111110010100 &
b1011101001111000 '
b1001100110000111 (
b1111111111111111 )
b1011001101101101 c
b1101101110101010 k
b1111111111111111 s
b0000111110010100 {
b1011101001111000 %!
b1001100110000111 -!
b1111111111111111 5!
0U!
1]!
b0111 m!
b11 o"
b0000000000000000 w"
b01 +$
1;$
b1011001101101101 [$
b1101101110101010 c$
b1111111111111111 k$
b0000111110010100 s$
b1011101001111000 {$
b1001100110000111 %%
b1111111111111111 -%
#74
0;$
b0011111101001000 K$
#75
b10000000 M!
1O"
b00 o"
b11 +$
1;$
1]%
#76
0;$
1C$
b1011111011100011 K$
1S$
#77
b0000000000000000 #
b0000000000000000 $
b0000000000000000 %
b0000000000000000 &
b0000000000000000 '
b0000000000000000 (
b0000000000000000 )
b0000000000000000 c
b0000000000000000 k
b0000000000000000 s
b0000000000000000 {
b0000000000000000 %!
b0000000000000000 -!
b0000000000000000 5!
b00000000 M!
1U!
0]!
b0000 m!
0O"
b01 o"
b1111111111111111 w"
b00 +$
1;$
b0000000000000000 [$
b0000000000000000 c$
b0000000000000000 k$
b0000000000000000 s$
b0000000000000000 {$
b0000000000000000 %%
b0000000000000000 -%
0]%
#78
0;$
b0101011011101000 K$
0S$
#79
1;$
#80
03$
0;$
0C$
b1110000010001100 K$
1S$
#81
b1011001101101101 #
b1101101110101010 $
b1111111111111111 %
b0000111110010100 &
b1011101001111000 '
b1001100110000111 (
b1111111111111111 )
b1011001101101101 c
b1101101110101010 k
b1111111111111111 s
b0000111110010100 {
b1011101001111000 %!
b1001100110000111 -!
b1111111111111111 5!
b11 o"
b01 +$
1;$
b1011001101101101 [$
b1101101110101010 c$
b1111111111111111 k$
b0000111110010100 s$
b1011101001111000 {$
b1001100110000111 %%
b1111111111111111 -%
#82
13$
0;$
1C$
b1110101100010000 K$
0S$
#83
b0000000000000000 #
b0000000000000000 $
b0000000000000000 %
b0000000000000000 &
b0000000000000000 '
b0000000000000000 (
b0000000000000000 )
b0000000000000000 c
b0000000000000000 k
b0000000000000000 s
b0000000000000000 {
b0000000000000000 %!
b0000000000000000 -!
b0000000000000000 5!
b01 o"
b00 +$
1;$
b0000000000000000 [$
b0000000000000000 c$
b0000000000000000 k$
b0000000000000000 s$
b0000000000000000 {$
b0000000000000000 %%
b0000000000000000 -%
#84
0;$
b0000101101010110 K$
#85
1;$
#86
03$
0;$
b0110101101001100 K$
1S$
#87
b0000 E!
0U!
1;$
#88
13$
0;$
0C$
b1011011011011001 K$
#89
b1011001101101101 #
b1101101110101010 $
b1111111111111111 %
b0000111110010100 &
b1011101001111000 '
b1001100110000111 (
b1111111111111111 )
b1011001101101101 c
b1101101110101010 k
b1111111111111111 s
b0000111110010100 {
b1011101001111000 %!
b1001100110000111 -!
b1111111111111111 5!
b0111 E!
1]!
b0111 m!
b11 o"
b0000000000000000 w"
b01 +$
1;$
b1011001101101101 [$
b1101101110101010 c$
b1111111111111111 k$
b0000111110010100 s$
b1011101001111000 {$
b1001100110000111 %%
b1111111111111111 -%
#90
03$
0;$
1C$
b0010101001101001 K$
#91
b0000000000000000 #
b0000000000000000 $
b0000000000000000 %
b0000000000000000 &
b0000000000000000 '
b0000000000000000 (
b0000000000000000 )
b0000000000000000 c
b0000000000000000 k
b0000000000000000 s
b0000000000000000 {
b0000000000000000 %!
b0000000000000000 -!
b0000000000000000 5!
b0000 E!
0]!
b0000 m!
b01 o"
b1111111111111111 w"
b00 +$
1;$
b0000000000000000 [$
b0000000000000000 c$
b0000000000000000 k$
b0000000000000000 s$
b0000000000000000 {$
b0000000000000000 %%
b0000000000000000 -%
#92
0;$
0C$
b1011110111100000 K$
0S$
#93
b1011001101101101 #
b1101101110101010 $
b1111111111111111 %
b0000111110010100 &
b1011101001111000 '
b1001100110000111 (
b1111111111111111 )
b1011001101101101 c
b1101101110101010 k
b1111111111111111 s
b0000111110010100 {
b1011101001111000 %!
b1001100110000111 -!
b1111111111111111 5!
b1011001101101101 W"
b11 o"
b01 +$
1;$
b1011001101101101 [$
b1101101110101010 c$
b1111111111111111 k$
b0000111110010100 s$
b1011101001111000 {$
b1001100110000111 %%
b1111111111111111 -%
#94
13$
0;$
b0010000100111011 K$
#95
b10000000 M!
1O"
b00 o"
b11 +$
1;$
1]%
#96
03$
0;$
1C$
b0011110001011001 K$
#97
b0000000000000000 #
b0000000000000000 $
b0000000000000000 %
b0000000000000000 &
b0000000000000000 '
b0000000000000000 (
b0000000000000000 )
b0000000000000000 c
b0000000000000000 k
b0000000000000000 s
b0000000000000000 {
b0000000000000000 %!
b0000000000000000 -!
b0000000000000000 5!
b00000000 M!
0O"
b0000000000000000 W"
b01 o"
b00 +$
1;$
b0000000000000000 [$
b0000000000000000 c$
b0000000000000000 k$
b0000000000000000 s$
b0000000000000000 {$
b0000000000000000 %%
b0000000000000000 -%
0]%
#98
0;$
0C$
b1110101110110101 K$
#99
b1011001101101101 #
b1101101110101010 $
b1111111111111111 %
b0000111110010100 &
b1011101001111000 '
b1001100110000111 (
b1111111111111111 )
b1011001101101101 c
b1101101110101010 k
b1111111111111111 s
b0000111110010100 {
b1011101001111000 %!
b1001100110000111 -!
b1111111111111111 5!
b1011001101101101 W"
b11 o"
b01 +$
1;$
b1011001101101101 [$
b1101101110101010 c$
b1111111111111111 k$
b0000111110010100 s$
b1011101001111000 {$
b1001100110000111 %%
b1111111111111111 -%
#100
13$
0;$
b0100001101110101 K$
1S$
#101
b10000000 M!
1O"
b00 o"
b11 +$
1;$
1]%
#102
03$
0;$
b0100100011101001 K$
#103
b01 o"
b00 +$
1;$
#104
0;$
b1000111110000110 K$
0S$
#105
b11 o"
b01 +$
1;$
#106
13$
0;$
1C$
b1011000101011100 K$
1S$
#107
b0000000000000000 #
b0000000000000000 $
b0000000000000000 %
b0000000000000000 &
b0000000000000000 '
b0000000000000000 (
b0000000000000000 )
b0000000000000000 c
b0000000000000000 k
b0000000000000000 s
b0000000000000000 {
b0000000000000000 %!
b0000000000000000 -!
b0000000000000000 5!
b0111 E!
b00000000 M!
1U!
0O"
b0000000000000000 W"
b01 o"
b00 +$
1;$
b0000000000000000 [$
b0000000000000000 c$
b0000000000000000 k$
b0000000000000000 s$
b0000000000000000 {$
b0000000000000000 %%
b0000000000000000 -%
0]%
#108
0;$
b0000111010011110 K$
0S$
#109
1;$
#110
03$
0;$
0C$
b0111010110110010 K$
