lvl3/lab3/waveform.vcd
$version Generated by VerilatedVcd $end
$date Thu Jun 27 10:09:11 2024
 $end
$timescale   1ns $end

 $scope module TOP $end
  $var wire  1 S$ carry_in $end
  $var wire  1 U% carry_out $end
  $var wire  1 ;$ clk $end
  $var wire 16 K$ d_instr [15:0] $end
  $var wire 16 M% d_out [15:0] $end
  $var wire  1 ]% done $end
  $var wire 16 [$ reg0 [15:0] $end
  $var wire 16 c$ reg1 [15:0] $end
  $var wire 16 k$ reg2 [15:0] $end
  $var wire 16 s$ reg3 [15:0] $end
  $var wire 16 {$ reg4 [15:0] $end
  $var wire 16 %% reg5 [15:0] $end
  $var wire 16 -% reg6 [15:0] $end
  $var wire 16 5% reg7 [15:0] $end
  $var wire 16 E% regc [15:0] $end
  $var wire 16 =% regs [15:0] $end
  $var wire  1 C$ reset $end
  $var wire  1 3$ run $end
  $scope module bitty $end
   $var wire 16 ?" alu_out [15:0] $end
   $var wire  4 g" alu_sel [3:0] $end
   $var wire  1 S$ carry_in $end
   $var wire  1 U% carry_out $end
   $var wire  1 ;$ clk $end
   $var wire 16 K$ d_instr [15:0] $end
   $var wire 16 M% d_out [15:0] $end
   $var wire  1 ]% done $end
   $var wire  8 E! en [7:0] $end
   $var wire  1 O" en_c $end
   $var wire  1 W" en_inst $end
   $var wire  1 G" en_s $end
   $var wire 16 A# instruction [15:0] $end
   $var wire  1 _" mode $end
   $var wire  4 /" mux_sel [3:0] $end
   $var wire 16 # out(0) [15:0] $end
   $var wire 16 $ out(1) [15:0] $end
   $var wire 16 % out(2) [15:0] $end
   $var wire 16 & out(3) [15:0] $end
   $var wire 16 ' out(4) [15:0] $end
   $var wire 16 ( out(5) [15:0] $end
   $var wire 16 ) out(6) [15:0] $end
   $var wire 16 * out(7) [15:0] $end
   $var wire 16 7" out_mux [15:0] $end
   $var wire 16 [$ reg0 [15:0] $end
   $var wire 16 c$ reg1 [15:0] $end
   $var wire 16 k$ reg2 [15:0] $end
   $var wire 16 s$ reg3 [15:0] $end
   $var wire 16 {$ reg4 [15:0] $end
   $var wire 16 %% reg5 [15:0] $end
   $var wire 16 -% reg6 [15:0] $end
   $var wire 16 5% reg7 [15:0] $end
   $var wire 16 E% regc [15:0] $end
   $var wire 16 =% regs [15:0] $end
   $var wire  1 C$ reset $end
   $var wire  1 3$ run $end
   $scope module alu_inst $end
    $var wire 32 e% WIDTH [31:0] $end
    $var wire 16 =% a_in [15:0] $end
    $var wire 16 ?" alu_out [15:0] $end
    $var wire 16 !# arithmetic_res [15:0] $end
    $var wire 16 7" b_in [15:0] $end
    $var wire  1 1# car_arith $end
    $var wire  1 )# car_out $end
    $var wire  1 S$ carry_in $end
    $var wire  1 U% carry_out $end
    $var wire 16 w" logic_res [15:0] $end
    $var wire  1 _" mode $end
    $var wire 16 ?" res [15:0] $end
    $var wire  4 g" select [3:0] $end
    $scope module u1 $end
     $var wire 32 e% WIDTH [31:0] $end
     $var wire 16 =% in_a [15:0] $end
     $var wire 16 7" in_b [15:0] $end
     $var wire 16 w" logic_out [15:0] $end
     $var wire 16 w" res [15:0] $end
     $var wire  4 g" select [3:0] $end
    $upscope $end
    $scope module u2 $end
     $var wire 32 e% WIDTH [31:0] $end
     $var wire 16 !# arithmetic_out [15:0] $end
     $var wire  1 S$ carry_in $end
     $var wire  1 1# carry_out $end
     $var wire 17 9# extended_res [16:0] $end
     $var wire 16 =% in_a [15:0] $end
     $var wire 16 7" in_b [15:0] $end
     $var wire  4 g" select [3:0] $end
    $upscope $end
   $upscope $end
   $scope module cpu_inst $end
    $var wire  1 ;$ clk $end
    $var wire  2 I# cur_state [1:0] $end
    $var wire 16 A# d_inst [15:0] $end
    $var wire  1 ]% done $end
    $var wire  8 E! en [7:0] $end
    $var wire  1 O" en_c $end
    $var wire  1 W" en_inst $end
    $var wire  1 G" en_s $end
    $var wire  1 _" mode $end
    $var wire  4 /" mux_sel [3:0] $end
    $var wire  2 o" next_state [1:0] $end
    $var wire  1 C$ reset $end
    $var wire  1 3$ run $end
    $var wire  4 g" sel [3:0] $end
   $upscope $end
   $scope module genblk1(0) $end
    $scope module reg_out $end
     $var wire  1 ;$ clk $end
     $var wire 16 E% d_in [15:0] $end
     $var wire  1 M! en $end
     $var wire 16 Q# mux_out [15:0] $end
    $upscope $end
   $upscope $end
   $scope module genblk1(1) $end
    $scope module reg_out $end
     $var wire  1 ;$ clk $end
     $var wire 16 E% d_in [15:0] $end
     $var wire  1 U! en $end
     $var wire 16 Y# mux_out [15:0] $end
    $upscope $end
   $upscope $end
   $scope module genblk1(2) $end
    $scope module reg_out $end
     $var wire  1 ;$ clk $end
     $var wire 16 E% d_in [15:0] $end
     $var wire  1 ]! en $end
     $var wire 16 a# mux_out [15:0] $end
    $upscope $end
   $upscope $end
   $scope module genblk1(3) $end
    $scope module reg_out $end
     $var wire  1 ;$ clk $end
     $var wire 16 E% d_in [15:0] $end
     $var wire  1 e! en $end
     $var wire 16 i# mux_out [15:0] $end
    $upscope $end
   $upscope $end
   $scope module genblk1(4) $end
    $scope module reg_out $end
     $var wire  1 ;$ clk $end
     $var wire 16 E% d_in [15:0] $end
     $var wire  1 m! en $end
     $var wire 16 q# mux_out [15:0] $end
    $upscope $end
   $upscope $end
   $scope module genblk1(5) $end
    $scope module reg_out $end
     $var wire  1 ;$ clk $end
     $var wire 16 E% d_in [15:0] $end
     $var wire  1 u! en $end
     $var wire 16 y# mux_out [15:0] $end
    $upscope $end
   $upscope $end
   $scope module genblk1(6) $end
    $scope module reg_out $end
     $var wire  1 ;$ clk $end
     $var wire 16 E% d_in [15:0] $end
     $var wire  1 }! en $end
     $var wire 16 #$ mux_out [15:0] $end
    $upscope $end
   $upscope $end
   $scope module genblk1(7) $end
    $scope module reg_out $end
     $var wire  1 ;$ clk $end
     $var wire 16 E% d_in [15:0] $end
     $var wire  1 '" en $end
     $var wire 16 +$ mux_out [15:0] $end
    $upscope $end
   $upscope $end
   $scope module mux_inst $end
    $var wire 16 7" mux_out [15:0] $end
    $var wire  4 /" mux_sel [3:0] $end
    $var wire 16 c reg0 [15:0] $end
    $var wire 16 k reg1 [15:0] $end
    $var wire 16 s reg2 [15:0] $end
    $var wire 16 { reg3 [15:0] $end
    $var wire 16 %! reg4 [15:0] $end
    $var wire 16 -! reg5 [15:0] $end
    $var wire 16 5! reg6 [15:0] $end
    $var wire 16 =! reg7 [15:0] $end
   $upscope $end
   $scope module reg_c $end
    $var wire  1 ;$ clk $end
    $var wire 16 ?" d_in [15:0] $end
    $var wire  1 O" en $end
    $var wire 16 E% mux_out [15:0] $end
   $upscope $end
   $scope module reg_inst $end
    $var wire  1 ;$ clk $end
    $var wire 16 K$ d_in [15:0] $end
    $var wire  1 W" en $end
    $var wire 16 A# mux_out [15:0] $end
   $upscope $end
   $scope module reg_s $end
    $var wire  1 ;$ clk $end
    $var wire 16 7" d_in [15:0] $end
    $var wire  1 G" en $end
    $var wire 16 =% mux_out [15:0] $end
   $upscope $end
  $upscope $end
 $upscope $end
$enddefinitions $end


#0
b1011001101101101 #
b1101101110101010 $
b1101100111000000 %
b0000111110010100 &
b1011101001111000 '
b1001100110000111 (
b1101000110110011 )
b0011110000001100 *
b1011001101101101 c
b1101101110101010 k
b1101100111000000 s
b0000111110010100 {
b1011101001111000 %!
b1001100110000111 -!
b1101000110110011 5!
b0011110000001100 =!
b00000000 E!
0M!
0U!
0]!
0e!
0m!
0u!
0}!
0'"
b0001 /"
b1101101110101010 7"
b1100010000001111 ?"
1G"
0O"
1W"
0_"
b0000 g"
b01 o"
b0011101111110000 w"
b1100010000001111 !#
0)#
01#
b01100010000001111 9#
b0010000110110011 A#
b00 I#
b1011001101101101 Q#
b1101101110101010 Y#
b1101100111000000 a#
b0000111110010100 i#
b1011101001111000 q#
b1001100110000111 y#
b1101000110110011 #$
b0011110000001100 +$
13$
0;$
0C$
b0100011010010001 K$
1S$
b1011001101101101 [$
b1101101110101010 c$
b1101100111000000 k$
b0000111110010100 s$
b1011101001111000 {$
b1001100110000111 %%
b1101000110110011 -%
b0011110000001100 5%
b1100010000001111 =%
b1111101001011111 E%
b1100010000001111 M%
0U%
0]%
b00000000000000000000000000010000 e%
#1
1;$
#2
b1111111111111111 ?"
0G"
1O"
b0010 g"
b11 o"
b0000000000000000 w"
b1111111111111111 !#
b01111111111111111 9#
b0100011010010001 A#
b01 I#
0;$
b1101101110101010 =%
b1111111111111111 M%
#3
1;$
b0011011100000011 K$
0S$
#4
b00000010 E!
1U!
b0000 /"
b1011001101101101 7"
b1101101110101010 ?"
0O"
b0000 g"
b00 o"
b0010010001010101 w"
b1101101110101010 !#
b01101101110101010 9#
b0011011100000011 A#
b11 I#
0;$
b0011101001101010 K$
1S$
b1111111111111111 E%
b1101101110101010 M%
1]%
#5
1;$
#6
b1111111111111111 $
b1111111111111111 k
b00000000 E!
0U!
b0001 /"
b1111111111111111 7"
1G"
b01 o"
b0011101001101010 A#
b00 I#
b1111111111111111 Y#
0;$
b0000000000000000 [$
b0000000000000000 c$
b0000000000000000 k$
b0000000000000000 s$
b0000000000000000 {$
b0000000000000000 %%
b0000000000000000 -%
b0000000000000000 5%
0]%
#7
1;$
#8
b0110 /"
b1101000110110011 7"
b1111111111111111 ?"
0G"
1O"
b1101 g"
b11 o"
b1111111111111111 w"
b1111111111111111 !#
1)#
11#
b11111111111111111 9#
b01 I#
0;$
b1011001101101101 [$
b1111111111111111 c$
b1101100111000000 k$
b0000111110010100 s$
b1011101001111000 {$
b1001100110000111 %%
b1101000110110011 -%
b0011110000001100 5%
b1111111111111111 =%
b1111111111111111 M%
1U%
#9
1;$
#10
b00000010 E!
1U!
b0000 /"
b1011001101101101 7"
0O"
b0000 g"
b00 o"
b0000000000000000 w"
0)#
01#
b01111111111111111 9#
b11 I#
0;$
0U%
1]%
#11
1;$
b1100111111011111 K$
0S$
#12
b00000000 E!
0U!
b0110 /"
b1101000110110011 7"
1G"
b01 o"
b1100111111011111 A#
b00 I#
0;$
b0011100011000101 K$
b0000000000000000 [$
b0000000000000000 c$
b0000000000000000 k$
b0000000000000000 s$
b0000000000000000 {$
b0000000000000000 %%
b0000000000000000 -%
b0000000000000000 5%
0]%
#13
1;$
b0011010111110001 K$
1S$
#14
b0101 /"
b1001100110000111 7"
b1100100110101111 ?"
0G"
1O"
b1110 g"
b11 o"
b1101100110110111 w"
b1100100110101111 !#
1)#
11#
b11100100110101111 9#
b0011010111110001 A#
b01 I#
0;$
b1011001101101101 [$
b1111111111111111 c$
b1101100111000000 k$
b0000111110010100 s$
b1011101001111000 {$
b1001100110000111 %%
b1101000110110011 -%
b0011110000001100 5%
b1101000110110011 =%
b1100100110101111 M%
1U%
#15
1;$
#16
b00000010 E!
1U!
b0000 /"
b1011001101101101 7"
b1101000110110011 ?"
0O"
b0000 g"
b00 o"
b0010111001001100 w"
b1101000110110011 !#
0)#
01#
b01101000110110011 9#
b11 I#
0;$
b1100100110101111 E%
b1101000110110011 M%
0U%
1]%
#17
1;$
b1111111110001100 K$
0S$
#18
b1100100110101111 $
b1100100110101111 k
b00000000 E!
0U!
b0111 /"
b0011110000001100 7"
1G"
b01 o"
b1111111110001100 A#
b00 I#
b1100100110101111 Y#
0;$
b0100011011101001 K$
1S$
b0000000000000000 [$
b0000000000000000 c$
b0000000000000000 k$
b0000000000000000 s$
b0000000000000000 {$
b0000000000000000 %%
b0000000000000000 -%
b0000000000000000 5%
0]%
#19
1;$
#20
b0001 /"
b1100100110101111 7"
b0011100110111100 ?"
0G"
1O"
b1101 g"
b11 o"
b0011111001011100 w"
b0011100110111100 !#
1)#
11#
b10011100110111100 9#
b0100011011101001 A#
b01 I#
0;$
b1011001101101101 [$
b1100100110101111 c$
b1101100111000000 k$
b0000111110010100 s$
b1011101001111000 {$
b1001100110000111 %%
b1101000110110011 -%
b0011110000001100 5%
b0011110000001100 =%
b0011100110111100 M%
1U%
#21
1;$
#22
b00000100 E!
1]!
b0000 /"
b1011001101101101 7"
b0011110000001100 ?"
0O"
b0000 g"
b00 o"
b1100001111110011 w"
b0011110000001100 !#
0)#
01#
b00011110000001100 9#
b11 I#
0;$
b0011100110111100 E%
b0011110000001100 M%
0U%
1]%
#23
1;$
#24
b0011100110111100 %
b0011100110111100 s
b00000000 E!
0]!
b0010 /"
b0011100110111100 7"
1G"
b01 o"
b00 I#
b0011100110111100 a#
0;$
b0100110101001110 K$
0S$
b0000000000000000 [$
b0000000000000000 c$
b0000000000000000 k$
b0000000000000000 s$
b0000000000000000 {$
b0000000000000000 %%
b0000000000000000 -%
b0000000000000000 5%
0]%
#25
1;$
#26
b0011 /"
b0000111110010100 7"
b1100100111010111 ?"
0G"
1O"
1_"
b1001 g"
b11 o"
b1100100111010111 w"
b0100100101010000 !#
b00100100101010000 9#
b0100110101001110 A#
b01 I#
0;$
b1011001101101101 [$
b1100100110101111 c$
b0011100110111100 k$
b0000111110010100 s$
b1011101001111000 {$
b1001100110000111 %%
b1101000110110011 -%
b0011110000001100 5%
b0011100110111100 =%
b1100100111010111 M%
#27
1;$
#28
b00000100 E!
1]!
b0000 /"
b1011001101101101 7"
b0011100110111100 ?"
0O"
0_"
b0000 g"
b00 o"
b1100011001000011 w"
b0011100110111100 !#
b00011100110111100 9#
b11 I#
0;$
b1100100111010111 E%
b0011100110111100 M%
1]%
#29
1;$
b0100001000111101 K$
#30
b1100100111010111 %
b1100100111010111 s
b00000000 E!
0]!
b0010 /"
b1100100111010111 7"
1G"
b01 o"
b0100001000111101 A#
b00 I#
b1100100111010111 a#
03$
0;$
b1100001010001000 K$
b0000000000000000 [$
b0000000000000000 c$
b0000000000000000 k$
b0000000000000000 s$
b0000000000000000 {$
b0000000000000000 %%
b0000000000000000 -%
b0000000000000000 5%
0]%
#31
b0000 /"
b1011001101101101 7"
0G"
0W"
b00 o"
1;$
#32
0;$
b1011001101101101 [$
b1100100110101111 c$
b1100100111010111 k$
b0000111110010100 s$
b1011101001111000 {$
b1001100110000111 %%
b1101000110110011 -%
b0011110000001100 5%
#33
1;$
#34
13$
0;$
b1111000001111110 K$
#35
b0010 /"
b1100100111010111 7"
1G"
1W"
b01 o"
1;$
#36
b0100 /"
b1011101001111000 7"
b1100100111010111 ?"
0G"
1O"
1_"
b1111 g"
b11 o"
b1100100111010111 w"
b1100100111010111 !#
b01100100111010111 9#
b1111000001111110 A#
b01 I#
0;$
b0001100001101101 K$
b1100100111010111 =%
b1100100111010111 M%
#37
1;$
#38
b00000001 E!
1M!
b0000 /"
b1011001101101101 7"
0O"
0_"
b0000 g"
b00 o"
b0011011000101000 w"
b0001100001101101 A#
b11 I#
0;$
1]%
#39
1;$
#40
b1100100111010111 #
b1100100111010111 c
b00000000 E!
0M!
b1100100111010111 7"
1G"
b01 o"
b00 I#
b1100100111010111 Q#
0;$
b0000000000000000 [$
b0000000000000000 c$
b0000000000000000 k$
b0000000000000000 s$
b0000000000000000 {$
b0000000000000000 %%
b0000000000000000 -%
b0000000000000000 5%
0]%
#41
1;$
#42
b0110 /"
b1101000110110011 7"
b1110111111011111 ?"
0G"
1O"
1_"
b1101 g"
b11 o"
b1110111111011111 w"
b1010001111001110 !#
11#
b11010001111001110 9#
b01 I#
0;$
b1100100111010111 [$
b1100100110101111 c$
b1100100111010111 k$
b0000111110010100 s$
b1011101001111000 {$
b1001100110000111 %%
b1101000110110011 -%
b0011110000001100 5%
b1110111111011111 M%
#43
1;$
#44
b00000001 E!
1M!
b0000 /"
b1100100111010111 7"
b1100100111010111 ?"
0O"
0_"
b0000 g"
b00 o"
b0011011000101000 w"
b1100100111010111 !#
01#
b01100100111010111 9#
b11 I#
0;$
b1011101100110101 K$
b1110111111011111 E%
b1100100111010111 M%
1]%
#45
1;$
#46
b1110111111011111 #
b1110111111011111 c
b00000000 E!
0M!
b0101 /"
b1001100110000111 7"
1G"
b01 o"
b1011101100110101 A#
b00 I#
b1110111111011111 Q#
0;$
b0000000000000000 [$
b0000000000000000 c$
b0000000000000000 k$
b0000000000000000 s$
b0000000000000000 {$
b0000000000000000 %%
b0000000000000000 -%
b0000000000000000 5%
0]%
#47
1;$
#48
b0110 /"
b1101000110110011 7"
b0100100000110100 ?"
0G"
1O"
1_"
b0110 g"
b11 o"
b0100100000110100 w"
b1100011111010011 !#
b01100011111010011 9#
b01 I#
0;$
b1110111111011111 [$
b1100100110101111 c$
b1100100111010111 k$
b0000111110010100 s$
b1011101001111000 {$
b1001100110000111 %%
b1101000110110011 -%
b0011110000001100 5%
b1001100110000111 =%
b0100100000110100 M%
#49
1;$
b0011000001000010 K$
#50
b00000010 E!
1U!
b0000 /"
b1110111111011111 7"
b1001100110000111 ?"
0O"
0_"
b0000 g"
b00 o"
b0110011001111000 w"
b1001100110000111 !#
b01001100110000111 9#
b0011000001000010 A#
b11 I#
0;$
b0100100000110100 E%
b1001100110000111 M%
1]%
#51
1;$
#52
b0100100000110100 $
b0100100000110100 k
b00000000 E!
0U!
b0001 /"
b0100100000110100 7"
1G"
b01 o"
b00 I#
b0100100000110100 Y#
0;$
b0000000000000000 [$
b0000000000000000 c$
b0000000000000000 k$
b0000000000000000 s$
b0000000000000000 {$
b0000000000000000 %%
b0000000000000000 -%
b0000000000000000 5%
0]%
#53
1;$
#54
b0100 /"
b1011101001111000 7"
b0101000001100100 ?"
0G"
1O"
b1000 g"
b11 o"
b1011111111111011 w"
b0101000001100100 !#
b00101000001100100 9#
b01 I#
0;$
b1110111111011111 [$
b0100100000110100 c$
b1100100111010111 k$
b0000111110010100 s$
b1011101001111000 {$
b1001100110000111 %%
b1101000110110011 -%
b0011110000001100 5%
b0100100000110100 =%
b0101000001100100 M%
#55
1;$
#56
b00000010 E!
1U!
b0000 /"
b1110111111011111 7"
b0100100000110100 ?"
0O"
b0000 g"
b00 o"
b1011011111001011 w"
b0100100000110100 !#
b00100100000110100 9#
b11 I#
0;$
b0101000001100100 E%
b0100100000110100 M%
1]%
#57
1;$
b0011011000010001 K$
1S$
#58
b0101000001100100 $
b0101000001100100 k
b00000000 E!
0U!
b0001 /"
b0101000001100100 7"
1G"
b01 o"
b0011011000010001 A#
b00 I#
b0101000001100100 Y#
0;$
b0000000000000000 [$
b0000000000000000 c$
b0000000000000000 k$
b0000000000000000 s$
b0000000000000000 {$
b0000000000000000 %%
b0000000000000000 -%
b0000000000000000 5%
0]%
#59
1;$
#60
b0101 /"
b1001100110000111 7"
b0111011001111100 ?"
0G"
1O"
b0010 g"
b11 o"
b1000100110000011 w"
b0111011001111100 !#
b00111011001111100 9#
b01 I#
0;$
b1001010101001111 K$
b1110111111011111 [$
b0101000001100100 c$
b1100100111010111 k$
b0000111110010100 s$
b1011101001111000 {$
b1001100110000111 %%
b1101000110110011 -%
b0011110000001100 5%
b0101000001100100 =%
b0111011001111100 M%
#61
1;$
#62
b00010000 E!
1m!
b0000 /"
b1110111111011111 7"
b0101000001100100 ?"
0O"
b0000 g"
b00 o"
b1010111110011011 w"
b0101000001100100 !#
b00101000001100100 9#
b1001010101001111 A#
b11 I#
0;$
b0111011001111100 E%
b0101000001100100 M%
1]%
#63
1;$
#64
b0111011001111100 '
b0111011001111100 %!
b00000000 E!
0m!
b0100 /"
b0111011001111100 7"
1G"
b01 o"
b00 I#
b0111011001111100 q#
03$
0;$
b1101100010000011 K$
0S$
b0000000000000000 [$
b0000000000000000 c$
b0000000000000000 k$
b0000000000000000 s$
b0000000000000000 {$
b0000000000000000 %%
b0000000000000000 -%
b0000000000000000 5%
0]%
#65
b0000 /"
b1110111111011111 7"
0G"
0W"
b00 o"
1;$
#66
0;$
b1110111111011111 [$
b0101000001100100 c$
b1100100111010111 k$
b0000111110010100 s$
b0111011001111100 {$
b1001100110000111 %%
b1101000110110011 -%
b0011110000001100 5%
#67
13$
1;$
b0011101001101001 K$
1S$
#68
b0100 /"
b0111011001111100 7"
1G"
1W"
b01 o"
0;$
#69
1;$
#70
b0110 /"
b1101000110110011 7"
b0110111001111100 ?"
0G"
1O"
b1101 g"
b11 o"
b0111111001111100 w"
b0110111001111100 !#
1)#
11#
b10110111001111100 9#
b0011101001101001 A#
b01 I#
0;$
b0111011001111100 =%
b0110111001111100 M%
1U%
#71
1;$
#72
b00000010 E!
1U!
b0000 /"
b1110111111011111 7"
b0111011001111100 ?"
0O"
b0000 g"
b00 o"
b1000100110000011 w"
b0111011001111100 !#
0)#
01#
b00111011001111100 9#
b11 I#
0;$
b0110111001111100 E%
b0111011001111100 M%
0U%
1]%
#73
1;$
#74
b0110111001111100 $
b0110111001111100 k
b00000000 E!
0U!
b0001 /"
b0110111001111100 7"
1G"
b01 o"
b00 I#
b0110111001111100 Y#
0;$
b0000000000000000 [$
b0000000000000000 c$
b0000000000000000 k$
b0000000000000000 s$
b0000000000000000 {$
b0000000000000000 %%
b0000000000000000 -%
b0000000000000000 5%
0]%
#75
1;$
#76
b0110 /"
b1101000110110011 7"
b0110111001111100 ?"
0G"
1O"
b1101 g"
b11 o"
b0110111001111100 w"
b0110111001111100 !#
1)#
11#
b10110111001111100 9#
b01 I#
0;$
b1110111111011111 [$
b0110111001111100 c$
b1100100111010111 k$
b0000111110010100 s$
b0111011001111100 {$
b1001100110000111 %%
b1101000110110011 -%
b0011110000001100 5%
b0110111001111100 =%
b0110111001111100 M%
1U%
#77
1;$
#78
b00000010 E!
1U!
b0000 /"
b1110111111011111 7"
0O"
b0000 g"
b00 o"
b1001000110000011 w"
0)#
01#
b00110111001111100 9#
b11 I#
0;$
0U%
1]%
#79
1;$
#80
b00000000 E!
0U!
b0001 /"
b0110111001111100 7"
1G"
b01 o"
b00 I#
0;$
b0000000000000000 [$
b0000000000000000 c$
b0000000000000000 k$
b0000000000000000 s$
b0000000000000000 {$
b0000000000000000 %%
b0000000000000000 -%
b0000000000000000 5%
0]%
#81
1;$
#82
b0110 /"
b1101000110110011 7"
0G"
1O"
b1101 g"
b11 o"
b0110111001111100 w"
1)#
11#
b10110111001111100 9#
b01 I#
0;$
b1110111111011111 [$
b0110111001111100 c$
b1100100111010111 k$
b0000111110010100 s$
b0111011001111100 {$
b1001100110000111 %%
b1101000110110011 -%
b0011110000001100 5%
1U%
#83
1;$
#84
b00000010 E!
1U!
b0000 /"
b1110111111011111 7"
0O"
b0000 g"
b00 o"
b1001000110000011 w"
0)#
01#
b00110111001111100 9#
b11 I#
0;$
b0111011000111010 K$
0S$
0U%
1]%
#85
1;$
#86
b00000000 E!
0U!
b0011 /"
b0000111110010100 7"
1G"
b01 o"
b0111011000111010 A#
b00 I#
0;$
b0000000000000000 [$
b0000000000000000 c$
b0000000000000000 k$
b0000000000000000 s$
b0000000000000000 {$
b0000000000000000 %%
b0000000000000000 -%
b0000000000000000 5%
0]%
#87
1;$
#88
b0101 /"
b1001100110000111 7"
b0000011000010000 ?"
0G"
1O"
b0111 g"
b11 o"
b0000011000010000 w"
b0000011000010000 !#
b00000011000010000 9#
b01 I#
0;$
b1110111111011111 [$
b0110111001111100 c$
b1100100111010111 k$
b0000111110010100 s$
b0111011001111100 {$
b1001100110000111 %%
b1101000110110011 -%
b0011110000001100 5%
b0000111110010100 =%
b0000011000010000 M%
#89
1;$
#90
b00001000 E!
1e!
b0000 /"
b1110111111011111 7"
b0000111110010100 ?"
0O"
b0000 g"
b00 o"
b1111000001101011 w"
b0000111110010100 !#
b00000111110010100 9#
b11 I#
0;$
b0000011000010000 E%
b0000111110010100 M%
1]%
#91
1;$
#92
b0000011000010000 &
b0000011000010000 {
b00000000 E!
0e!
b0011 /"
b0000011000010000 7"
1G"
b01 o"
b00 I#
b0000011000010000 i#
0;$
b0110011111101000 K$
1S$
b0000000000000000 [$
b0000000000000000 c$
b0000000000000000 k$
b0000000000000000 s$
b0000000000000000 {$
b0000000000000000 %%
b0000000000000000 -%
b0000000000000000 5%
0]%
#93
1;$
#94
b0001 /"
b0110111001111100 7"
b0111010010001101 ?"
0G"
1O"
b1101 g"
b11 o"
b1001011110010011 w"
b0111010010001101 !#
b00111010010001101 9#
b0110011111101000 A#
b01 I#
0;$
b1110111111011111 [$
b0110111001111100 c$
b1100100111010111 k$
b0000011000010000 s$
b0111011001111100 {$
b1001100110000111 %%
b1101000110110011 -%
b0011110000001100 5%
b0000011000010000 =%
b0111010010001101 M%
#95
1;$
#96
b00001000 E!
1e!
b0000 /"
b1110111111011111 7"
b0000011000010000 ?"
0O"
b0000 g"
b00 o"
b1111100111101111 w"
b0000011000010000 !#
b00000011000010000 9#
b11 I#
0;$
b0111010010001101 E%
b0000011000010000 M%
1]%
#97
1;$
#98
b0111010010001101 &
b0111010010001101 {
b00000000 E!
0e!
b0011 /"
b0111010010001101 7"
1G"
b01 o"
b00 I#
b0111010010001101 i#
0;$
b0000000000000000 [$
b0000000000000000 c$
b0000000000000000 k$
b0000000000000000 s$
b0000000000000000 {$
b0000000000000000 %%
b0000000000000000 -%
b0000000000000000 5%
0]%
#99
1;$
b1011110110100110 K$
#100
b0111 /"
b0011110000001100 7"
b1100101111110011 ?"
0G"
1O"
1_"
b0100 g"
b11 o"
b1100101111110011 w"
b0111010010001101 !#
b00111010010001101 9#
b1011110110100110 A#
b01 I#
0;$
b1110111111011111 [$
b0110111001111100 c$
b1100100111010111 k$
b0111010010001101 s$
b0111011001111100 {$
b1001100110000111 %%
b1101000110110011 -%
b0011110000001100 5%
b0111010010001101 =%
b1100101111110011 M%
#101
1;$
#102
b00100000 E!
1u!
b0000 /"
b1110111111011111 7"
b0111010010001101 ?"
0O"
0_"
b0000 g"
b00 o"
b1000101101110010 w"
b11 I#
0;$
b1100101111110011 E%
b0111010010001101 M%
1]%
#103
1;$
#104
b1100101111110011 (
b1100101111110011 -!
b00000000 E!
0u!
b0101 /"
b1100101111110011 7"
1G"
b01 o"
b00 I#
b1100101111110011 y#
0;$
b0000000000000000 [$
b0000000000000000 c$
b0000000000000000 k$
b0000000000000000 s$
b0000000000000000 {$
b0000000000000000 %%
b0000000000000000 -%
b0000000000000000 5%
0]%
#105
1;$
#106
b0111 /"
b0011110000001100 7"
b1111011111111111 ?"
0G"
1O"
1_"
b0100 g"
b11 o"
b1111011111111111 w"
b1100101111110011 !#
b01100101111110011 9#
b01 I#
0;$
b1110111111011111 [$
b0110111001111100 c$
b1100100111010111 k$
b0111010010001101 s$
b0111011001111100 {$
b1100101111110011 %%
b1101000110110011 -%
b0011110000001100 5%
b1100101111110011 =%
b1111011111111111 M%
#107
1;$
#108
b00100000 E!
1u!
b0000 /"
b1110111111011111 7"
b1100101111110011 ?"
0O"
0_"
b0000 g"
b00 o"
b0011010000001100 w"
b11 I#
0;$
b1111011111111111 E%
b1100101111110011 M%
1]%
#109
1;$
#110
b1111011111111111 (
b1111011111111111 -!
b00000000 E!
0u!
b0101 /"
b1111011111111111 7"
1G"
b01 o"
b00 I#
b1111011111111111 y#
0;$
b0000000000000000 [$
b0000000000000000 c$
b0000000000000000 k$
b0000000000000000 s$
b0000000000000000 {$
b0000000000000000 %%
b0000000000000000 -%
b0000000000000000 5%
0]%
#111
1;$
#112
b0111 /"
b0011110000001100 7"
0G"
1O"
1_"
b0100 g"
b11 o"
b1100101111110011 w"
b1111011111111111 !#
b01111011111111111 9#
b01 I#
0;$
b1110111111011111 [$
b0110111001111100 c$
b1100100111010111 k$
b0111010010001101 s$
b0111011001111100 {$
b1111011111111111 %%
b1101000110110011 -%
b0011110000001100 5%
b1111011111111111 =%
#113
1;$
#114
b00100000 E!
1u!
b0000 /"
b1110111111011111 7"
b1111011111111111 ?"
0O"
0_"
b0000 g"
b00 o"
b0000100000000000 w"
b11 I#
03$
0;$
b1111001100101010 K$
b1100101111110011 E%
b1111011111111111 M%
1]%
#115
b00000000 E!
0u!
0W"
b11 o"
1;$
0]%
#116
0;$
b1011111010010010 K$
0S$
#117
1;$
#118
0;$
#119
1;$
#120
0;$
#121
1;$
#122
0;$
#123
1;$
#124
0;$
#125
1;$
#126
0;$
#127
1;$
#128
0;$
#129
1;$
#130
0;$
b0011010110111111 K$
#131
1;$
#132
0;$
#133
1;$
#134
0;$
#135
13$
1;$
b0001011010011001 K$
1S$
#136
b00100000 E!
1u!
1W"
b00 o"
0;$
1]%
#137
1;$
#138
b1100101111110011 (
b1100101111110011 -!
b00000000 E!
0u!
1G"
b01 o"
b0001011010011001 A#
b00 I#
b1100101111110011 y#
0;$
b1100001100000101 K$
b0000000000000000 [$
b0000000000000000 c$
b0000000000000000 k$
b0000000000000000 s$
b0000000000000000 {$
b0000000000000000 %%
b0000000000000000 -%
b0000000000000000 5%
0]%
#139
1;$
#140
b0001000000100000 ?"
0G"
1O"
1_"
b11 o"
b0001000000100000 w"
b1110111111011111 !#
b01110111111011111 9#
b1100001100000101 A#
b01 I#
0;$
b1110111111011111 [$
b0110111001111100 c$
b1100100111010111 k$
b0111010010001101 s$
b0111011001111100 {$
b1100101111110011 %%
b1101000110110011 -%
b0011110000001100 5%
b1110111111011111 =%
b0001000000100000 M%
#141
1;$
#142
b01000000 E!
1}!
b1110111111011111 ?"
0O"
0_"
b00 o"
b11 I#
0;$
b0001000000100000 E%
b1110111111011111 M%
1]%
#143
1;$
#144
b0001000000100000 )
b0001000000100000 5!
b00000000 E!
0}!
b0110 /"
b0001000000100000 7"
1G"
b01 o"
b00 I#
b0001000000100000 #$
03$
0;$
b1101111010110110 K$
0S$
b0000000000000000 [$
b0000000000000000 c$
b0000000000000000 k$
b0000000000000000 s$
b0000000000000000 {$
b0000000000000000 %%
b0000000000000000 -%
b0000000000000000 5%
0]%
#145
b0000 /"
b1110111111011111 7"
0G"
0W"
b00 o"
1;$
