lvl4/lab9/waveform.vcd
$version Generated by VerilatedVcd $end
$date Thu Jul 11 21:57:27 2024
 $end
$timescale   1ns $end

 $scope module TOP $end
  $var wire  1 K$ clk $end
  $var wire 16 s$ d_out [15:0] $end
  $var wire  1 c$ done $end
  $var wire 16 k$ instr [15:0] $end
  $var wire  1 S$ reset $end
  $var wire  1 [$ run $end
  $scope module bigger $end
   $var wire  8 1# addr [7:0] $end
   $var wire  1 K$ clk $end
   $var wire  2 w" cur_state [1:0] $end
   $var wire  8 {$ d_in [7:0] $end
   $var wire 16 s$ d_out [15:0] $end
   $var wire  1 c$ done $end
   $var wire 16 k$ instr [15:0] $end
   $var wire  1 %% instr_valid $end
   $var wire 16 C$ mem_out [15:0] $end
   $var wire  2 !# next_state [1:0] $end
   $var wire  1 S$ reset $end
   $var wire  1 [$ run $end
   $var wire  1 )# run_bitty $end
   $scope module instance1 $end
    $var wire  1 K$ clk $end
    $var wire  8 9# d_in [7:0] $end
    $var wire  8 1# d_out [7:0] $end
    $var wire  1 c$ en_pc $end
    $var wire  1 S$ reset $end
   $upscope $end
   $scope module instance2 $end
    $var wire  8 1# addr [7:0] $end
    $var wire  1 K$ clk $end
    $var wire 16 C$ out [15:0] $end
   $upscope $end
   $scope module instance3 $end
    $var wire 16 E! alu_out [15:0] $end
    $var wire  3 }! alu_sel [2:0] $end
    $var wire  1 K$ clk $end
    $var wire 16 C$ d_instr [15:0] $end
    $var wire 16 s$ d_out [15:0] $end
    $var wire  1 c$ done $end
    $var wire  8 U! en [7:0] $end
    $var wire  1 m! en_c $end
    $var wire  1 u! en_inst $end
    $var wire  1 e! en_s $end
    $var wire 16 '" im_d [15:0] $end
    $var wire 16 A# instruction [15:0] $end
    $var wire  4 M! mux_sel [3:0] $end
    $var wire 16 # out(0) [15:0] $end
    $var wire 16 $ out(1) [15:0] $end
    $var wire 16 % out(2) [15:0] $end
    $var wire 16 & out(3) [15:0] $end
    $var wire 16 ' out(4) [15:0] $end
    $var wire 16 ( out(5) [15:0] $end
    $var wire 16 ) out(6) [15:0] $end
    $var wire 16 * out(7) [15:0] $end
    $var wire 16 ]! out_mux [15:0] $end
    $var wire 16 Q# regc [15:0] $end
    $var wire 16 I# regs [15:0] $end
    $var wire  1 S$ reset $end
    $var wire  1 )# run $end
    $scope module alu_inst $end
     $var wire 16 E! alu_out [15:0] $end
     $var wire 16 I# in_a [15:0] $end
     $var wire 16 ]! in_b [15:0] $end
     $var wire 16 E! res [15:0] $end
     $var wire  3 }! select [2:0] $end
    $upscope $end
    $scope module cpu_inst $end
     $var wire  1 K$ clk $end
     $var wire  2 Y# cur_state [1:0] $end
     $var wire 16 A# d_inst [15:0] $end
     $var wire  1 c$ done $end
     $var wire  8 U! en [7:0] $end
     $var wire  1 m! en_c $end
     $var wire  1 u! en_inst $end
     $var wire  1 e! en_s $end
     $var wire 16 '" im_d [15:0] $end
     $var wire  4 M! mux_sel [3:0] $end
     $var wire  2 /" next_state [1:0] $end
     $var wire  1 S$ reset $end
     $var wire  1 )# run $end
     $var wire  3 }! sel [2:0] $end
    $upscope $end
    $scope module genblk1(0) $end
     $scope module reg_out $end
      $var wire  1 K$ clk $end
      $var wire 16 Q# d_in [15:0] $end
      $var wire  1 7" en $end
      $var wire 16 a# mux_out [15:0] $end
      $var wire  1 S$ reset $end
      $var wire 16 5% starting [15:0] $end
     $upscope $end
    $upscope $end
    $scope module genblk1(1) $end
     $scope module reg_out $end
      $var wire  1 K$ clk $end
      $var wire 16 Q# d_in [15:0] $end
      $var wire  1 ?" en $end
      $var wire 16 i# mux_out [15:0] $end
      $var wire  1 S$ reset $end
      $var wire 16 5% starting [15:0] $end
     $upscope $end
    $upscope $end
    $scope module genblk1(2) $end
     $scope module reg_out $end
      $var wire  1 K$ clk $end
      $var wire 16 Q# d_in [15:0] $end
      $var wire  1 G" en $end
      $var wire 16 q# mux_out [15:0] $end
      $var wire  1 S$ reset $end
      $var wire 16 5% starting [15:0] $end
     $upscope $end
    $upscope $end
    $scope module genblk1(3) $end
     $scope module reg_out $end
      $var wire  1 K$ clk $end
      $var wire 16 Q# d_in [15:0] $end
      $var wire  1 O" en $end
      $var wire 16 y# mux_out [15:0] $end
      $var wire  1 S$ reset $end
      $var wire 16 5% starting [15:0] $end
     $upscope $end
    $upscope $end
    $scope module genblk1(4) $end
     $scope module reg_out $end
      $var wire  1 K$ clk $end
      $var wire 16 Q# d_in [15:0] $end
      $var wire  1 W" en $end
      $var wire 16 #$ mux_out [15:0] $end
      $var wire  1 S$ reset $end
      $var wire 16 5% starting [15:0] $end
     $upscope $end
    $upscope $end
    $scope module genblk1(5) $end
     $scope module reg_out $end
      $var wire  1 K$ clk $end
      $var wire 16 Q# d_in [15:0] $end
      $var wire  1 _" en $end
      $var wire 16 +$ mux_out [15:0] $end
      $var wire  1 S$ reset $end
      $var wire 16 5% starting [15:0] $end
     $upscope $end
    $upscope $end
    $scope module genblk1(6) $end
     $scope module reg_out $end
      $var wire  1 K$ clk $end
      $var wire 16 Q# d_in [15:0] $end
      $var wire  1 g" en $end
      $var wire 16 3$ mux_out [15:0] $end
      $var wire  1 S$ reset $end
      $var wire 16 5% starting [15:0] $end
     $upscope $end
    $upscope $end
    $scope module genblk1(7) $end
     $scope module reg_out $end
      $var wire  1 K$ clk $end
      $var wire 16 Q# d_in [15:0] $end
      $var wire  1 o" en $end
      $var wire 16 ;$ mux_out [15:0] $end
      $var wire  1 S$ reset $end
      $var wire 16 5% starting [15:0] $end
     $upscope $end
    $upscope $end
    $scope module mux_inst $end
     $var wire 16 '" im_d [15:0] $end
     $var wire 16 ]! mux_out [15:0] $end
     $var wire  4 M! mux_sel [3:0] $end
     $var wire 16 c reg0 [15:0] $end
     $var wire 16 k reg1 [15:0] $end
     $var wire 16 s reg2 [15:0] $end
     $var wire 16 { reg3 [15:0] $end
     $var wire 16 %! reg4 [15:0] $end
     $var wire 16 -! reg5 [15:0] $end
     $var wire 16 5! reg6 [15:0] $end
     $var wire 16 =! reg7 [15:0] $end
    $upscope $end
    $scope module reg_c $end
     $var wire  1 K$ clk $end
     $var wire 16 E! d_in [15:0] $end
     $var wire  1 m! en $end
     $var wire 16 Q# mux_out [15:0] $end
     $var wire  1 S$ reset $end
     $var wire 16 -% starting [15:0] $end
    $upscope $end
    $scope module reg_inst $end
     $var wire  1 K$ clk $end
     $var wire 16 C$ d_in [15:0] $end
     $var wire  1 u! en $end
     $var wire 16 A# mux_out [15:0] $end
     $var wire  1 S$ reset $end
     $var wire 16 -% starting [15:0] $end
    $upscope $end
    $scope module reg_s $end
     $var wire  1 K$ clk $end
     $var wire 16 ]! d_in [15:0] $end
     $var wire  1 e! en $end
     $var wire 16 I# mux_out [15:0] $end
     $var wire  1 S$ reset $end
     $var wire 16 -% starting [15:0] $end
    $upscope $end
   $upscope $end
  $upscope $end
 $upscope $end
$enddefinitions $end


#0
b0000000000001010 #
b0000000000001010 $
b0000000000001010 %
b0000000000001010 &
b0000000000001010 '
b0000000000001010 (
b0000000000001010 )
b0000000000001010 *
b0000000000001010 c
b0000000000001010 k
b0000000000001010 s
b0000000000001010 {
b0000000000001010 %!
b0000000000001010 -!
b0000000000001010 5!
b0000000000001010 =!
b0000000000001010 E!
b0000 M!
b00000000 U!
b0000000000001010 ]!
0e!
0m!
0u!
b000 }!
b0000000000000000 '"
b00 /"
07"
0?"
0G"
0O"
0W"
0_"
0g"
0o"
b00 w"
b01 !#
0)#
b00000000 1#
b00000001 9#
b0000000000000000 A#
b0000000000000000 I#
b0000000000000000 Q#
b00 Y#
b0000000000001010 a#
b0000000000001010 i#
b0000000000001010 q#
b0000000000001010 y#
b0000000000001010 #$
b0000000000001010 +$
b0000000000001010 3$
b0000000000001010 ;$
b1011000000010000 C$
1K$
1S$
1[$
0c$
b1011000000010000 k$
b0000000000000000 s$
b00000000 {$
0%%
b0000000000000000 -%
b0000000000001010 5%
#1
1e!
1u!
0K$
0S$
#2
b0000000000010100 E!
b0101 M!
b01 /"
b01 w"
1)#
b1011000000010000 A#
b0000000000001010 I#
1K$
#3
0K$
#4
b0000000000000000 E!
b0100 M!
0e!
1m!
0u!
b100 }!
b11 /"
b01 Y#
1K$
#5
0K$
#6
b0000000000010100 E!
b00100000 U!
0m!
1u!
b000 }!
b00 /"
1_"
b11 Y#
1K$
0[$
1c$
#7
0K$
1[$
#8
b0000000000000000 (
b0000000000000000 -!
b0000000000001010 E!
b0101 M!
b00000000 U!
b0000000000000000 ]!
1e!
0_"
b00 w"
0)#
b00000001 1#
b00000010 9#
b00 Y#
b0000000000000000 +$
b0101011001000001 C$
1K$
0c$
b0101011001000001 k$
#9
0K$
#10
b0010 M!
b0000000000001010 ]!
b01 /"
b01 w"
1)#
b0101011001000001 A#
b0000000000000000 I#
1K$
#11
0K$
#12
b0000000010111100 E!
b1000 M!
b0000000010110010 ]!
0e!
1m!
0u!
b0000000010110010 '"
b11 /"
b0000000000001010 I#
b01 Y#
1K$
#13
0K$
#14
b00000100 U!
0m!
1u!
b00 /"
1G"
b0000000010111100 Q#
b11 Y#
1K$
0[$
1c$
b0000000010111100 s$
#15
0K$
1[$
#16
b0000000010111100 %
b0000000010111100 s
b0000000011000110 E!
b0010 M!
b00000000 U!
b0000000010111100 ]!
1e!
0G"
b00 w"
0)#
b00000010 1#
b00000011 9#
b00 Y#
b0000000010111100 q#
b1111110010100101 C$
1K$
0c$
b1111110010100101 k$
#17
0K$
#18
b0111 M!
b0000000000001010 ]!
b01 /"
b01 w"
1)#
b1111110010100101 A#
b0000000010111100 I#
1K$
#19
0K$
#20
b1111111100100101 E!
b1000 M!
b0000000011100101 ]!
0e!
1m!
0u!
b001 }!
b0000000011100101 '"
b11 /"
b0000000000001010 I#
b01 Y#
1K$
#21
0K$
#22
b0000000011101111 E!
b10000000 U!
0m!
1u!
b000 }!
b00 /"
1o"
b1111111100100101 Q#
b11 Y#
1K$
0[$
1c$
b1111111100100101 s$
#23
0K$
1[$
#24
b1111111100100101 *
b1111111100100101 =!
b1111111100101111 E!
b0111 M!
b00000000 U!
b1111111100100101 ]!
1e!
0o"
b00 w"
0)#
b00000011 1#
b00000100 9#
b00 Y#
b1111111100100101 ;$
b1010110000000100 C$
1K$
0c$
b1010110000000100 k$
#25
0K$
#26
b1111111100100101 E!
b0101 M!
b0000000000000000 ]!
b01 /"
b01 w"
1)#
b1010110000000100 A#
b1111111100100101 I#
1K$
#27
0K$
#28
b1111111111110110 E!
b0011 M!
b0000000000001010 ]!
0e!
1m!
0u!
b001 }!
b11 /"
b0000000000000000 I#
b01 Y#
1K$
#29
0K$
#30
b0000000000001010 E!
b00100000 U!
0m!
1u!
b000 }!
b00 /"
1_"
b1111111111110110 Q#
b11 Y#
1K$
0[$
1c$
b1111111111110110 s$
#31
0K$
1[$
#32
b1111111111110110 (
b1111111111110110 -!
b1111111111110110 E!
b0101 M!
b00000000 U!
b1111111111110110 ]!
1e!
0_"
b00 w"
0)#
b00000100 1#
b00000101 9#
b00 Y#
b1111111111110110 +$
b0101000000000000 C$
1K$
0c$
b0101000000000000 k$
#33
0K$
#34
b0000000010110010 E!
b0010 M!
b0000000010111100 ]!
b01 /"
b01 w"
1)#
b0101000000000000 A#
b1111111111110110 I#
1K$
#35
0K$
#36
b0000000011000110 E!
b0100 M!
b0000000000001010 ]!
0e!
1m!
0u!
b11 /"
b0000000010111100 I#
b01 Y#
1K$
#37
0K$
#38
b00000100 U!
0m!
1u!
b00 /"
1G"
b0000000011000110 Q#
b11 Y#
1K$
0[$
1c$
b0000000011000110 s$
#39
0K$
1[$
#40
b0000000011000110 %
b0000000011000110 s
b0000000110000010 E!
b0010 M!
b00000000 U!
b0000000011000110 ]!
1e!
0G"
b00 w"
0)#
b00000101 1#
b00000110 9#
b00 Y#
b0000000011000110 q#
b0111010000001000 C$
1K$
0c$
b0111010000001000 k$
#41
0K$
#42
b0000000011010000 E!
b0011 M!
b0000000000001010 ]!
b01 /"
b01 w"
1)#
b0111010000001000 A#
b0000000011000110 I#
1K$
#43
0K$
#44
b0000000000000010 E!
b0101 M!
b1111111111110110 ]!
0e!
1m!
0u!
b010 }!
b11 /"
b0000000000001010 I#
b01 Y#
1K$
#45
0K$
#46
b0000000000000000 E!
b00001000 U!
0m!
1u!
b000 }!
b00 /"
1O"
b0000000000000010 Q#
b11 Y#
1K$
0[$
1c$
b0000000000000010 s$
#47
0K$
1[$
#48
b0000000000000010 &
b0000000000000010 {
b0000000000001100 E!
b0011 M!
b00000000 U!
b0000000000000010 ]!
1e!
0O"
b00 w"
0)#
b00000110 1#
b00000111 9#
b00 Y#
b0000000000000010 y#
b1011110000010000 C$
1K$
0c$
b1011110000010000 k$
#49
0K$
#50
b1111111111111000 E!
b0101 M!
b1111111111110110 ]!
b01 /"
b01 w"
1)#
b1011110000010000 A#
b0000000000000010 I#
1K$
#51
0K$
#52
b0000000011010011 E!
b0111 M!
b1111111100100101 ]!
0e!
1m!
0u!
b100 }!
b11 /"
b1111111111110110 I#
b01 Y#
1K$
#53
0K$
#54
b1111111100011011 E!
b00100000 U!
0m!
1u!
b000 }!
b00 /"
1_"
b0000000011010011 Q#
b11 Y#
1K$
0[$
1c$
b0000000011010011 s$
#55
0K$
1[$
#56
b0000000011010011 (
b0000000011010011 -!
b0000000011001001 E!
b0101 M!
b00000000 U!
b0000000011010011 ]!
1e!
0_"
b00 w"
0)#
b00000111 1#
b00001000 9#
b00 Y#
b0000000011010011 +$
b1011101101000001 C$
1K$
0c$
b1011101101000001 k$
#57
0K$
#58
b0000000110100110 E!
b01 /"
b01 w"
1)#
b1011101101000001 A#
b0000000011010011 I#
1K$
#59
0K$
#60
b0000000110101101 E!
b1000 M!
b0000000011011010 ]!
0e!
1m!
0u!
b0000000011011010 '"
b11 /"
b01 Y#
1K$
#61
0K$
#62
b00100000 U!
0m!
1u!
b00 /"
1_"
b0000000110101101 Q#
b11 Y#
1K$
0[$
1c$
b0000000110101101 s$
#63
0K$
1[$
#64
b0000000110101101 (
b0000000110101101 -!
b0000001010000000 E!
b0101 M!
b00000000 U!
b0000000110101101 ]!
1e!
0_"
b00 w"
0)#
b00001000 1#
b00001001 9#
b00 Y#
b0000000110101101 +$
b0100001010110101 C$
1K$
0c$
b0100001010110101 k$
#65
0K$
#66
b0000001001110011 E!
b0010 M!
b0000000011000110 ]!
b01 /"
b01 w"
1)#
b0100001010110101 A#
b0000000110101101 I#
1K$
#67
0K$
#68
b0000000000000000 E!
b1000 M!
b0000000000010101 ]!
0e!
1m!
0u!
b101 }!
b0000000000010101 '"
b11 /"
b0000000011000110 I#
b01 Y#
1K$
#69
0K$
#70
b0000000011011011 E!
b00000100 U!
0m!
1u!
b000 }!
b00 /"
1G"
b0000000000000000 Q#
b11 Y#
1K$
0[$
1c$
b0000000000000000 s$
#71
0K$
1[$
#72
b0000000000000000 %
b0000000000000000 s
b0000000011000110 E!
b0010 M!
b00000000 U!
b0000000000000000 ]!
1e!
0G"
b00 w"
0)#
b00001001 1#
b00001010 9#
b00 Y#
b0000000000000000 q#
b1100001110110101 C$
1K$
0c$
b1100001110110101 k$
#73
0K$
#74
b0000000000001010 E!
b0110 M!
b0000000000001010 ]!
b01 /"
b01 w"
1)#
b1100001110110101 A#
b0000000000000000 I#
1K$
#75
0K$
#76
b0000000000000000 E!
b1000 M!
b0000000000011101 ]!
0e!
1m!
0u!
b101 }!
b0000000000011101 '"
b11 /"
b0000000000001010 I#
b01 Y#
1K$
#77
0K$
#78
b0000000000100111 E!
b01000000 U!
0m!
1u!
b000 }!
b00 /"
1g"
b11 Y#
1K$
0[$
1c$
#79
0K$
1[$
#80
b0000000000000000 )
b0000000000000000 5!
b0000000000001010 E!
b0110 M!
b00000000 U!
b0000000000000000 ]!
1e!
0g"
b00 w"
0)#
b00001010 1#
b00001011 9#
b00 Y#
b0000000000000000 3$
b1001010111010101 C$
1K$
0c$
b1001010111010101 k$
#81
0K$
#82
b0100 M!
b0000000000001010 ]!
b01 /"
b01 w"
1)#
b1001010111010101 A#
b0000000000000000 I#
1K$
#83
0K$
#84
b1000000000000000 E!
b1000 M!
b0000000010101110 ]!
0e!
1m!
0u!
b101 }!
b0000000010101110 '"
b11 /"
b0000000000001010 I#
b01 Y#
1K$
#85
0K$
#86
b0000000010111000 E!
b00010000 U!
0m!
1u!
b000 }!
b00 /"
1W"
b1000000000000000 Q#
b11 Y#
1K$
0[$
1c$
b1000000000000000 s$
#87
0K$
1[$
#88
b1000000000000000 '
b1000000000000000 %!
b1000000000001010 E!
b0100 M!
b00000000 U!
b1000000000000000 ]!
1e!
0W"
b00 w"
0)#
b00001011 1#
b00001100 9#
b00 Y#
b1000000000000000 #$
b0010100000001000 C$
1K$
0c$
b0010100000001000 k$
#89
0K$
#90
b0001 M!
b0000000000001010 ]!
b01 /"
b01 w"
1)#
b0010100000001000 A#
b1000000000000000 I#
1K$
#91
0K$
#92
b0000000000000000 E!
b0010 M!
b0000000000000000 ]!
0e!
1m!
0u!
b010 }!
b11 /"
b0000000000001010 I#
b01 Y#
1K$
#93
0K$
#94
b0000000000001010 E!
b00000010 U!
0m!
1u!
b000 }!
b00 /"
1?"
b0000000000000000 Q#
b11 Y#
1K$
0[$
1c$
b0000000000000000 s$
#95
0K$
1[$
#96
b0000000000000000 $
b0000000000000000 k
b0001 M!
b00000000 U!
1e!
0?"
b00 w"
0)#
b00001100 1#
b00001101 9#
b00 Y#
b0000000000000000 i#
b0111000010100001 C$
1K$
0c$
b0111000010100001 k$
#97
0K$
#98
b0000000000000010 E!
b0011 M!
b0000000000000010 ]!
b01 /"
b01 w"
1)#
b0111000010100001 A#
b0000000000000000 I#
1K$
#99
0K$
#100
b0000000010000111 E!
b1000 M!
b0000000010000101 ]!
0e!
1m!
0u!
b0000000010000101 '"
b11 /"
b0000000000000010 I#
b01 Y#
1K$
#101
0K$
#102
b00001000 U!
0m!
1u!
b00 /"
1O"
b0000000010000111 Q#
b11 Y#
1K$
0[$
1c$
b0000000010000111 s$
#103
0K$
1[$
#104
b0000000010000111 &
b0000000010000111 {
b0000000010001001 E!
b0011 M!
b00000000 U!
b0000000010000111 ]!
1e!
0O"
b00 w"
0)#
b00001101 1#
b00001110 9#
b00 Y#
b0000000010000111 y#
b0110000000010000 C$
1K$
0c$
b0110000000010000 k$
#105
0K$
#106
b0000000100001110 E!
b01 /"
b01 w"
1)#
b0110000000010000 A#
b0000000010000111 I#
1K$
#107
0K$
#108
b0000000010001101 E!
b0000 M!
b0000000000001010 ]!
0e!
1m!
0u!
b100 }!
b11 /"
b01 Y#
1K$
#109
0K$
#110
b0000000010010001 E!
b00001000 U!
0m!
1u!
b000 }!
b00 /"
1O"
b0000000010001101 Q#
b11 Y#
1K$
0[$
1c$
b0000000010001101 s$
#111
0K$
1[$
#112
b0000000010001101 &
b0000000010001101 {
b0000000100010100 E!
b0011 M!
b00000000 U!
b0000000010001101 ]!
1e!
0O"
b00 w"
0)#
b00001110 1#
b00001111 9#
b00 Y#
b0000000010001101 y#
b0010000000000100 C$
1K$
0c$
b0010000000000100 k$
#113
0K$
#114
b0000000010001101 E!
b0001 M!
b0000000000000000 ]!
b01 /"
b01 w"
1)#
b0010000000000100 A#
b0000000010001101 I#
1K$
#115
0K$
#116
b1111111111110110 E!
b0000 M!
b0000000000001010 ]!
0e!
1m!
0u!
b001 }!
b11 /"
b0000000000000000 I#
b01 Y#
1K$
#117
0K$
#118
b0000000000001010 E!
b00000010 U!
0m!
1u!
b000 }!
b00 /"
1?"
b1111111111110110 Q#
b11 Y#
1K$
0[$
1c$
b1111111111110110 s$
#119
0K$
1[$
#120
b1111111111110110 $
b1111111111110110 k
b1111111111110110 E!
b0001 M!
b00000000 U!
b1111111111110110 ]!
1e!
0?"
b00 w"
0)#
b00001111 1#
b00010000 9#
b00 Y#
b1111111111110110 i#
b0101010000001100 C$
1K$
0c$
b0101010000001100 k$
#121
0K$
#122
b0010 M!
b0000000000000000 ]!
b01 /"
b01 w"
1)#
b0101010000001100 A#
b1111111111110110 I#
1K$
#123
0K$
#124
b0000000110101101 E!
b0101 M!
b0000000110101101 ]!
0e!
1m!
0u!
b011 }!
b11 /"
b0000000000000000 I#
b01 Y#
1K$
#125
0K$
#126
b00000100 U!
0m!
1u!
b000 }!
b00 /"
1G"
b0000000110101101 Q#
b11 Y#
1K$
0[$
1c$
b0000000110101101 s$
#127
0K$
1[$
#128
b0000000110101101 %
b0000000110101101 s
b0010 M!
b00000000 U!
1e!
0G"
b00 w"
0)#
b00010000 1#
b00010001 9#
b00 Y#
b0000000110101101 q#
b0101000111011001 C$
1K$
0c$
b0101000111011001 k$
#129
0K$
#130
b0000001101011010 E!
b01 /"
b01 w"
1)#
b0101000111011001 A#
b0000000110101101 I#
1K$
#131
0K$
#132
b0000000000000000 E!
b1000 M!
b0000000010001110 ]!
0e!
1m!
0u!
b110 }!
b0000000010001110 '"
b11 /"
b01 Y#
1K$
#133
0K$
#134
b0000001000111011 E!
b00000100 U!
0m!
1u!
b000 }!
b00 /"
1G"
b0000000000000000 Q#
b11 Y#
1K$
0[$
1c$
b0000000000000000 s$
#135
0K$
1[$
#136
b0000000000000000 %
b0000000000000000 s
b0000000110101101 E!
b0010 M!
b00000000 U!
b0000000000000000 ]!
1e!
0G"
b00 w"
0)#
b00010001 1#
b00010010 9#
b00 Y#
b0000000000000000 q#
b1011110000010000 C$
1K$
0c$
b1011110000010000 k$
#137
0K$
#138
b0101 M!
b0000000110101101 ]!
b01 /"
b01 w"
1)#
b1011110000010000 A#
b0000000000000000 I#
1K$
#139
0K$
#140
b1111111010001000 E!
b0111 M!
b1111111100100101 ]!
0e!
1m!
0u!
b100 }!
b11 /"
b0000000110101101 I#
b01 Y#
1K$
#141
0K$
#142
b0000000011010010 E!
b00100000 U!
0m!
1u!
b000 }!
b00 /"
1_"
b1111111010001000 Q#
b11 Y#
1K$
0[$
1c$
b1111111010001000 s$
#143
0K$
1[$
#144
b1111111010001000 (
b1111111010001000 -!
b0000000000110101 E!
b0101 M!
b00000000 U!
b1111111010001000 ]!
1e!
0_"
b00 w"
0)#
b00010010 1#
b00010011 9#
b00 Y#
b1111111010001000 +$
b0001100000010100 C$
1K$
0c$
b0001100000010100 k$
#145
0K$
#146
b1111111010010010 E!
b0000 M!
b0000000000001010 ]!
b01 /"
b01 w"
1)#
b0001100000010100 A#
b1111111010001000 I#
1K$
#147
0K$
#148
b0000000000001010 E!
b0110 M!
b0000000000000000 ]!
0e!
1m!
0u!
b101 }!
b11 /"
b0000000000001010 I#
b01 Y#
1K$
#149
0K$
#150
b00000001 U!
0m!
1u!
b000 }!
b00 /"
17"
b0000000000001010 Q#
b11 Y#
1K$
0[$
1c$
b0000000000001010 s$
#151
0K$
1[$
#152
b0000000000010100 E!
b0000 M!
b00000000 U!
b0000000000001010 ]!
1e!
07"
b00 w"
0)#
b00010011 1#
b00010100 9#
b00 Y#
b0111010110101001 C$
1K$
0c$
b0111010110101001 k$
#153
0K$
#154
b0000000010010111 E!
b0011 M!
b0000000010001101 ]!
b01 /"
b01 w"
1)#
b0111010110101001 A#
1K$
#155
0K$
#156
b0000000010001101 E!
b1000 M!
b0000000010101101 ]!
0e!
1m!
0u!
b010 }!
b0000000010101101 '"
b11 /"
b0000000010001101 I#
b01 Y#
1K$
#157
0K$
#158
b0000000100111010 E!
b00001000 U!
0m!
1u!
b000 }!
b00 /"
1O"
b0000000010001101 Q#
b11 Y#
1K$
0[$
1c$
b0000000010001101 s$
#159
0K$
1[$
#160
b0000000100011010 E!
b0011 M!
b00000000 U!
b0000000010001101 ]!
1e!
0O"
b00 w"
0)#
b00010100 1#
b00010101 9#
b00 Y#
b0010010100110001 C$
1K$
0c$
b0010010100110001 k$
#161
0K$
#162
b0000000010000011 E!
b0001 M!
b1111111111110110 ]!
b01 /"
b01 w"
1)#
b0010010100110001 A#
1K$
#163
0K$
#164
b1111111111011111 E!
b1000 M!
b0000000000101001 ]!
0e!
1m!
0u!
b100 }!
b0000000000101001 '"
b11 /"
b1111111111110110 I#
b01 Y#
1K$
#165
0K$
#166
b0000000000011111 E!
b00000010 U!
0m!
1u!
b000 }!
b00 /"
1?"
b1111111111011111 Q#
b11 Y#
1K$
0[$
1c$
b1111111111011111 s$
#167
0K$
1[$
#168
b1111111111011111 $
b1111111111011111 k
b1111111111010101 E!
b0001 M!
b00000000 U!
b1111111111011111 ]!
1e!
0?"
b00 w"
0)#
b00010101 1#
b00010110 9#
b00 Y#
b1111111111011111 i#
b0000100011111101 C$
1K$
0c$
b0000100011111101 k$
#169
0K$
#170
b1111111111101001 E!
b0000 M!
b0000000000001010 ]!
b01 /"
b01 w"
1)#
b0000100011111101 A#
b1111111111011111 I#
1K$
#171
0K$
#172
b0000000000000010 E!
b1000 M!
b0000000001000111 ]!
0e!
1m!
0u!
b111 }!
b0000000001000111 '"
b11 /"
b0000000000001010 I#
b01 Y#
1K$
#173
0K$
#174
b0000000001010001 E!
b00000001 U!
0m!
1u!
b000 }!
b00 /"
17"
b0000000000000010 Q#
b11 Y#
1K$
0[$
1c$
b0000000000000010 s$
#175
0K$
1[$
#176
b0000000000000010 #
b0000000000000010 c
b0000000000001100 E!
b0000 M!
b00000000 U!
b0000000000000010 ]!
1e!
07"
b00 w"
0)#
b00010110 1#
b00010111 9#
b00 Y#
b0000000000000010 a#
b1101111101110101 C$
1K$
0c$
b1101111101110101 k$
#177
0K$
#178
b0000000000000010 E!
b0110 M!
b0000000000000000 ]!
b01 /"
b01 w"
1)#
b1101111101110101 A#
b0000000000000010 I#
1K$
#179
0K$
#180
b0000000000000000 E!
b1000 M!
b0000000011111011 ]!
0e!
1m!
0u!
b101 }!
b0000000011111011 '"
b11 /"
b0000000000000000 I#
b01 Y#
1K$
#181
0K$
#182
b0000000011111011 E!
b01000000 U!
0m!
1u!
b000 }!
b00 /"
1g"
b0000000000000000 Q#
b11 Y#
1K$
0[$
1c$
b0000000000000000 s$
#183
0K$
1[$
#184
b0000000000000000 E!
b0110 M!
b00000000 U!
b0000000000000000 ]!
1e!
0g"
b00 w"
0)#
b00010111 1#
b00011000 9#
b00 Y#
b1010100000011100 C$
1K$
0c$
b1010100000011100 k$
#185
0K$
#186
b1111111010001000 E!
b0101 M!
b1111111010001000 ]!
b01 /"
b01 w"
1)#
b1010100000011100 A#
1K$
#187
0K$
#188
b0000000000000001 E!
b0010 M!
b0000000000000000 ]!
0e!
1m!
0u!
b111 }!
b11 /"
b1111111010001000 I#
b01 Y#
1K$
#189
0K$
#190
b1111111010001000 E!
b00100000 U!
0m!
1u!
b000 }!
b00 /"
1_"
b0000000000000001 Q#
b11 Y#
1K$
0[$
1c$
b0000000000000001 s$
#191
0K$
1[$
#192
b0000000000000001 (
b0000000000000001 -!
b1111111010001001 E!
b0101 M!
b00000000 U!
b0000000000000001 ]!
1e!
0_"
b00 w"
0)#
b00011000 1#
b00011001 9#
b00 Y#
b0000000000000001 +$
b0010000000000100 C$
1K$
0c$
b0010000000000100 k$
#193
0K$
#194
b1111111111100000 E!
b0001 M!
b1111111111011111 ]!
b01 /"
b01 w"
1)#
b0010000000000100 A#
b0000000000000001 I#
1K$
#195
0K$
#196
b1111111111011101 E!
b0000 M!
b0000000000000010 ]!
0e!
1m!
0u!
b001 }!
b11 /"
b1111111111011111 I#
b01 Y#
1K$
#197
0K$
#198
b1111111111100001 E!
b00000010 U!
0m!
1u!
b000 }!
b00 /"
1?"
b1111111111011101 Q#
b11 Y#
1K$
0[$
1c$
b1111111111011101 s$
#199
0K$
1[$
#200
b1111111111011101 $
b1111111111011101 k
b1111111110111100 E!
b0001 M!
b00000000 U!
b1111111111011101 ]!
1e!
0?"
b00 w"
0)#
b00011001 1#
b00011010 9#
b00 Y#
b1111111111011101 i#
b0101100000001100 C$
1K$
0c$
b0101100000001100 k$
#201
0K$
#202
b1111111111011101 E!
b0010 M!
b0000000000000000 ]!
b01 /"
b01 w"
1)#
b0101100000001100 A#
b1111111111011101 I#
1K$
#203
0K$
#204
b0000000000000000 E!
b0110 M!
0e!
1m!
0u!
b011 }!
b11 /"
b0000000000000000 I#
b01 Y#
1K$
#205
0K$
#206
b00000100 U!
0m!
1u!
b000 }!
b00 /"
1G"
b0000000000000000 Q#
b11 Y#
1K$
0[$
1c$
b0000000000000000 s$
#207
0K$
1[$
#208
b0010 M!
b00000000 U!
1e!
0G"
b00 w"
0)#
b00011010 1#
b00011011 9#
b00 Y#
b0000100111001001 C$
1K$
0c$
b0000100111001001 k$
#209
0K$
#210
b0000000000000010 E!
b0000 M!
b0000000000000010 ]!
b01 /"
b01 w"
1)#
b0000100111001001 A#
1K$
#211
0K$
#212
b1000 M!
b0000000001001110 ]!
0e!
1m!
0u!
b010 }!
b0000000001001110 '"
b11 /"
b0000000000000010 I#
b01 Y#
1K$
#213
0K$
#214
b0000000001010000 E!
b00000001 U!
0m!
1u!
b000 }!
b00 /"
17"
b0000000000000010 Q#
b11 Y#
1K$
0[$
1c$
b0000000000000010 s$
#215
0K$
1[$
#216
b0000000000000100 E!
b0000 M!
b00000000 U!
b0000000000000010 ]!
1e!
07"
b00 w"
0)#
b00011011 1#
b00011100 9#
b00 Y#
b1000000000010000 C$
1K$
0c$
b1000000000010000 k$
#217
0K$
#218
b1000000000000010 E!
b0100 M!
b1000000000000000 ]!
b01 /"
b01 w"
1)#
b1000000000010000 A#
1K$
#219
0K$
#220
b0000 M!
b0000000000000010 ]!
0e!
1m!
0u!
b100 }!
b11 /"
b1000000000000000 I#
b01 Y#
1K$
#221
0K$
#222
b00010000 U!
0m!
1u!
b000 }!
b00 /"
1W"
b1000000000000010 Q#
b11 Y#
1K$
0[$
1c$
b1000000000000010 s$
