lvl4/lab7/waveform.vcd
$version Generated by VerilatedVcd $end
$date Mon Jul  8 13:42:18 2024
 $end
$timescale   1ns $end

 $scope module TOP $end
  $var wire  1 C$ clk $end
  $var wire 16 k$ d_out [15:0] $end
  $var wire  1 [$ done $end
  $var wire 16 c$ instr [15:0] $end
  $var wire  1 K$ reset $end
  $var wire  1 S$ run $end
  $scope module bigger $end
   $var wire  8 )# addr [7:0] $end
   $var wire  1 C$ clk $end
   $var wire  2 o" cur_state [1:0] $end
   $var wire  8 s$ d_in [7:0] $end
   $var wire 16 k$ d_out [15:0] $end
   $var wire  1 [$ done $end
   $var wire 16 c$ instr [15:0] $end
   $var wire  1 {$ instr_valid $end
   $var wire 16 ;$ mem_out [15:0] $end
   $var wire  2 w" next_state [1:0] $end
   $var wire  1 K$ reset $end
   $var wire  1 S$ run $end
   $var wire  1 !# run_bitty $end
   $scope module instance1 $end
    $var wire  1 C$ clk $end
    $var wire  8 1# d_in [7:0] $end
    $var wire  8 )# d_out [7:0] $end
    $var wire  1 [$ en_pc $end
    $var wire  1 K$ reset $end
   $upscope $end
   $scope module instance2 $end
    $var wire  8 )# addr [7:0] $end
    $var wire  1 C$ clk $end
    $var wire 16 ;$ out [15:0] $end
   $upscope $end
   $scope module instance3 $end
    $var wire 16 E! alu_out [15:0] $end
    $var wire  3 }! alu_sel [2:0] $end
    $var wire  1 C$ clk $end
    $var wire 16 ;$ d_instr [15:0] $end
    $var wire 16 k$ d_out [15:0] $end
    $var wire  1 [$ done $end
    $var wire  8 U! en [7:0] $end
    $var wire  1 m! en_c $end
    $var wire  1 u! en_inst $end
    $var wire  1 e! en_s $end
    $var wire 16 9# instruction [15:0] $end
    $var wire  3 M! mux_sel [2:0] $end
    $var wire 16 # out(0) [15:0] $end
    $var wire 16 $ out(1) [15:0] $end
    $var wire 16 % out(2) [15:0] $end
    $var wire 16 & out(3) [15:0] $end
    $var wire 16 ' out(4) [15:0] $end
    $var wire 16 ( out(5) [15:0] $end
    $var wire 16 ) out(6) [15:0] $end
    $var wire 16 * out(7) [15:0] $end
    $var wire 16 ]! out_mux [15:0] $end
    $var wire 16 I# regc [15:0] $end
    $var wire 16 A# regs [15:0] $end
    $var wire  1 K$ reset $end
    $var wire  1 !# run $end
    $scope module alu_inst $end
     $var wire 16 E! alu_out [15:0] $end
     $var wire 16 A# in_a [15:0] $end
     $var wire 16 ]! in_b [15:0] $end
     $var wire 16 E! res [15:0] $end
     $var wire  3 }! select [2:0] $end
    $upscope $end
    $scope module cpu_inst $end
     $var wire  1 C$ clk $end
     $var wire  2 Q# cur_state [1:0] $end
     $var wire 16 9# d_inst [15:0] $end
     $var wire  1 [$ done $end
     $var wire  8 U! en [7:0] $end
     $var wire  1 m! en_c $end
     $var wire  1 u! en_inst $end
     $var wire  1 e! en_s $end
     $var wire  3 M! mux_sel [2:0] $end
     $var wire  2 '" next_state [1:0] $end
     $var wire  1 K$ reset $end
     $var wire  1 !# run $end
     $var wire  3 }! sel [2:0] $end
    $upscope $end
    $scope module genblk1(0) $end
     $scope module reg_out $end
      $var wire  1 C$ clk $end
      $var wire 16 I# d_in [15:0] $end
      $var wire  1 /" en $end
      $var wire 16 Y# mux_out [15:0] $end
      $var wire  1 K$ reset $end
      $var wire 16 -% starting [15:0] $end
     $upscope $end
    $upscope $end
    $scope module genblk1(1) $end
     $scope module reg_out $end
      $var wire  1 C$ clk $end
      $var wire 16 I# d_in [15:0] $end
      $var wire  1 7" en $end
      $var wire 16 a# mux_out [15:0] $end
      $var wire  1 K$ reset $end
      $var wire 16 -% starting [15:0] $end
     $upscope $end
    $upscope $end
    $scope module genblk1(2) $end
     $scope module reg_out $end
      $var wire  1 C$ clk $end
      $var wire 16 I# d_in [15:0] $end
      $var wire  1 ?" en $end
      $var wire 16 i# mux_out [15:0] $end
      $var wire  1 K$ reset $end
      $var wire 16 -% starting [15:0] $end
     $upscope $end
    $upscope $end
    $scope module genblk1(3) $end
     $scope module reg_out $end
      $var wire  1 C$ clk $end
      $var wire 16 I# d_in [15:0] $end
      $var wire  1 G" en $end
      $var wire 16 q# mux_out [15:0] $end
      $var wire  1 K$ reset $end
      $var wire 16 -% starting [15:0] $end
     $upscope $end
    $upscope $end
    $scope module genblk1(4) $end
     $scope module reg_out $end
      $var wire  1 C$ clk $end
      $var wire 16 I# d_in [15:0] $end
      $var wire  1 O" en $end
      $var wire 16 y# mux_out [15:0] $end
      $var wire  1 K$ reset $end
      $var wire 16 -% starting [15:0] $end
     $upscope $end
    $upscope $end
    $scope module genblk1(5) $end
     $scope module reg_out $end
      $var wire  1 C$ clk $end
      $var wire 16 I# d_in [15:0] $end
      $var wire  1 W" en $end
      $var wire 16 #$ mux_out [15:0] $end
      $var wire  1 K$ reset $end
      $var wire 16 -% starting [15:0] $end
     $upscope $end
    $upscope $end
    $scope module genblk1(6) $end
     $scope module reg_out $end
      $var wire  1 C$ clk $end
      $var wire 16 I# d_in [15:0] $end
      $var wire  1 _" en $end
      $var wire 16 +$ mux_out [15:0] $end
      $var wire  1 K$ reset $end
      $var wire 16 -% starting [15:0] $end
     $upscope $end
    $upscope $end
    $scope module genblk1(7) $end
     $scope module reg_out $end
      $var wire  1 C$ clk $end
      $var wire 16 I# d_in [15:0] $end
      $var wire  1 g" en $end
      $var wire 16 3$ mux_out [15:0] $end
      $var wire  1 K$ reset $end
      $var wire 16 -% starting [15:0] $end
     $upscope $end
    $upscope $end
    $scope module mux_inst $end
     $var wire 16 ]! mux_out [15:0] $end
     $var wire  3 M! mux_sel [2:0] $end
     $var wire 16 c reg0 [15:0] $end
     $var wire 16 k reg1 [15:0] $end
     $var wire 16 s reg2 [15:0] $end
     $var wire 16 { reg3 [15:0] $end
     $var wire 16 %! reg4 [15:0] $end
     $var wire 16 -! reg5 [15:0] $end
     $var wire 16 5! reg6 [15:0] $end
     $var wire 16 =! reg7 [15:0] $end
    $upscope $end
    $scope module reg_c $end
     $var wire  1 C$ clk $end
     $var wire 16 E! d_in [15:0] $end
     $var wire  1 m! en $end
     $var wire 16 I# mux_out [15:0] $end
     $var wire  1 K$ reset $end
     $var wire 16 %% starting [15:0] $end
    $upscope $end
    $scope module reg_inst $end
     $var wire  1 C$ clk $end
     $var wire 16 ;$ d_in [15:0] $end
     $var wire  1 u! en $end
     $var wire 16 9# mux_out [15:0] $end
     $var wire  1 K$ reset $end
     $var wire 16 %% starting [15:0] $end
    $upscope $end
    $scope module reg_s $end
     $var wire  1 C$ clk $end
     $var wire 16 ]! d_in [15:0] $end
     $var wire  1 e! en $end
     $var wire 16 A# mux_out [15:0] $end
     $var wire  1 K$ reset $end
     $var wire 16 %% starting [15:0] $end
    $upscope $end
   $upscope $end
  $upscope $end
 $upscope $end
$enddefinitions $end


#0
b0000000000001010 #
b0000000000001010 $
b0000000000001010 %
b0000000000001010 &
b0000000000001010 '
b0000000000001010 (
b0000000000001010 )
b0000000000001010 *
b0000000000001010 c
b0000000000001010 k
b0000000000001010 s
b0000000000001010 {
b0000000000001010 %!
b0000000000001010 -!
b0000000000001010 5!
b0000000000001010 =!
b0000000000001010 E!
b000 M!
b00000000 U!
b0000000000001010 ]!
0e!
0m!
0u!
b000 }!
b00 '"
0/"
07"
0?"
0G"
0O"
0W"
0_"
0g"
b00 o"
b01 w"
0!#
b00000000 )#
b00000001 1#
b0000000000000000 9#
b0000000000000000 A#
b0000000000000000 I#
b00 Q#
b0000000000001010 Y#
b0000000000001010 a#
b0000000000001010 i#
b0000000000001010 q#
b0000000000001010 y#
b0000000000001010 #$
b0000000000001010 +$
b0000000000001010 3$
b1011000011110010 ;$
1C$
1K$
1S$
0[$
b1011000011110010 c$
b0000000000000000 k$
b00000000 s$
0{$
b0000000000000000 %%
b0000000000001010 -%
#1
1e!
1u!
0C$
0K$
#2
b0000000000010100 E!
b101 M!
b01 '"
b01 o"
1!#
b1011000011110010 9#
b0000000000001010 A#
1C$
#3
0C$
#4
b0000000000000000 E!
b100 M!
0e!
1m!
0u!
b100 }!
b11 '"
b01 Q#
1C$
#5
0C$
#6
b0000000000010100 E!
b00100000 U!
0m!
1u!
b000 }!
b00 '"
1W"
b11 Q#
1C$
0S$
1[$
#7
0C$
1S$
#8
b0000000000000000 (
b0000000000000000 -!
b0000000000001010 E!
b101 M!
b00000000 U!
b0000000000000000 ]!
1e!
0W"
b00 o"
0!#
b00000001 )#
b00000010 1#
b00 Q#
b0000000000000000 #$
b0101011001000001 ;$
1C$
0[$
b0101011001000001 c$
#9
0C$
#10
b010 M!
b0000000000001010 ]!
b01 '"
b01 o"
1!#
b0101011001000001 9#
b0000000000000000 A#
1C$
#11
0C$
#12
b101 M!
b0000000000000000 ]!
0e!
1m!
0u!
b11 '"
b0000000000001010 A#
b01 Q#
1C$
#13
0C$
#14
b00000100 U!
0m!
1u!
b00 '"
1?"
b0000000000001010 I#
b11 Q#
1C$
0S$
1[$
b0000000000001010 k$
#15
0C$
1S$
#16
b0000000000010100 E!
b010 M!
b00000000 U!
b0000000000001010 ]!
1e!
0?"
b00 o"
0!#
b00000010 )#
b00000011 1#
b00 Q#
b1111110010100101 ;$
1C$
0[$
b1111110010100101 c$
#17
0C$
#18
b111 M!
b01 '"
b01 o"
1!#
b1111110010100101 9#
1C$
#19
0C$
#20
b0000000000000000 E!
0e!
1m!
0u!
b001 }!
b11 '"
b01 Q#
1C$
#21
0C$
#22
b0000000000010100 E!
b10000000 U!
0m!
1u!
b000 }!
b00 '"
1g"
b0000000000000000 I#
b11 Q#
1C$
0S$
1[$
b0000000000000000 k$
#23
0C$
1S$
#24
b0000000000000000 *
b0000000000000000 =!
b0000000000001010 E!
b00000000 U!
b0000000000000000 ]!
1e!
0g"
b00 o"
0!#
b00000011 )#
b00000100 1#
b00 Q#
b0000000000000000 3$
b1010111010100110 ;$
1C$
0[$
b1010111010100110 c$
#25
0C$
#26
b0000000000000000 E!
b101 M!
b01 '"
b01 o"
1!#
b1010111010100110 9#
b0000000000000000 A#
1C$
#27
0C$
#28
b1111111111110110 E!
b011 M!
b0000000000001010 ]!
0e!
1m!
0u!
b001 }!
b11 '"
b01 Q#
1C$
#29
0C$
#30
b0000000000001010 E!
b00100000 U!
0m!
1u!
b000 }!
b00 '"
1W"
b1111111111110110 I#
b11 Q#
1C$
0S$
1[$
b1111111111110110 k$
#31
0C$
1S$
#32
b1111111111110110 (
b1111111111110110 -!
b1111111111110110 E!
b101 M!
b00000000 U!
b1111111111110110 ]!
1e!
0W"
b00 o"
0!#
b00000100 )#
b00000101 1#
b00 Q#
b1111111111110110 #$
b0101000100000010 ;$
1C$
0[$
b0101000100000010 c$
#33
0C$
#34
b0000000000000000 E!
b010 M!
b0000000000001010 ]!
b01 '"
b01 o"
1!#
b0101000100000010 9#
b1111111111110110 A#
1C$
#35
0C$
#36
b0000000000010100 E!
b100 M!
0e!
1m!
0u!
b11 '"
b0000000000001010 A#
b01 Q#
1C$
#37
0C$
#38
b00000100 U!
0m!
1u!
b00 '"
1?"
b0000000000010100 I#
b11 Q#
1C$
0S$
1[$
b0000000000010100 k$
#39
0C$
1S$
#40
b0000000000010100 %
b0000000000010100 s
b0000000000011110 E!
b010 M!
b00000000 U!
b0000000000010100 ]!
1e!
0?"
b00 o"
0!#
b00000101 )#
b00000110 1#
b00 Q#
b0000000000010100 i#
b0111011001001000 ;$
1C$
0[$
b0111011001001000 c$
#41
0C$
#42
b011 M!
b0000000000001010 ]!
b01 '"
b01 o"
1!#
b0111011001001000 9#
b0000000000010100 A#
1C$
#43
0C$
#44
b0000000000000010 E!
b101 M!
b1111111111110110 ]!
0e!
1m!
0u!
b010 }!
b11 '"
b0000000000001010 A#
b01 Q#
1C$
#45
0C$
#46
b0000000000000000 E!
b00001000 U!
0m!
1u!
b000 }!
b00 '"
1G"
b0000000000000010 I#
b11 Q#
1C$
0S$
1[$
b0000000000000010 k$
#47
0C$
1S$
#48
b0000000000000010 &
b0000000000000010 {
b0000000000001100 E!
b011 M!
b00000000 U!
b0000000000000010 ]!
1e!
0G"
b00 o"
0!#
b00000110 )#
b00000111 1#
b00 Q#
b0000000000000010 q#
b1011111100110010 ;$
1C$
0[$
b1011111100110010 c$
#49
0C$
#50
b1111111111111000 E!
b101 M!
b1111111111110110 ]!
b01 '"
b01 o"
1!#
b1011111100110010 9#
b0000000000000010 A#
1C$
#51
0C$
#52
b1111111111110110 E!
b111 M!
b0000000000000000 ]!
0e!
1m!
0u!
b100 }!
b11 '"
b1111111111110110 A#
b01 Q#
1C$
#53
0C$
#54
b00100000 U!
0m!
1u!
b000 }!
b00 '"
1W"
b1111111111110110 I#
b11 Q#
1C$
0S$
1[$
b1111111111110110 k$
#55
0C$
1S$
#56
b1111111111101100 E!
b101 M!
b00000000 U!
b1111111111110110 ]!
1e!
0W"
b00 o"
0!#
b00000111 )#
b00001000 1#
b00 Q#
b1011101101000001 ;$
1C$
0[$
b1011101101000001 c$
#57
0C$
#58
b01 '"
b01 o"
1!#
b1011101101000001 9#
1C$
#59
0C$
#60
b0000000000000000 E!
b110 M!
b0000000000001010 ]!
0e!
1m!
0u!
b11 '"
b01 Q#
1C$
#61
0C$
#62
b00100000 U!
0m!
1u!
b00 '"
1W"
b0000000000000000 I#
b11 Q#
1C$
0S$
1[$
b0000000000000000 k$
#63
0C$
1S$
#64
b0000000000000000 (
b0000000000000000 -!
b1111111111110110 E!
b101 M!
b00000000 U!
b0000000000000000 ]!
1e!
0W"
b00 o"
0!#
b00001000 )#
b00001001 1#
b00 Q#
b0000000000000000 #$
b0100001010110111 ;$
1C$
0[$
b0100001010110111 c$
#65
0C$
#66
b0000000000010100 E!
b010 M!
b0000000000010100 ]!
b01 '"
b01 o"
1!#
b0100001010110111 9#
b0000000000000000 A#
1C$
#67
0C$
#68
b0101000000000000 E!
b000 M!
b0000000000001010 ]!
0e!
1m!
0u!
b101 }!
b11 '"
b0000000000010100 A#
b01 Q#
1C$
#69
0C$
#70
b0000000000011110 E!
b00000100 U!
0m!
1u!
b000 }!
b00 '"
1?"
b0101000000000000 I#
b11 Q#
1C$
0S$
1[$
b0101000000000000 k$
#71
0C$
1S$
#72
b0101000000000000 %
b0101000000000000 s
b0101000000010100 E!
b010 M!
b00000000 U!
b0101000000000000 ]!
1e!
0?"
b00 o"
0!#
b00001001 )#
b00001010 1#
b00 Q#
b0101000000000000 i#
b1100001110110101 ;$
1C$
0[$
b1100001110110101 c$
#73
0C$
#74
b0101000000001010 E!
b110 M!
b0000000000001010 ]!
b01 '"
b01 o"
1!#
b1100001110110101 9#
b0101000000000000 A#
1C$
#75
0C$
#76
b0010100000000000 E!
b000 M!
0e!
1m!
0u!
b101 }!
b11 '"
b0000000000001010 A#
b01 Q#
1C$
#77
0C$
#78
b0000000000010100 E!
b01000000 U!
0m!
1u!
b000 }!
b00 '"
1_"
b0010100000000000 I#
b11 Q#
1C$
0S$
1[$
b0010100000000000 k$
#79
0C$
1S$
#80
b0010100000000000 )
b0010100000000000 5!
b0010100000001010 E!
b110 M!
b00000000 U!
b0010100000000000 ]!
1e!
0_"
b00 o"
0!#
b00001010 )#
b00001011 1#
b00 Q#
b0010100000000000 +$
b1001010111010101 ;$
1C$
0[$
b1001010111010101 c$
#81
0C$
#82
b100 M!
b0000000000001010 ]!
b01 '"
b01 o"
1!#
b1001010111010101 9#
b0010100000000000 A#
1C$
#83
0C$
#84
b0000000000001010 E!
b101 M!
b0000000000000000 ]!
0e!
1m!
0u!
b101 }!
b11 '"
b0000000000001010 A#
b01 Q#
1C$
#85
0C$
#86
b00010000 U!
0m!
1u!
b000 }!
b00 '"
1O"
b0000000000001010 I#
b11 Q#
1C$
0S$
1[$
b0000000000001010 k$
#87
0C$
1S$
#88
b0000000000010100 E!
b100 M!
b00000000 U!
b0000000000001010 ]!
1e!
0O"
b00 o"
0!#
b00001011 )#
b00001100 1#
b00 Q#
b0010100000101010 ;$
1C$
0[$
b0010100000101010 c$
#89
0C$
#90
b001 M!
b01 '"
b01 o"
1!#
b0010100000101010 9#
1C$
#91
0C$
#92
b0000000000000000 E!
b010 M!
b0101000000000000 ]!
0e!
1m!
0u!
b010 }!
b11 '"
b01 Q#
1C$
#93
0C$
#94
b0101000000001010 E!
b00000010 U!
0m!
1u!
b000 }!
b00 '"
17"
b0000000000000000 I#
b11 Q#
1C$
0S$
1[$
b0000000000000000 k$
#95
0C$
1S$
#96
b0000000000000000 $
b0000000000000000 k
b0000000000001010 E!
b001 M!
b00000000 U!
b0000000000000000 ]!
1e!
07"
b00 o"
0!#
b00001100 )#
b00001101 1#
b00 Q#
b0000000000000000 a#
b0111000010100011 ;$
1C$
0[$
b0111000010100011 c$
#97
0C$
#98
b0000000000000010 E!
b011 M!
b0000000000000010 ]!
b01 '"
b01 o"
1!#
b0111000010100011 9#
b0000000000000000 A#
1C$
#99
0C$
#100
b0000000000001100 E!
b100 M!
b0000000000001010 ]!
0e!
1m!
0u!
b11 '"
b0000000000000010 A#
b01 Q#
1C$
#101
0C$
#102
b00001000 U!
0m!
1u!
b00 '"
1G"
b0000000000001100 I#
b11 Q#
1C$
0S$
1[$
b0000000000001100 k$
#103
0C$
1S$
#104
b0000000000001100 &
b0000000000001100 {
b0000000000001110 E!
b011 M!
b00000000 U!
b0000000000001100 ]!
1e!
0G"
b00 o"
0!#
b00001101 )#
b00001110 1#
b00 Q#
b0000000000001100 q#
b0110000010110010 ;$
1C$
0[$
b0110000010110010 c$
#105
0C$
#106
b0000000000011000 E!
b01 '"
b01 o"
1!#
b0110000010110010 9#
b0000000000001100 A#
1C$
#107
0C$
#108
b0000000000000110 E!
b000 M!
b0000000000001010 ]!
0e!
1m!
0u!
b100 }!
b11 '"
b01 Q#
1C$
#109
0C$
#110
b0000000000010110 E!
b00001000 U!
0m!
1u!
b000 }!
b00 '"
1G"
b0000000000000110 I#
b11 Q#
1C$
0S$
1[$
b0000000000000110 k$
#111
0C$
1S$
#112
b0000000000000110 &
b0000000000000110 {
b0000000000010010 E!
b011 M!
b00000000 U!
b0000000000000110 ]!
1e!
0G"
b00 o"
0!#
b00001110 )#
b00001111 1#
b00 Q#
b0000000000000110 q#
b0010001111000110 ;$
1C$
0[$
b0010001111000110 c$
#113
0C$
#114
b0000000000000110 E!
b001 M!
b0000000000000000 ]!
b01 '"
b01 o"
1!#
b0010001111000110 9#
b0000000000000110 A#
1C$
#115
0C$
#116
b1111111111110110 E!
b000 M!
b0000000000001010 ]!
0e!
1m!
0u!
b001 }!
b11 '"
b0000000000000000 A#
b01 Q#
1C$
#117
0C$
#118
b0000000000001010 E!
b00000010 U!
0m!
1u!
b000 }!
b00 '"
17"
b1111111111110110 I#
b11 Q#
1C$
0S$
1[$
b1111111111110110 k$
#119
0C$
1S$
#120
b1111111111110110 $
b1111111111110110 k
b1111111111110110 E!
b001 M!
b00000000 U!
b1111111111110110 ]!
1e!
07"
b00 o"
0!#
b00001111 )#
b00010000 1#
b00 Q#
b1111111111110110 a#
b0101011010001100 ;$
1C$
0[$
b0101011010001100 c$
#121
0C$
#122
b0100111111110110 E!
b010 M!
b0101000000000000 ]!
b01 '"
b01 o"
1!#
b0101011010001100 9#
b1111111111110110 A#
1C$
#123
0C$
#124
b0101000000000000 E!
b101 M!
b0000000000000000 ]!
0e!
1m!
0u!
b011 }!
b11 '"
b0101000000000000 A#
b01 Q#
1C$
#125
0C$
#126
b00000100 U!
0m!
1u!
b000 }!
b00 '"
1?"
b0101000000000000 I#
b11 Q#
1C$
0S$
1[$
b0101000000000000 k$
#127
0C$
1S$
#128
b1010000000000000 E!
b010 M!
b00000000 U!
b0101000000000000 ]!
1e!
0?"
b00 o"
0!#
b00010000 )#
b00010001 1#
b00 Q#
b0101000111011011 ;$
1C$
0[$
b0101000111011011 c$
#129
0C$
#130
b01 '"
b01 o"
1!#
b0101000111011011 9#
1C$
#131
0C$
#132
b0000000000010100 E!
b100 M!
b0000000000001010 ]!
0e!
1m!
0u!
b110 }!
b11 '"
b01 Q#
1C$
#133
0C$
#134
b0101000000001010 E!
b00000100 U!
0m!
1u!
b000 }!
b00 '"
1?"
b0000000000010100 I#
b11 Q#
1C$
0S$
1[$
b0000000000010100 k$
#135
0C$
1S$
#136
b0000000000010100 %
b0000000000010100 s
b0101000000010100 E!
b010 M!
b00000000 U!
b0000000000010100 ]!
1e!
0?"
b00 o"
0!#
b00010001 )#
b00010010 1#
b00 Q#
b0000000000010100 i#
b1011111010010010 ;$
1C$
0[$
b1011111010010010 c$
#137
0C$
#138
b0000000000010100 E!
b101 M!
b0000000000000000 ]!
b01 '"
b01 o"
1!#
b1011111010010010 9#
b0000000000010100 A#
1C$
#139
0C$
#140
b0000000000000000 E!
b111 M!
0e!
1m!
0u!
b100 }!
b11 '"
b0000000000000000 A#
b01 Q#
1C$
#141
0C$
#142
b00100000 U!
0m!
1u!
b000 }!
b00 '"
1W"
b0000000000000000 I#
b11 Q#
1C$
0S$
1[$
b0000000000000000 k$
#143
0C$
1S$
#144
b101 M!
b00000000 U!
1e!
0W"
b00 o"
0!#
b00010010 )#
b00010011 1#
b00 Q#
b0001101001110100 ;$
1C$
0[$
b0001101001110100 c$
#145
0C$
#146
b0000000000001010 E!
b000 M!
b0000000000001010 ]!
b01 '"
b01 o"
1!#
b0001101001110100 9#
1C$
#147
0C$
#148
b110 M!
b0010100000000000 ]!
0e!
1m!
0u!
b101 }!
b11 '"
b0000000000001010 A#
b01 Q#
1C$
#149
0C$
#150
b0010100000001010 E!
b00000001 U!
0m!
1u!
b000 }!
b00 '"
1/"
b0000000000001010 I#
b11 Q#
1C$
0S$
1[$
b0000000000001010 k$
#151
0C$
1S$
#152
b0000000000010100 E!
b000 M!
b00000000 U!
b0000000000001010 ]!
1e!
0/"
b00 o"
0!#
b00010011 )#
b00010100 1#
b00 Q#
b0111010110101001 ;$
1C$
0[$
b0111010110101001 c$
#153
0C$
#154
b0000000000010000 E!
b011 M!
b0000000000000110 ]!
b01 '"
b01 o"
1!#
b0111010110101001 9#
1C$
#155
0C$
#156
b0000000000000000 E!
b101 M!
b0000000000000000 ]!
0e!
1m!
0u!
b010 }!
b11 '"
b0000000000000110 A#
b01 Q#
1C$
#157
0C$
#158
b0000000000000110 E!
b00001000 U!
0m!
1u!
b000 }!
b00 '"
1G"
b0000000000000000 I#
b11 Q#
1C$
0S$
1[$
b0000000000000000 k$
#159
0C$
1S$
#160
b0000000000000000 &
b0000000000000000 {
b011 M!
b00000000 U!
1e!
0G"
b00 o"
0!#
b00010100 )#
b00010101 1#
b00 Q#
b0000000000000000 q#
b0010010100110001 ;$
1C$
0[$
b0010010100110001 c$
#161
0C$
#162
b1111111111110110 E!
b001 M!
b1111111111110110 ]!
b01 '"
b01 o"
1!#
b0010010100110001 9#
b0000000000000000 A#
1C$
#163
0C$
#164
b0000000000000000 E!
0e!
1m!
0u!
b100 }!
b11 '"
b1111111111110110 A#
b01 Q#
1C$
#165
0C$
#166
b1111111111101100 E!
b00000010 U!
0m!
1u!
b000 }!
b00 '"
17"
b11 Q#
1C$
0S$
1[$
#167
0C$
1S$
#168
b0000000000000000 $
b0000000000000000 k
b1111111111110110 E!
b00000000 U!
b0000000000000000 ]!
1e!
07"
b00 o"
0!#
b00010101 )#
b00010110 1#
b00 Q#
b0000000000000000 a#
b0000100011111111 ;$
1C$
0[$
b0000100011111111 c$
#169
0C$
#170
b0000000000001010 E!
b000 M!
b0000000000001010 ]!
b01 '"
b01 o"
1!#
b0000100011111111 9#
b0000000000000000 A#
1C$
#171
0C$
#172
b0000000000000010 E!
b010 M!
b0000000000010100 ]!
0e!
1m!
0u!
b111 }!
b11 '"
b0000000000001010 A#
b01 Q#
1C$
#173
0C$
#174
b0000000000011110 E!
b00000001 U!
0m!
1u!
b000 }!
b00 '"
1/"
b0000000000000010 I#
b11 Q#
1C$
0S$
1[$
b0000000000000010 k$
#175
0C$
1S$
#176
b0000000000000010 #
b0000000000000010 c
b0000000000001100 E!
b000 M!
b00000000 U!
b0000000000000010 ]!
1e!
0/"
b00 o"
0!#
b00010110 )#
b00010111 1#
b00 Q#
b0000000000000010 Y#
b1101111101110111 ;$
1C$
0[$
b1101111101110111 c$
#177
0C$
#178
b0010100000000010 E!
b110 M!
b0010100000000000 ]!
b01 '"
b01 o"
1!#
b1101111101110111 9#
b0000000000000010 A#
1C$
#179
0C$
#180
b0010100000000000 E!
b111 M!
b0000000000000000 ]!
0e!
1m!
0u!
b101 }!
b11 '"
b0010100000000000 A#
b01 Q#
1C$
#181
0C$
#182
b01000000 U!
0m!
1u!
b000 }!
b00 '"
1_"
b0010100000000000 I#
b11 Q#
1C$
0S$
1[$
b0010100000000000 k$
#183
0C$
1S$
#184
b0101000000000000 E!
b110 M!
b00000000 U!
b0010100000000000 ]!
1e!
0_"
b00 o"
0!#
b00010111 )#
b00011000 1#
b00 Q#
b1010101001111100 ;$
1C$
0[$
b1010101001111100 c$
#185
0C$
#186
b0010100000000000 E!
b101 M!
b0000000000000000 ]!
b01 '"
b01 o"
1!#
b1010101001111100 9#
1C$
#187
0C$
#188
b0000000000000010 E!
b010 M!
b0000000000010100 ]!
0e!
1m!
0u!
b111 }!
b11 '"
b0000000000000000 A#
b01 Q#
1C$
#189
0C$
#190
b0000000000010100 E!
b00100000 U!
0m!
1u!
b000 }!
b00 '"
1W"
b0000000000000010 I#
b11 Q#
1C$
0S$
1[$
b0000000000000010 k$
#191
0C$
1S$
#192
b0000000000000010 (
b0000000000000010 -!
b0000000000000010 E!
b101 M!
b00000000 U!
b0000000000000010 ]!
1e!
0W"
b00 o"
0!#
b00011000 )#
b00011001 1#
b00 Q#
b0000000000000010 #$
b0010001110000100 ;$
1C$
0[$
b0010001110000100 c$
#193
0C$
#194
b001 M!
b0000000000000000 ]!
b01 '"
b01 o"
1!#
b0010001110000100 9#
b0000000000000010 A#
1C$
#195
0C$
#196
b1111111111111110 E!
b000 M!
b0000000000000010 ]!
0e!
1m!
0u!
b001 }!
b11 '"
b0000000000000000 A#
b01 Q#
1C$
#197
0C$
#198
b0000000000000010 E!
b00000010 U!
0m!
1u!
b000 }!
b00 '"
17"
b1111111111111110 I#
b11 Q#
1C$
0S$
1[$
b1111111111111110 k$
#199
0C$
1S$
#200
b1111111111111110 $
b1111111111111110 k
b1111111111111110 E!
b001 M!
b00000000 U!
b1111111111111110 ]!
1e!
07"
b00 o"
0!#
b00011001 )#
b00011010 1#
b00 Q#
b1111111111111110 a#
b0101100010101100 ;$
1C$
0[$
b0101100010101100 c$
#201
0C$
#202
b0000000000010010 E!
b010 M!
b0000000000010100 ]!
b01 '"
b01 o"
1!#
b0101100010101100 9#
b1111111111111110 A#
1C$
#203
0C$
#204
b0010100000010100 E!
b110 M!
b0010100000000000 ]!
0e!
1m!
0u!
b011 }!
b11 '"
b0000000000010100 A#
b01 Q#
1C$
#205
0C$
#206
b00000100 U!
0m!
1u!
b000 }!
b00 '"
1?"
b0010100000010100 I#
b11 Q#
1C$
0S$
1[$
b0010100000010100 k$
#207
0C$
1S$
#208
b0010100000010100 %
b0010100000010100 s
b0010100000101000 E!
b010 M!
b00000000 U!
b0010100000010100 ]!
1e!
0?"
b00 o"
0!#
b00011010 )#
b00011011 1#
b00 Q#
b0010100000010100 i#
b0000100111001011 ;$
1C$
0[$
b0000100111001011 c$
#209
0C$
#210
b0010100000010110 E!
b000 M!
b0000000000000010 ]!
b01 '"
b01 o"
1!#
b0000100111001011 9#
b0010100000010100 A#
1C$
#211
0C$
#212
b0000000000000000 E!
b010 M!
b0010100000010100 ]!
0e!
1m!
0u!
b010 }!
b11 '"
b0000000000000010 A#
b01 Q#
1C$
#213
0C$
#214
b0010100000010110 E!
b00000001 U!
0m!
1u!
b000 }!
b00 '"
1/"
b0000000000000000 I#
b11 Q#
1C$
0S$
1[$
b0000000000000000 k$
#215
0C$
1S$
#216
b0000000000000000 #
b0000000000000000 c
b0000000000000010 E!
b000 M!
b00000000 U!
b0000000000000000 ]!
1e!
0/"
b00 o"
0!#
b00011011 )#
b00011100 1#
b00 Q#
b0000000000000000 Y#
b1000000001010000 ;$
1C$
0[$
b1000000001010000 c$
#217
0C$
#218
b0000000000001010 E!
b100 M!
b0000000000001010 ]!
b01 '"
b01 o"
1!#
b1000000001010000 9#
b0000000000000000 A#
1C$
#219
0C$
#220
b000 M!
b0000000000000000 ]!
0e!
1m!
0u!
b100 }!
b11 '"
b0000000000001010 A#
b01 Q#
1C$
#221
0C$
#222
b00010000 U!
0m!
1u!
b000 }!
b00 '"
1O"
b0000000000001010 I#
b11 Q#
1C$
0S$
1[$
b0000000000001010 k$
#223
0C$
1S$
#224
b0000000000010100 E!
b100 M!
b00000000 U!
b0000000000001010 ]!
1e!
0O"
b00 o"
0!#
b00011100 )#
b00011101 1#
b00 Q#
b0100001000010000 ;$
1C$
0[$
b0100001000010000 c$
#225
0C$
#226
b0010100000011110 E!
b010 M!
b0010100000010100 ]!
b01 '"
b01 o"
1!#
b0100001000010000 9#
1C$
#227
0C$
#228
b0010100000010100 E!
b000 M!
b0000000000000000 ]!
0e!
1m!
0u!
b100 }!
b11 '"
b0010100000010100 A#
b01 Q#
1C$
#229
0C$
#230
b00000100 U!
0m!
1u!
b000 }!
b00 '"
1?"
b0010100000010100 I#
b11 Q#
1C$
0S$
1[$
b0010100000010100 k$
#231
0C$
1S$
#232
b0101000000101000 E!
b010 M!
b00000000 U!
b0010100000010100 ]!
1e!
0?"
b00 o"
0!#
b00011101 )#
b00011110 1#
b00 Q#
b1111001110001110 ;$
1C$
0[$
b1111001110001110 c$
#233
0C$
#234
b0010100000010100 E!
b111 M!
b0000000000000000 ]!
b01 '"
b01 o"
1!#
b1111001110001110 9#
1C$
#235
0C$
