lvl4/lab10/waveform.vcd
$version Generated by VerilatedVcd $end
$date Fri Jul 12 20:34:45 2024
 $end
$timescale   1ns $end

 $scope module TOP $end
  $var wire  1 c$ clk $end
  $var wire 16 -% d_out [15:0] $end
  $var wire  1 {$ done $end
  $var wire 16 %% instr [15:0] $end
  $var wire  1 k$ reset $end
  $var wire  1 s$ run $end
  $scope module bigger $end
   $var wire  8 C$ addr [7:0] $end
   $var wire  1 c$ clk $end
   $var wire  2 w" cur_state [1:0] $end
   $var wire  8 E% d_in [7:0] $end
   $var wire 16 -% d_out [15:0] $end
   $var wire  1 {$ done $end
   $var wire 16 %% instr [15:0] $end
   $var wire  1 M% instr_valid $end
   $var wire 16 ;$ mem_out [15:0] $end
   $var wire  8 5% new_pc [7:0] $end
   $var wire  2 !# next_state [1:0] $end
   $var wire  1 k$ reset $end
   $var wire  1 s$ run $end
   $var wire  1 )# run_bitty $end
   $scope module instance1 $end
    $var wire  1 c$ clk $end
    $var wire  8 5% d_in [7:0] $end
    $var wire  8 C$ d_out [7:0] $end
    $var wire  1 {$ en_pc $end
    $var wire  1 k$ reset $end
   $upscope $end
   $scope module instance2 $end
    $var wire  8 C$ addr [7:0] $end
    $var wire  1 c$ clk $end
    $var wire 16 ;$ out [15:0] $end
   $upscope $end
   $scope module instance3 $end
    $var wire 16 E! alu_out [15:0] $end
    $var wire  3 }! alu_sel [2:0] $end
    $var wire  1 c$ clk $end
    $var wire 16 ;$ d_instr [15:0] $end
    $var wire 16 -% d_out [15:0] $end
    $var wire  1 {$ done $end
    $var wire  8 U! en [7:0] $end
    $var wire  1 m! en_c $end
    $var wire  1 u! en_inst $end
    $var wire  1 e! en_s $end
    $var wire 16 '" im_d [15:0] $end
    $var wire 16 1# instruction [15:0] $end
    $var wire  4 M! mux_sel [3:0] $end
    $var wire 16 # out(0) [15:0] $end
    $var wire 16 $ out(1) [15:0] $end
    $var wire 16 % out(2) [15:0] $end
    $var wire 16 & out(3) [15:0] $end
    $var wire 16 ' out(4) [15:0] $end
    $var wire 16 ( out(5) [15:0] $end
    $var wire 16 ) out(6) [15:0] $end
    $var wire 16 * out(7) [15:0] $end
    $var wire 16 ]! out_mux [15:0] $end
    $var wire 16 A# regc [15:0] $end
    $var wire 16 9# regs [15:0] $end
    $var wire  1 k$ reset $end
    $var wire  1 )# run $end
    $scope module alu_inst $end
     $var wire 16 E! alu_out [15:0] $end
     $var wire 16 9# in_a [15:0] $end
     $var wire 16 ]! in_b [15:0] $end
     $var wire 16 E! res [15:0] $end
     $var wire  3 }! select [2:0] $end
    $upscope $end
    $scope module cpu_inst $end
     $var wire  1 c$ clk $end
     $var wire  2 I# cur_state [1:0] $end
     $var wire 16 1# d_inst [15:0] $end
     $var wire  1 {$ done $end
     $var wire  8 U! en [7:0] $end
     $var wire  1 m! en_c $end
     $var wire  1 u! en_inst $end
     $var wire  1 e! en_s $end
     $var wire  2 Q# format [1:0] $end
     $var wire 16 '" im_d [15:0] $end
     $var wire  4 M! mux_sel [3:0] $end
     $var wire  2 /" next_state [1:0] $end
     $var wire  1 k$ reset $end
     $var wire  1 )# run $end
     $var wire  3 }! sel [2:0] $end
    $upscope $end
    $scope module genblk1(0) $end
     $scope module reg_out $end
      $var wire  1 c$ clk $end
      $var wire 16 A# d_in [15:0] $end
      $var wire  1 7" en $end
      $var wire 16 Y# mux_out [15:0] $end
      $var wire  1 k$ reset $end
      $var wire 16 ]% starting [15:0] $end
     $upscope $end
    $upscope $end
    $scope module genblk1(1) $end
     $scope module reg_out $end
      $var wire  1 c$ clk $end
      $var wire 16 A# d_in [15:0] $end
      $var wire  1 ?" en $end
      $var wire 16 a# mux_out [15:0] $end
      $var wire  1 k$ reset $end
      $var wire 16 ]% starting [15:0] $end
     $upscope $end
    $upscope $end
    $scope module genblk1(2) $end
     $scope module reg_out $end
      $var wire  1 c$ clk $end
      $var wire 16 A# d_in [15:0] $end
      $var wire  1 G" en $end
      $var wire 16 i# mux_out [15:0] $end
      $var wire  1 k$ reset $end
      $var wire 16 ]% starting [15:0] $end
     $upscope $end
    $upscope $end
    $scope module genblk1(3) $end
     $scope module reg_out $end
      $var wire  1 c$ clk $end
      $var wire 16 A# d_in [15:0] $end
      $var wire  1 O" en $end
      $var wire 16 q# mux_out [15:0] $end
      $var wire  1 k$ reset $end
      $var wire 16 ]% starting [15:0] $end
     $upscope $end
    $upscope $end
    $scope module genblk1(4) $end
     $scope module reg_out $end
      $var wire  1 c$ clk $end
      $var wire 16 A# d_in [15:0] $end
      $var wire  1 W" en $end
      $var wire 16 y# mux_out [15:0] $end
      $var wire  1 k$ reset $end
      $var wire 16 ]% starting [15:0] $end
     $upscope $end
    $upscope $end
    $scope module genblk1(5) $end
     $scope module reg_out $end
      $var wire  1 c$ clk $end
      $var wire 16 A# d_in [15:0] $end
      $var wire  1 _" en $end
      $var wire 16 #$ mux_out [15:0] $end
      $var wire  1 k$ reset $end
      $var wire 16 ]% starting [15:0] $end
     $upscope $end
    $upscope $end
    $scope module genblk1(6) $end
     $scope module reg_out $end
      $var wire  1 c$ clk $end
      $var wire 16 A# d_in [15:0] $end
      $var wire  1 g" en $end
      $var wire 16 +$ mux_out [15:0] $end
      $var wire  1 k$ reset $end
      $var wire 16 ]% starting [15:0] $end
     $upscope $end
    $upscope $end
    $scope module genblk1(7) $end
     $scope module reg_out $end
      $var wire  1 c$ clk $end
      $var wire 16 A# d_in [15:0] $end
      $var wire  1 o" en $end
      $var wire 16 3$ mux_out [15:0] $end
      $var wire  1 k$ reset $end
      $var wire 16 ]% starting [15:0] $end
     $upscope $end
    $upscope $end
    $scope module mux_inst $end
     $var wire 16 '" im_d [15:0] $end
     $var wire 16 ]! mux_out [15:0] $end
     $var wire  4 M! mux_sel [3:0] $end
     $var wire 16 c reg0 [15:0] $end
     $var wire 16 k reg1 [15:0] $end
     $var wire 16 s reg2 [15:0] $end
     $var wire 16 { reg3 [15:0] $end
     $var wire 16 %! reg4 [15:0] $end
     $var wire 16 -! reg5 [15:0] $end
     $var wire 16 5! reg6 [15:0] $end
     $var wire 16 =! reg7 [15:0] $end
    $upscope $end
    $scope module reg_c $end
     $var wire  1 c$ clk $end
     $var wire 16 E! d_in [15:0] $end
     $var wire  1 m! en $end
     $var wire 16 A# mux_out [15:0] $end
     $var wire  1 k$ reset $end
     $var wire 16 U% starting [15:0] $end
    $upscope $end
    $scope module reg_inst $end
     $var wire  1 c$ clk $end
     $var wire 16 ;$ d_in [15:0] $end
     $var wire  1 u! en $end
     $var wire 16 1# mux_out [15:0] $end
     $var wire  1 k$ reset $end
     $var wire 16 U% starting [15:0] $end
    $upscope $end
    $scope module reg_s $end
     $var wire  1 c$ clk $end
     $var wire 16 ]! d_in [15:0] $end
     $var wire  1 e! en $end
     $var wire 16 9# mux_out [15:0] $end
     $var wire  1 k$ reset $end
     $var wire 16 U% starting [15:0] $end
    $upscope $end
   $upscope $end
   $scope module instance4 $end
    $var wire  8 C$ address [7:0] $end
    $var wire  2 K$ branch_cond [1:0] $end
    $var wire  1 [$ cur_state $end
    $var wire  1 {$ done $end
    $var wire  8 S$ immediate [7:0] $end
    $var wire 16 ;$ instruction [15:0] $end
    $var wire 16 -% last_alu_result [15:0] $end
    $var wire  8 5% new_pc [7:0] $end
    $var wire  1 =% next_state $end
   $upscope $end
  $upscope $end
 $upscope $end
$enddefinitions $end


#0
b0000000000001010 #
b0000000000001010 $
b0000000000001010 %
b0000000000001010 &
b0000000000001010 '
b0000000000001010 (
b0000000000001010 )
b0000000000001010 *
b0000000000001010 c
b0000000000001010 k
b0000000000001010 s
b0000000000001010 {
b0000000000001010 %!
b0000000000001010 -!
b0000000000001010 5!
b0000000000001010 =!
b0000000000001010 E!
b0000 M!
b00000000 U!
b0000000000001010 ]!
0e!
0m!
0u!
b000 }!
b0000000000000000 '"
b00 /"
07"
0?"
0G"
0O"
0W"
0_"
0g"
0o"
b00 w"
b01 !#
0)#
b0000000000000000 1#
b0000000000000000 9#
b0000000000000000 A#
b00 I#
b00 Q#
b0000000000001010 Y#
b0000000000001010 a#
b0000000000001010 i#
b0000000000001010 q#
b0000000000001010 y#
b0000000000001010 #$
b0000000000001010 +$
b0000000000001010 3$
b1011000011110010 ;$
b00000000 C$
b00 K$
b00001111 S$
0[$
1c$
1k$
1s$
0{$
b1011000011110010 %%
b0000000000000000 -%
b00001111 5%
0=%
b00000000 E%
0M%
b0000000000000000 U%
b0000000000001010 ]%
#1
1e!
1u!
0c$
0k$
#2
b0000000000010100 E!
0e!
b01 w"
1)#
b1011000011110010 1#
b0000000000001010 9#
b11 I#
b10 Q#
1c$
0s$
1{$
1=%
#3
0c$
1s$
#4
b00 w"
0)#
b00001111 C$
1c$
0s$
#5
0c$
1s$
#6
b0101010000001100 ;$
b11 K$
b01000000 S$
1c$
0s$
b0101010000001100 %%
b00010000 5%
#7
0c$
1s$
#8
b0010 M!
1e!
b0101010000001100 1#
b00 I#
b00 Q#
b00010000 C$
1c$
0{$
b00010001 5%
0=%
#9
0c$
#10
b01 /"
b01 w"
1)#
b0101000111011010 ;$
b10 K$
b00011101 S$
1c$
b0101000111011010 %%
#11
0c$
#12
0e!
b00 /"
b0101000111011010 1#
b11 I#
b10 Q#
1c$
0s$
1{$
1=%
#13
0c$
1s$
#14
b00 w"
0)#
b00010001 C$
1c$
0s$
b00010010 5%
#15
0c$
1s$
#16
b1011111010010010 ;$
b00010010 C$
b00 K$
b11101001 S$
1c$
0s$
b1011111010010010 %%
b11101001 5%
#17
0c$
1s$
#18
b1011111010010010 1#
b0001100000010100 ;$
b11101001 C$
b01 K$
b10000001 S$
1c$
0s$
b0001100000010100 %%
b11101010 5%
#19
0c$
1s$
#20
b0000 M!
1e!
b0001100000010100 1#
b00 I#
b00 Q#
b0000000000000000 ;$
b11101010 C$
b00 K$
b00000000 S$
1c$
0{$
b0000000000000000 %%
b00000000 5%
0=%
#21
0c$
#22
b01 /"
b01 w"
1)#
b0000000000000000 1#
1c$
#23
0c$
#24
0e!
1m!
0u!
b11 /"
b01 I#
1c$
#25
0c$
#26
b00000001 U!
0m!
1u!
b00 /"
17"
b0000000000010100 A#
b11 I#
1c$
0s$
1{$
b0000000000010100 -%
b11101011 5%
1=%
#27
0c$
1s$
#28
b0000000000010100 #
b0000000000010100 c
b0000000000011110 E!
b00000000 U!
b0000000000010100 ]!
1e!
07"
b00 w"
0)#
b00 I#
b0000000000010100 Y#
b11101011 C$
1c$
0{$
b11101100 5%
0=%
#29
0c$
#30
b0000000000101000 E!
b01 /"
b01 w"
1)#
b0000000000010100 9#
1c$
#31
0c$
#32
0e!
1m!
0u!
b11 /"
b01 I#
1c$
#33
0c$
#34
b00000001 U!
0m!
1u!
b00 /"
17"
b0000000000101000 A#
b11 I#
1c$
0s$
1{$
b0000000000101000 -%
1=%
#35
0c$
1s$
#36
b0000000000101000 #
b0000000000101000 c
b0000000000111100 E!
b00000000 U!
b0000000000101000 ]!
1e!
07"
b00 w"
0)#
b00 I#
b0000000000101000 Y#
b11101100 C$
1c$
0{$
b11101101 5%
0=%
#37
0c$
#38
b0000000001010000 E!
b01 /"
b01 w"
1)#
b0000000000101000 9#
1c$
#39
0c$
#40
0e!
1m!
0u!
b11 /"
b01 I#
1c$
#41
0c$
#42
b00000001 U!
0m!
1u!
b00 /"
17"
b0000000001010000 A#
b11 I#
1c$
0s$
1{$
b0000000001010000 -%
1=%
#43
0c$
1s$
#44
b0000000001010000 #
b0000000001010000 c
b0000000001111000 E!
b00000000 U!
b0000000001010000 ]!
1e!
07"
b00 w"
0)#
b00 I#
b0000000001010000 Y#
b11101101 C$
1c$
0{$
b11101110 5%
0=%
#45
0c$
#46
b0000000010100000 E!
b01 /"
b01 w"
1)#
b0000000001010000 9#
1c$
#47
0c$
#48
0e!
1m!
0u!
b11 /"
b01 I#
1c$
#49
0c$
#50
b00000001 U!
0m!
1u!
b00 /"
17"
b0000000010100000 A#
b11 I#
1c$
0s$
1{$
b0000000010100000 -%
1=%
#51
0c$
1s$
#52
b0000000010100000 #
b0000000010100000 c
b0000000011110000 E!
b00000000 U!
b0000000010100000 ]!
1e!
07"
b00 w"
0)#
b00 I#
b0000000010100000 Y#
b11101110 C$
1c$
0{$
b11101111 5%
0=%
#53
0c$
#54
b0000000101000000 E!
b01 /"
b01 w"
1)#
b0000000010100000 9#
1c$
#55
0c$
#56
0e!
1m!
0u!
b11 /"
b01 I#
1c$
#57
0c$
#58
b00000001 U!
0m!
1u!
b00 /"
17"
b0000000101000000 A#
b11 I#
1c$
0s$
1{$
b0000000101000000 -%
1=%
#59
0c$
1s$
#60
b0000000101000000 #
b0000000101000000 c
b0000000111100000 E!
b00000000 U!
b0000000101000000 ]!
1e!
07"
b00 w"
0)#
b00 I#
b0000000101000000 Y#
b11101111 C$
1c$
0{$
b11110000 5%
0=%
#61
0c$
#62
b0000001010000000 E!
b01 /"
b01 w"
1)#
b0000000101000000 9#
1c$
#63
0c$
#64
0e!
1m!
0u!
b11 /"
b01 I#
1c$
#65
0c$
#66
b00000001 U!
0m!
1u!
b00 /"
17"
b0000001010000000 A#
b11 I#
1c$
0s$
1{$
b0000001010000000 -%
1=%
#67
0c$
1s$
#68
b0000001010000000 #
b0000001010000000 c
b0000001111000000 E!
b00000000 U!
b0000001010000000 ]!
1e!
07"
b00 w"
0)#
b00 I#
b0000001010000000 Y#
b11110000 C$
1c$
0{$
b11110001 5%
0=%
#69
0c$
#70
b0000010100000000 E!
b01 /"
b01 w"
1)#
b0000001010000000 9#
1c$
#71
0c$
#72
0e!
1m!
0u!
b11 /"
b01 I#
1c$
#73
0c$
#74
b00000001 U!
0m!
1u!
b00 /"
17"
b0000010100000000 A#
b11 I#
1c$
0s$
1{$
b0000010100000000 -%
1=%
#75
0c$
1s$
#76
b0000010100000000 #
b0000010100000000 c
b0000011110000000 E!
b00000000 U!
b0000010100000000 ]!
1e!
07"
b00 w"
0)#
b00 I#
b0000010100000000 Y#
b11110001 C$
1c$
0{$
b11110010 5%
0=%
#77
0c$
#78
b0000101000000000 E!
b01 /"
b01 w"
1)#
b0000010100000000 9#
1c$
#79
0c$
#80
0e!
1m!
0u!
b11 /"
b01 I#
1c$
#81
0c$
#82
b00000001 U!
0m!
1u!
b00 /"
17"
b0000101000000000 A#
b11 I#
1c$
0s$
1{$
b0000101000000000 -%
1=%
#83
0c$
1s$
#84
b0000101000000000 #
b0000101000000000 c
b0000111100000000 E!
b00000000 U!
b0000101000000000 ]!
1e!
07"
b00 w"
0)#
b00 I#
b0000101000000000 Y#
b11110010 C$
1c$
0{$
b11110011 5%
0=%
#85
0c$
#86
b0001010000000000 E!
b01 /"
b01 w"
1)#
b0000101000000000 9#
1c$
#87
0c$
#88
0e!
1m!
0u!
b11 /"
b01 I#
1c$
#89
0c$
#90
b00000001 U!
0m!
1u!
b00 /"
17"
b0001010000000000 A#
b11 I#
1c$
0s$
1{$
b0001010000000000 -%
1=%
#91
0c$
1s$
#92
b0001010000000000 #
b0001010000000000 c
b0001111000000000 E!
b00000000 U!
b0001010000000000 ]!
1e!
07"
b00 w"
0)#
b00 I#
b0001010000000000 Y#
b11110011 C$
1c$
0{$
b11110100 5%
0=%
#93
0c$
#94
b0010100000000000 E!
b01 /"
b01 w"
1)#
b0001010000000000 9#
1c$
#95
0c$
#96
0e!
1m!
0u!
b11 /"
b01 I#
1c$
#97
0c$
#98
b00000001 U!
0m!
1u!
b00 /"
17"
b0010100000000000 A#
b11 I#
1c$
0s$
1{$
b0010100000000000 -%
1=%
#99
0c$
1s$
#100
b0010100000000000 #
b0010100000000000 c
b0011110000000000 E!
b00000000 U!
b0010100000000000 ]!
1e!
07"
b00 w"
0)#
b00 I#
b0010100000000000 Y#
b11110100 C$
1c$
0{$
b11110101 5%
0=%
#101
0c$
#102
b0101000000000000 E!
b01 /"
b01 w"
1)#
b0010100000000000 9#
1c$
#103
0c$
#104
0e!
1m!
0u!
b11 /"
b01 I#
1c$
#105
0c$
#106
b00000001 U!
0m!
1u!
b00 /"
17"
b0101000000000000 A#
b11 I#
1c$
0s$
1{$
b0101000000000000 -%
1=%
#107
0c$
1s$
#108
b0101000000000000 #
b0101000000000000 c
b0111100000000000 E!
b00000000 U!
b0101000000000000 ]!
1e!
07"
b00 w"
0)#
b00 I#
b0101000000000000 Y#
b11110101 C$
1c$
0{$
b11110110 5%
0=%
#109
0c$
#110
b1010000000000000 E!
b01 /"
b01 w"
1)#
b0101000000000000 9#
1c$
#111
0c$
#112
0e!
1m!
0u!
b11 /"
b01 I#
1c$
#113
0c$
#114
b00000001 U!
0m!
1u!
b00 /"
17"
b1010000000000000 A#
b11 I#
1c$
0s$
1{$
b1010000000000000 -%
1=%
#115
0c$
1s$
#116
b1010000000000000 #
b1010000000000000 c
b1111000000000000 E!
b00000000 U!
b1010000000000000 ]!
1e!
07"
b00 w"
0)#
b00 I#
b1010000000000000 Y#
b11110110 C$
1c$
0{$
b11110111 5%
0=%
#117
0c$
#118
b0100000000000000 E!
b01 /"
b01 w"
1)#
b1010000000000000 9#
1c$
#119
0c$
#120
0e!
1m!
0u!
b11 /"
b01 I#
1c$
#121
0c$
#122
b00000001 U!
0m!
1u!
b00 /"
17"
b0100000000000000 A#
b11 I#
1c$
0s$
1{$
b0100000000000000 -%
1=%
#123
0c$
1s$
#124
b0100000000000000 #
b0100000000000000 c
b1110000000000000 E!
b00000000 U!
b0100000000000000 ]!
1e!
07"
b00 w"
0)#
b00 I#
b0100000000000000 Y#
b11110111 C$
1c$
0{$
b11111000 5%
0=%
#125
0c$
#126
b1000000000000000 E!
b01 /"
b01 w"
1)#
b0100000000000000 9#
1c$
#127
0c$
#128
0e!
1m!
0u!
b11 /"
b01 I#
1c$
#129
0c$
#130
b00000001 U!
0m!
1u!
b00 /"
17"
b1000000000000000 A#
b11 I#
1c$
0s$
1{$
b1000000000000000 -%
1=%
#131
0c$
1s$
#132
b1000000000000000 #
b1000000000000000 c
b1100000000000000 E!
b00000000 U!
b1000000000000000 ]!
1e!
07"
b00 w"
0)#
b00 I#
b1000000000000000 Y#
b11111000 C$
1c$
0{$
b11111001 5%
0=%
#133
0c$
#134
b0000000000000000 E!
b01 /"
b01 w"
1)#
b1000000000000000 9#
1c$
#135
0c$
#136
0e!
1m!
0u!
b11 /"
b01 I#
1c$
#137
0c$
#138
b00000001 U!
0m!
1u!
b00 /"
17"
b0000000000000000 A#
b11 I#
1c$
0s$
1{$
b0000000000000000 -%
b00000000 5%
1=%
#139
0c$
1s$
#140
b0000000000000000 #
b0000000000000000 c
b1000000000000000 E!
b00000000 U!
b0000000000000000 ]!
1e!
07"
b00 w"
0)#
b00 I#
b0000000000000000 Y#
b00000000 C$
1c$
0{$
0=%
#141
0c$
#142
b0000000000000000 E!
b01 /"
b01 w"
1)#
b0000000000000000 9#
b1011000011110010 ;$
b00001111 S$
1c$
b1011000011110010 %%
b00001111 5%
#143
0c$
#144
0e!
b00 /"
b1011000011110010 1#
b11 I#
b10 Q#
1c$
0s$
1{$
1=%
#145
0c$
1s$
#146
b00 w"
0)#
b00001111 C$
1c$
0s$
#147
0c$
1s$
#148
b0101010000001100 ;$
b11 K$
b01000000 S$
1c$
0s$
b0101010000001100 %%
b00010000 5%
#149
0c$
1s$
#150
b0000000000001010 E!
b0010 M!
b0000000000001010 ]!
1e!
b0101010000001100 1#
b00 I#
b00 Q#
b00010000 C$
1c$
0{$
b00010001 5%
0=%
#151
0c$
#152
b0000000000010100 E!
b01 /"
b01 w"
1)#
b0000000000001010 9#
b0101000111011010 ;$
b10 K$
b00011101 S$
1c$
b0101000111011010 %%
#153
0c$
#154
0e!
b00 /"
b0101000111011010 1#
b11 I#
b10 Q#
1c$
0s$
1{$
1=%
#155
0c$
1s$
#156
b00 w"
0)#
b00010001 C$
1c$
0s$
b00010010 5%
#157
0c$
1s$
#158
b1011111010010010 ;$
b00010010 C$
b00 K$
b11101001 S$
1c$
0s$
b1011111010010010 %%
b11101001 5%
#159
0c$
1s$
#160
b1011111010010010 1#
b0001100000010100 ;$
b11101001 C$
b01 K$
b10000001 S$
1c$
0s$
b0001100000010100 %%
b11101010 5%
#161
0c$
1s$
#162
b0000000000001010 E!
b0000 M!
b0000000000000000 ]!
1e!
b0001100000010100 1#
b00 I#
b00 Q#
b0000000000000000 ;$
b11101010 C$
b00 K$
b00000000 S$
1c$
0{$
b0000000000000000 %%
b00000000 5%
0=%
#163
0c$
#164
b0000000000000000 E!
b01 /"
b01 w"
1)#
b0000000000000000 1#
b0000000000000000 9#
1c$
#165
0c$
#166
0e!
1m!
0u!
b11 /"
b01 I#
1c$
#167
0c$
#168
b00000001 U!
0m!
1u!
b00 /"
17"
b11 I#
1c$
0s$
1{$
1=%
#169
0c$
1s$
#170
b00000000 U!
1e!
07"
b00 w"
0)#
b00 I#
b00000000 C$
1c$
0{$
0=%
#171
0c$
#172
b01 /"
b01 w"
1)#
b1011000011110010 ;$
b00001111 S$
1c$
b1011000011110010 %%
b00001111 5%
#173
0c$
#174
0e!
b00 /"
b1011000011110010 1#
b11 I#
b10 Q#
1c$
0s$
1{$
1=%
#175
0c$
1s$
#176
b00 w"
0)#
b00001111 C$
1c$
0s$
#177
0c$
1s$
#178
b0101010000001100 ;$
b11 K$
b01000000 S$
1c$
0s$
b0101010000001100 %%
b00010000 5%
#179
0c$
1s$
#180
b0000000000001010 E!
b0010 M!
b0000000000001010 ]!
1e!
b0101010000001100 1#
b00 I#
b00 Q#
b00010000 C$
1c$
0{$
b00010001 5%
0=%
#181
0c$
#182
b0000000000010100 E!
b01 /"
b01 w"
1)#
b0000000000001010 9#
b0101000111011010 ;$
b10 K$
b00011101 S$
1c$
b0101000111011010 %%
#183
0c$
#184
0e!
b00 /"
b0101000111011010 1#
b11 I#
b10 Q#
1c$
0s$
1{$
1=%
#185
0c$
1s$
#186
b00 w"
0)#
b00010001 C$
1c$
0s$
b00010010 5%
#187
0c$
1s$
#188
b1011111010010010 ;$
b00010010 C$
b00 K$
b11101001 S$
1c$
0s$
b1011111010010010 %%
b11101001 5%
#189
0c$
1s$
#190
b1011111010010010 1#
b0001100000010100 ;$
b11101001 C$
b01 K$
b10000001 S$
1c$
0s$
b0001100000010100 %%
b11101010 5%
#191
0c$
1s$
#192
b0000000000001010 E!
b0000 M!
b0000000000000000 ]!
1e!
b0001100000010100 1#
b00 I#
b00 Q#
b0000000000000000 ;$
b11101010 C$
b00 K$
b00000000 S$
1c$
0{$
b0000000000000000 %%
b00000000 5%
0=%
#193
0c$
#194
b0000000000000000 E!
b01 /"
b01 w"
1)#
b0000000000000000 1#
b0000000000000000 9#
1c$
#195
0c$
#196
0e!
1m!
0u!
b11 /"
b01 I#
1c$
#197
0c$
#198
b00000001 U!
0m!
1u!
b00 /"
17"
b11 I#
1c$
0s$
1{$
1=%
#199
0c$
1s$
#200
b00000000 U!
1e!
07"
b00 w"
0)#
b00 I#
b00000000 C$
1c$
0{$
0=%
#201
0c$
#202
b01 /"
b01 w"
1)#
b1011000011110010 ;$
b00001111 S$
1c$
b1011000011110010 %%
b00001111 5%
#203
0c$
#204
0e!
b00 /"
b1011000011110010 1#
b11 I#
b10 Q#
1c$
0s$
1{$
1=%
#205
0c$
1s$
#206
b00 w"
0)#
b00001111 C$
1c$
0s$
#207
0c$
1s$
#208
b0101010000001100 ;$
b11 K$
b01000000 S$
1c$
0s$
b0101010000001100 %%
b00010000 5%
#209
0c$
1s$
#210
b0000000000001010 E!
b0010 M!
b0000000000001010 ]!
1e!
b0101010000001100 1#
b00 I#
b00 Q#
b00010000 C$
1c$
0{$
b00010001 5%
0=%
#211
0c$
#212
b0000000000010100 E!
b01 /"
b01 w"
1)#
b0000000000001010 9#
b0101000111011010 ;$
b10 K$
b00011101 S$
1c$
b0101000111011010 %%
#213
0c$
#214
0e!
b00 /"
b0101000111011010 1#
b11 I#
b10 Q#
1c$
0s$
1{$
1=%
#215
0c$
1s$
#216
b00 w"
0)#
b00010001 C$
1c$
0s$
b00010010 5%
#217
0c$
1s$
#218
b1011111010010010 ;$
b00010010 C$
b00 K$
b11101001 S$
1c$
0s$
b1011111010010010 %%
b11101001 5%
#219
0c$
1s$
#220
b1011111010010010 1#
b0001100000010100 ;$
b11101001 C$
b01 K$
b10000001 S$
1c$
0s$
b0001100000010100 %%
b11101010 5%
#221
0c$
1s$
#222
b0000000000001010 E!
b0000 M!
b0000000000000000 ]!
1e!
b0001100000010100 1#
b00 I#
b00 Q#
b0000000000000000 ;$
b11101010 C$
b00 K$
b00000000 S$
1c$
0{$
b0000000000000000 %%
b00000000 5%
0=%
#223
0c$
#224
b0000000000000000 E!
b01 /"
b01 w"
1)#
b0000000000000000 1#
b0000000000000000 9#
1c$
#225
0c$
#226
0e!
1m!
0u!
b11 /"
b01 I#
1c$
#227
0c$
#228
b00000001 U!
0m!
1u!
b00 /"
17"
b11 I#
1c$
0s$
1{$
1=%
#229
0c$
1s$
#230
b00000000 U!
1e!
07"
b00 w"
0)#
b00 I#
b00000000 C$
1c$
0{$
0=%
#231
0c$
#232
b01 /"
b01 w"
1)#
b1011000011110010 ;$
b00001111 S$
1c$
b1011000011110010 %%
b00001111 5%
#233
0c$
#234
0e!
b00 /"
b1011000011110010 1#
b11 I#
b10 Q#
1c$
0s$
1{$
1=%
#235
0c$
1s$
#236
b00 w"
0)#
b00001111 C$
1c$
0s$
#237
0c$
1s$
#238
b0101010000001100 ;$
b11 K$
b01000000 S$
1c$
0s$
b0101010000001100 %%
b00010000 5%
#239
0c$
1s$
#240
b0000000000001010 E!
b0010 M!
b0000000000001010 ]!
1e!
b0101010000001100 1#
b00 I#
b00 Q#
b00010000 C$
1c$
0{$
b00010001 5%
0=%
#241
0c$
#242
b0000000000010100 E!
b01 /"
b01 w"
1)#
b0000000000001010 9#
b0101000111011010 ;$
b10 K$
b00011101 S$
1c$
b0101000111011010 %%
#243
0c$
#244
0e!
b00 /"
b0101000111011010 1#
b11 I#
b10 Q#
1c$
0s$
1{$
1=%
#245
0c$
1s$
#246
b00 w"
0)#
b00010001 C$
1c$
0s$
b00010010 5%
#247
0c$
1s$
#248
b1011111010010010 ;$
b00010010 C$
b00 K$
b11101001 S$
1c$
0s$
b1011111010010010 %%
b11101001 5%
#249
0c$
1s$
#250
b1011111010010010 1#
b0001100000010100 ;$
b11101001 C$
b01 K$
b10000001 S$
1c$
0s$
b0001100000010100 %%
b11101010 5%
#251
0c$
1s$
#252
b0000000000001010 E!
b0000 M!
b0000000000000000 ]!
1e!
b0001100000010100 1#
b00 I#
b00 Q#
b0000000000000000 ;$
b11101010 C$
b00 K$
b00000000 S$
1c$
0{$
b0000000000000000 %%
b00000000 5%
0=%
#253
0c$
#254
b0000000000000000 E!
b01 /"
b01 w"
1)#
b0000000000000000 1#
b0000000000000000 9#
1c$
#255
0c$
#256
0e!
1m!
0u!
b11 /"
b01 I#
1c$
#257
0c$
#258
b00000001 U!
0m!
1u!
b00 /"
17"
b11 I#
1c$
0s$
1{$
1=%
#259
0c$
1s$
#260
b00000000 U!
1e!
07"
b00 w"
0)#
b00 I#
b00000000 C$
1c$
0{$
0=%
#261
0c$
#262
b01 /"
b01 w"
1)#
b1011000011110010 ;$
b00001111 S$
1c$
b1011000011110010 %%
b00001111 5%
#263
0c$
#264
0e!
b00 /"
b1011000011110010 1#
b11 I#
b10 Q#
1c$
0s$
1{$
1=%
#265
0c$
1s$
#266
b00 w"
0)#
b00001111 C$
1c$
0s$
#267
0c$
1s$
#268
b0101010000001100 ;$
b11 K$
b01000000 S$
1c$
0s$
b0101010000001100 %%
b00010000 5%
#269
0c$
1s$
#270
b0000000000001010 E!
b0010 M!
b0000000000001010 ]!
1e!
b0101010000001100 1#
b00 I#
b00 Q#
b00010000 C$
1c$
0{$
b00010001 5%
0=%
#271
0c$
#272
b0000000000010100 E!
b01 /"
b01 w"
1)#
b0000000000001010 9#
b0101000111011010 ;$
b10 K$
b00011101 S$
1c$
b0101000111011010 %%
#273
0c$
#274
0e!
b00 /"
b0101000111011010 1#
b11 I#
b10 Q#
1c$
0s$
1{$
1=%
#275
0c$
1s$
#276
b00 w"
0)#
b00010001 C$
1c$
0s$
b00010010 5%
#277
0c$
1s$
#278
b1011111010010010 ;$
b00010010 C$
b00 K$
b11101001 S$
1c$
0s$
b1011111010010010 %%
b11101001 5%
#279
0c$
1s$
#280
b1011111010010010 1#
b0001100000010100 ;$
b11101001 C$
b01 K$
b10000001 S$
1c$
0s$
b0001100000010100 %%
b11101010 5%
#281
0c$
1s$
#282
b0000000000001010 E!
b0000 M!
b0000000000000000 ]!
1e!
b0001100000010100 1#
b00 I#
b00 Q#
b0000000000000000 ;$
b11101010 C$
b00 K$
b00000000 S$
1c$
0{$
b0000000000000000 %%
b00000000 5%
0=%
#283
0c$
#284
b0000000000000000 E!
b01 /"
b01 w"
1)#
b0000000000000000 1#
b0000000000000000 9#
1c$
#285
0c$
#286
0e!
1m!
0u!
b11 /"
b01 I#
1c$
#287
0c$
#288
b00000001 U!
0m!
1u!
b00 /"
17"
b11 I#
1c$
0s$
1{$
1=%
#289
0c$
1s$
#290
b00000000 U!
1e!
07"
b00 w"
0)#
b00 I#
b00000000 C$
1c$
0{$
0=%
#291
0c$
#292
b01 /"
b01 w"
1)#
b1011000011110010 ;$
b00001111 S$
1c$
b1011000011110010 %%
b00001111 5%
#293
0c$
#294
0e!
b00 /"
b1011000011110010 1#
b11 I#
b10 Q#
1c$
0s$
1{$
1=%
#295
0c$
1s$
#296
b00 w"
0)#
b00001111 C$
1c$
0s$
#297
0c$
1s$
#298
b0101010000001100 ;$
b11 K$
b01000000 S$
1c$
0s$
b0101010000001100 %%
b00010000 5%
#299
0c$
1s$
