lvl4/lab6/waveform.vcd
$version Generated by VerilatedVcd $end
$date Thu Jul  4 14:46:31 2024
 $end
$timescale   1ns $end

 $scope module TOP $end
  $var wire  1 y# clk $end
  $var wire 16 +$ d_instr [15:0] $end
  $var wire 16 3$ d_out [15:0] $end
  $var wire  1 E% done $end
  $var wire 16 [$ reg0 [15:0] $end
  $var wire 16 c$ reg1 [15:0] $end
  $var wire 16 k$ reg2 [15:0] $end
  $var wire 16 s$ reg3 [15:0] $end
  $var wire 16 {$ reg4 [15:0] $end
  $var wire 16 %% reg5 [15:0] $end
  $var wire 16 -% reg6 [15:0] $end
  $var wire 16 5% reg7 [15:0] $end
  $var wire 16 ;$ rega [15:0] $end
  $var wire 16 C$ regb [15:0] $end
  $var wire 16 K$ regcc [15:0] $end
  $var wire 16 =% reginst [15:0] $end
  $var wire 16 S$ regss [15:0] $end
  $var wire  1 #$ reset $end
  $var wire  1 q# run $end
  $scope module bitty $end
   $var wire 16 E! alu_out [15:0] $end
   $var wire  3 }! alu_sel [2:0] $end
   $var wire  1 y# clk $end
   $var wire 16 +$ d_instr [15:0] $end
   $var wire 16 3$ d_out [15:0] $end
   $var wire  1 E% done $end
   $var wire  8 U! en [7:0] $end
   $var wire  1 m! en_c $end
   $var wire  1 u! en_inst $end
   $var wire  1 e! en_s $end
   $var wire 16 o" instruction [15:0] $end
   $var wire  3 M! mux_sel [2:0] $end
   $var wire 16 # out(0) [15:0] $end
   $var wire 16 $ out(1) [15:0] $end
   $var wire 16 % out(2) [15:0] $end
   $var wire 16 & out(3) [15:0] $end
   $var wire 16 ' out(4) [15:0] $end
   $var wire 16 ( out(5) [15:0] $end
   $var wire 16 ) out(6) [15:0] $end
   $var wire 16 * out(7) [15:0] $end
   $var wire 16 ]! out_mux [15:0] $end
   $var wire 16 [$ reg0 [15:0] $end
   $var wire 16 c$ reg1 [15:0] $end
   $var wire 16 k$ reg2 [15:0] $end
   $var wire 16 s$ reg3 [15:0] $end
   $var wire 16 {$ reg4 [15:0] $end
   $var wire 16 %% reg5 [15:0] $end
   $var wire 16 -% reg6 [15:0] $end
   $var wire 16 5% reg7 [15:0] $end
   $var wire 16 ;$ rega [15:0] $end
   $var wire 16 C$ regb [15:0] $end
   $var wire 16 !# regc [15:0] $end
   $var wire 16 K$ regcc [15:0] $end
   $var wire 16 =% reginst [15:0] $end
   $var wire 16 w" regs [15:0] $end
   $var wire 16 S$ regss [15:0] $end
   $var wire  1 #$ reset $end
   $var wire  1 q# run $end
   $scope module alu_inst $end
    $var wire 16 E! alu_out [15:0] $end
    $var wire 16 w" in_a [15:0] $end
    $var wire 16 ]! in_b [15:0] $end
    $var wire 16 E! res [15:0] $end
    $var wire  3 }! select [2:0] $end
   $upscope $end
   $scope module cpu_inst $end
    $var wire  1 y# clk $end
    $var wire  2 )# cur_state [1:0] $end
    $var wire 16 o" d_inst [15:0] $end
    $var wire  1 E% done $end
    $var wire  8 U! en [7:0] $end
    $var wire  1 m! en_c $end
    $var wire  1 u! en_inst $end
    $var wire  1 e! en_s $end
    $var wire  3 M! mux_sel [2:0] $end
    $var wire  2 '" next_state [1:0] $end
    $var wire  1 #$ reset $end
    $var wire  1 q# run $end
    $var wire  3 }! sel [2:0] $end
   $upscope $end
   $scope module genblk1(0) $end
    $scope module reg_out $end
     $var wire  1 y# clk $end
     $var wire 16 !# d_in [15:0] $end
     $var wire  1 /" en $end
     $var wire 16 1# mux_out [15:0] $end
     $var wire  1 #$ reset $end
     $var wire 16 U% starting [15:0] $end
    $upscope $end
   $upscope $end
   $scope module genblk1(1) $end
    $scope module reg_out $end
     $var wire  1 y# clk $end
     $var wire 16 !# d_in [15:0] $end
     $var wire  1 7" en $end
     $var wire 16 9# mux_out [15:0] $end
     $var wire  1 #$ reset $end
     $var wire 16 U% starting [15:0] $end
    $upscope $end
   $upscope $end
   $scope module genblk1(2) $end
    $scope module reg_out $end
     $var wire  1 y# clk $end
     $var wire 16 !# d_in [15:0] $end
     $var wire  1 ?" en $end
     $var wire 16 A# mux_out [15:0] $end
     $var wire  1 #$ reset $end
     $var wire 16 U% starting [15:0] $end
    $upscope $end
   $upscope $end
   $scope module genblk1(3) $end
    $scope module reg_out $end
     $var wire  1 y# clk $end
     $var wire 16 !# d_in [15:0] $end
     $var wire  1 G" en $end
     $var wire 16 I# mux_out [15:0] $end
     $var wire  1 #$ reset $end
     $var wire 16 U% starting [15:0] $end
    $upscope $end
   $upscope $end
   $scope module genblk1(4) $end
    $scope module reg_out $end
     $var wire  1 y# clk $end
     $var wire 16 !# d_in [15:0] $end
     $var wire  1 O" en $end
     $var wire 16 Q# mux_out [15:0] $end
     $var wire  1 #$ reset $end
     $var wire 16 U% starting [15:0] $end
    $upscope $end
   $upscope $end
   $scope module genblk1(5) $end
    $scope module reg_out $end
     $var wire  1 y# clk $end
     $var wire 16 !# d_in [15:0] $end
     $var wire  1 W" en $end
     $var wire 16 Y# mux_out [15:0] $end
     $var wire  1 #$ reset $end
     $var wire 16 U% starting [15:0] $end
    $upscope $end
   $upscope $end
   $scope module genblk1(6) $end
    $scope module reg_out $end
     $var wire  1 y# clk $end
     $var wire 16 !# d_in [15:0] $end
     $var wire  1 _" en $end
     $var wire 16 a# mux_out [15:0] $end
     $var wire  1 #$ reset $end
     $var wire 16 U% starting [15:0] $end
    $upscope $end
   $upscope $end
   $scope module genblk1(7) $end
    $scope module reg_out $end
     $var wire  1 y# clk $end
     $var wire 16 !# d_in [15:0] $end
     $var wire  1 g" en $end
     $var wire 16 i# mux_out [15:0] $end
     $var wire  1 #$ reset $end
     $var wire 16 U% starting [15:0] $end
    $upscope $end
   $upscope $end
   $scope module mux_inst $end
    $var wire 16 ]! mux_out [15:0] $end
    $var wire  3 M! mux_sel [2:0] $end
    $var wire 16 c reg0 [15:0] $end
    $var wire 16 k reg1 [15:0] $end
    $var wire 16 s reg2 [15:0] $end
    $var wire 16 { reg3 [15:0] $end
    $var wire 16 %! reg4 [15:0] $end
    $var wire 16 -! reg5 [15:0] $end
    $var wire 16 5! reg6 [15:0] $end
    $var wire 16 =! reg7 [15:0] $end
   $upscope $end
   $scope module reg_c $end
    $var wire  1 y# clk $end
    $var wire 16 E! d_in [15:0] $end
    $var wire  1 m! en $end
    $var wire 16 !# mux_out [15:0] $end
    $var wire  1 #$ reset $end
    $var wire 16 M% starting [15:0] $end
   $upscope $end
   $scope module reg_inst $end
    $var wire  1 y# clk $end
    $var wire 16 +$ d_in [15:0] $end
    $var wire  1 u! en $end
    $var wire 16 o" mux_out [15:0] $end
    $var wire  1 #$ reset $end
    $var wire 16 M% starting [15:0] $end
   $upscope $end
   $scope module reg_s $end
    $var wire  1 y# clk $end
    $var wire 16 ]! d_in [15:0] $end
    $var wire  1 e! en $end
    $var wire 16 w" mux_out [15:0] $end
    $var wire  1 #$ reset $end
    $var wire 16 M% starting [15:0] $end
   $upscope $end
  $upscope $end
 $upscope $end
$enddefinitions $end


#0
b0000000000001010 #
b0000000000001010 $
b0000000000001010 %
b0000000000001010 &
b0000000000001010 '
b0000000000001010 (
b0000000000001010 )
b0000000000001010 *
b0000000000001010 c
b0000000000001010 k
b0000000000001010 s
b0000000000001010 {
b0000000000001010 %!
b0000000000001010 -!
b0000000000001010 5!
b0000000000001010 =!
b0000000000001010 E!
b000 M!
b00000000 U!
b0000000000001010 ]!
0e!
0m!
0u!
b000 }!
b00 '"
0/"
07"
0?"
0G"
0O"
0W"
0_"
0g"
b0000000000000000 o"
b0000000000000000 w"
b0000000000000000 !#
b00 )#
b0000000000001010 1#
b0000000000001010 9#
b0000000000001010 A#
b0000000000001010 I#
b0000000000001010 Q#
b0000000000001010 Y#
b0000000000001010 a#
b0000000000001010 i#
1q#
1y#
1#$
b1011000011110010 +$
b0000000000000000 3$
b0000000000000000 ;$
b0000000000001010 C$
b0000000000000000 K$
b0000000000000000 S$
b0000000000001010 [$
b0000000000001010 c$
b0000000000001010 k$
b0000000000001010 s$
b0000000000001010 {$
b0000000000001010 %%
b0000000000001010 -%
b0000000000001010 5%
b0000000000000000 =%
0E%
b0000000000000000 M%
b0000000000001010 U%
#1
1e!
1u!
b01 '"
0y#
0#$
#2
b0000000000000000 E!
b100 M!
0e!
1m!
0u!
b100 }!
b11 '"
b1011000011110010 o"
b0000000000001010 w"
b01 )#
1y#
b0000000000001010 ;$
b0000000000001010 S$
b1011000011110010 =%
#3
0y#
#4
b0000000000010100 E!
b00100000 U!
0m!
1u!
b000 }!
b00 '"
1W"
b11 )#
0q#
1y#
b0101011001000001 +$
1E%
#5
1q#
0y#
#6
b0000000000000000 (
b0000000000000000 -!
b010 M!
b00000000 U!
1e!
b01 '"
0W"
b0101011001000001 o"
b00 )#
b0000000000000000 Y#
1y#
b0000000000000000 %%
b0101011001000001 =%
0E%
#7
0y#
#8
b0000000000001010 E!
b101 M!
b0000000000000000 ]!
0e!
1m!
0u!
b11 '"
b01 )#
1y#
b0000000000000000 C$
#9
0y#
#10
b00000100 U!
0m!
1u!
b00 '"
1?"
b0000000000001010 !#
b11 )#
0q#
1y#
b1111110010100101 +$
b0000000000001010 3$
b0000000000001010 K$
1E%
#11
1q#
0y#
#12
b0000000000010100 E!
b111 M!
b00000000 U!
b0000000000001010 ]!
1e!
b01 '"
0?"
b1111110010100101 o"
b00 )#
1y#
b0000000000001010 C$
b1111110010100101 =%
0E%
#13
0y#
#14
b0000000000000000 E!
0e!
1m!
0u!
b001 }!
b11 '"
b01 )#
1y#
#15
0y#
#16
b0000000000010100 E!
b10000000 U!
0m!
1u!
b000 }!
b00 '"
1g"
b0000000000000000 !#
b11 )#
0q#
1y#
b1010111010100110 +$
b0000000000000000 3$
b0000000000000000 K$
1E%
#17
1q#
0y#
#18
b0000000000000000 *
b0000000000000000 =!
b0000000000001010 E!
b101 M!
b00000000 U!
b0000000000000000 ]!
1e!
b01 '"
0g"
b1010111010100110 o"
b00 )#
b0000000000000000 i#
1y#
b0000000000000000 C$
b0000000000000000 5%
b1010111010100110 =%
0E%
#19
0y#
#20
b1111111111110110 E!
b011 M!
b0000000000001010 ]!
0e!
1m!
0u!
b001 }!
b11 '"
b0000000000000000 w"
b01 )#
1y#
b0000000000000000 ;$
b0000000000001010 C$
b0000000000000000 S$
#21
0y#
#22
b0000000000001010 E!
b00100000 U!
0m!
1u!
b000 }!
b00 '"
1W"
b1111111111110110 !#
b11 )#
0q#
1y#
b0101000100000010 +$
b1111111111110110 3$
b1111111111110110 K$
1E%
#23
1q#
0y#
#24
b1111111111110110 (
b1111111111110110 -!
b010 M!
b00000000 U!
1e!
b01 '"
0W"
b0101000100000010 o"
b00 )#
b1111111111110110 Y#
1y#
b1111111111110110 %%
b0101000100000010 =%
0E%
#25
0y#
#26
b0000000000010100 E!
b100 M!
0e!
1m!
0u!
b11 '"
b0000000000001010 w"
b01 )#
1y#
b0000000000001010 ;$
b0000000000001010 S$
#27
0y#
#28
b00000100 U!
0m!
1u!
b00 '"
1?"
b0000000000010100 !#
b11 )#
0q#
1y#
b0111011001001000 +$
b0000000000010100 3$
b0000000000010100 K$
1E%
#29
1q#
0y#
#30
b0000000000010100 %
b0000000000010100 s
b011 M!
b00000000 U!
1e!
b01 '"
0?"
b0111011001001000 o"
b00 )#
b0000000000010100 A#
1y#
b0000000000010100 k$
b0111011001001000 =%
0E%
#31
0y#
#32
b0000000000000010 E!
b101 M!
b1111111111110110 ]!
0e!
1m!
0u!
b010 }!
b11 '"
b01 )#
1y#
b1111111111110110 C$
#33
0y#
#34
b0000000000000000 E!
b00001000 U!
0m!
1u!
b000 }!
b00 '"
1G"
b0000000000000010 !#
b11 )#
0q#
1y#
b1011111100110010 +$
b0000000000000010 3$
b0000000000000010 K$
1E%
#35
1q#
0y#
#36
b0000000000000010 &
b0000000000000010 {
b00000000 U!
1e!
b01 '"
0G"
b1011111100110010 o"
b00 )#
b0000000000000010 I#
1y#
b0000000000000010 s$
b1011111100110010 =%
0E%
#37
0y#
#38
b1111111111110110 E!
b111 M!
b0000000000000000 ]!
0e!
1m!
0u!
b100 }!
b11 '"
b1111111111110110 w"
b01 )#
1y#
b1111111111110110 ;$
b0000000000000000 C$
b1111111111110110 S$
#39
0y#
#40
b00100000 U!
0m!
1u!
b000 }!
b00 '"
1W"
b1111111111110110 !#
b11 )#
0q#
1y#
b1011101101000001 +$
b1111111111110110 3$
b1111111111110110 K$
1E%
#41
1q#
0y#
#42
b1111111111101100 E!
b101 M!
b00000000 U!
b1111111111110110 ]!
1e!
b01 '"
0W"
b1011101101000001 o"
b00 )#
1y#
b1111111111110110 C$
b1011101101000001 =%
0E%
#43
0y#
#44
b0000000000000000 E!
b110 M!
b0000000000001010 ]!
0e!
1m!
0u!
b11 '"
b01 )#
1y#
b0000000000001010 C$
#45
0y#
#46
b00100000 U!
0m!
1u!
b00 '"
1W"
b0000000000000000 !#
b11 )#
0q#
1y#
b0100001010110111 +$
b0000000000000000 3$
b0000000000000000 K$
1E%
#47
1q#
0y#
#48
b0000000000000000 (
b0000000000000000 -!
b0000000000001010 E!
b010 M!
b00000000 U!
b0000000000010100 ]!
1e!
b01 '"
0W"
b0100001010110111 o"
b00 )#
b0000000000000000 Y#
1y#
b0000000000010100 C$
b0000000000000000 %%
b0100001010110111 =%
0E%
#49
0y#
#50
b0101000000000000 E!
b000 M!
b0000000000001010 ]!
0e!
1m!
0u!
b101 }!
b11 '"
b0000000000010100 w"
b01 )#
1y#
b0000000000010100 ;$
b0000000000001010 C$
b0000000000010100 S$
#51
0y#
#52
b0000000000011110 E!
b00000100 U!
0m!
1u!
b000 }!
b00 '"
1?"
b0101000000000000 !#
b11 )#
0q#
1y#
b1100001110110101 +$
b0101000000000000 3$
b0101000000000000 K$
1E%
#53
1q#
0y#
#54
b0101000000000000 %
b0101000000000000 s
b110 M!
b00000000 U!
1e!
b01 '"
0?"
b1100001110110101 o"
b00 )#
b0101000000000000 A#
1y#
b0101000000000000 k$
b1100001110110101 =%
0E%
#55
0y#
#56
b0010100000000000 E!
b000 M!
0e!
1m!
0u!
b101 }!
b11 '"
b0000000000001010 w"
b01 )#
1y#
b0000000000001010 ;$
b0000000000001010 S$
#57
0y#
#58
b0000000000010100 E!
b01000000 U!
0m!
1u!
b000 }!
b00 '"
1_"
b0010100000000000 !#
b11 )#
0q#
1y#
b1001010111010101 +$
b0010100000000000 3$
b0010100000000000 K$
1E%
#59
1q#
0y#
#60
b0010100000000000 )
b0010100000000000 5!
b100 M!
b00000000 U!
1e!
b01 '"
0_"
b1001010111010101 o"
b00 )#
b0010100000000000 a#
1y#
b0010100000000000 -%
b1001010111010101 =%
0E%
#61
0y#
#62
b0000000000001010 E!
b101 M!
b0000000000000000 ]!
0e!
1m!
0u!
b101 }!
b11 '"
b01 )#
1y#
b0000000000000000 C$
#63
0y#
#64
b00010000 U!
0m!
1u!
b000 }!
b00 '"
1O"
b0000000000001010 !#
b11 )#
0q#
1y#
b0010100000101010 +$
b0000000000001010 3$
b0000000000001010 K$
1E%
#65
1q#
0y#
#66
b0000000000010100 E!
b001 M!
b00000000 U!
b0000000000001010 ]!
1e!
b01 '"
0O"
b0010100000101010 o"
b00 )#
1y#
b0000000000001010 C$
b0010100000101010 =%
0E%
#67
0y#
#68
b0000000000000000 E!
b010 M!
b0101000000000000 ]!
0e!
1m!
0u!
b010 }!
b11 '"
b01 )#
1y#
b0101000000000000 C$
#69
0y#
#70
b0101000000001010 E!
b00000010 U!
0m!
1u!
b000 }!
b00 '"
17"
b0000000000000000 !#
b11 )#
0q#
1y#
b0111000010100011 +$
b0000000000000000 3$
b0000000000000000 K$
1E%
#71
1q#
0y#
#72
b0000000000000000 $
b0000000000000000 k
b0000000000001100 E!
b011 M!
b00000000 U!
b0000000000000010 ]!
1e!
b01 '"
07"
b0111000010100011 o"
b00 )#
b0000000000000000 9#
1y#
b0000000000000010 C$
b0000000000000000 c$
b0111000010100011 =%
0E%
#73
0y#
#74
b100 M!
b0000000000001010 ]!
0e!
1m!
0u!
b11 '"
b0000000000000010 w"
b01 )#
1y#
b0000000000000010 ;$
b0000000000001010 C$
b0000000000000010 S$
#75
0y#
#76
b00001000 U!
0m!
1u!
b00 '"
1G"
b0000000000001100 !#
b11 )#
0q#
1y#
b0110000010110010 +$
b0000000000001100 3$
b0000000000001100 K$
1E%
#77
1q#
0y#
#78
b0000000000001100 &
b0000000000001100 {
b0000000000001110 E!
b011 M!
b00000000 U!
b0000000000001100 ]!
1e!
b01 '"
0G"
b0110000010110010 o"
b00 )#
b0000000000001100 I#
1y#
b0000000000001100 C$
b0000000000001100 s$
b0110000010110010 =%
0E%
#79
0y#
#80
b0000000000000110 E!
b000 M!
b0000000000001010 ]!
0e!
1m!
0u!
b100 }!
b11 '"
b0000000000001100 w"
b01 )#
1y#
b0000000000001100 ;$
b0000000000001010 C$
b0000000000001100 S$
#81
0y#
#82
b0000000000010110 E!
b00001000 U!
0m!
1u!
b000 }!
b00 '"
1G"
b0000000000000110 !#
b11 )#
0q#
1y#
b0010001111000110 +$
b0000000000000110 3$
b0000000000000110 K$
1E%
#83
1q#
0y#
#84
b0000000000000110 &
b0000000000000110 {
b0000000000001100 E!
b001 M!
b00000000 U!
b0000000000000000 ]!
1e!
b01 '"
0G"
b0010001111000110 o"
b00 )#
b0000000000000110 I#
1y#
b0000000000000000 C$
b0000000000000110 s$
b0010001111000110 =%
0E%
#85
0y#
#86
b1111111111110110 E!
b000 M!
b0000000000001010 ]!
0e!
1m!
0u!
b001 }!
b11 '"
b0000000000000000 w"
b01 )#
1y#
b0000000000000000 ;$
b0000000000001010 C$
b0000000000000000 S$
#87
0y#
#88
b0000000000001010 E!
b00000010 U!
0m!
1u!
b000 }!
b00 '"
17"
b1111111111110110 !#
b11 )#
0q#
1y#
b0101011010001100 +$
b1111111111110110 3$
b1111111111110110 K$
1E%
#89
1q#
0y#
#90
b1111111111110110 $
b1111111111110110 k
b0101000000000000 E!
b010 M!
b00000000 U!
b0101000000000000 ]!
1e!
b01 '"
07"
b0101011010001100 o"
b00 )#
b1111111111110110 9#
1y#
b0101000000000000 C$
b1111111111110110 c$
b0101011010001100 =%
0E%
#91
0y#
#92
b101 M!
b0000000000000000 ]!
0e!
1m!
0u!
b011 }!
b11 '"
b0101000000000000 w"
b01 )#
1y#
b0101000000000000 ;$
b0000000000000000 C$
b0101000000000000 S$
#93
0y#
#94
b00000100 U!
0m!
1u!
b000 }!
b00 '"
1?"
b0101000000000000 !#
b11 )#
0q#
1y#
b0101000111011011 +$
b0101000000000000 3$
b0101000000000000 K$
1E%
#95
1q#
0y#
#96
b1010000000000000 E!
b010 M!
b00000000 U!
b0101000000000000 ]!
1e!
b01 '"
0?"
b0101000111011011 o"
b00 )#
1y#
b0101000000000000 C$
b0101000111011011 =%
0E%
#97
0y#
#98
b0000000000010100 E!
b100 M!
b0000000000001010 ]!
0e!
1m!
0u!
b110 }!
b11 '"
b01 )#
1y#
b0000000000001010 C$
#99
0y#
#100
b0101000000001010 E!
b00000100 U!
0m!
1u!
b000 }!
b00 '"
1?"
b0000000000010100 !#
b11 )#
0q#
1y#
b1011111010010010 +$
b0000000000010100 3$
b0000000000010100 K$
1E%
#101
1q#
0y#
#102
b0000000000010100 %
b0000000000010100 s
b0101000000000000 E!
b101 M!
b00000000 U!
b0000000000000000 ]!
1e!
b01 '"
0?"
b1011111010010010 o"
b00 )#
b0000000000010100 A#
1y#
b0000000000000000 C$
b0000000000010100 k$
b1011111010010010 =%
0E%
#103
0y#
#104
b0000000000000000 E!
b111 M!
0e!
1m!
0u!
b100 }!
b11 '"
b0000000000000000 w"
b01 )#
1y#
b0000000000000000 ;$
b0000000000000000 S$
#105
0y#
#106
b00100000 U!
0m!
1u!
b000 }!
b00 '"
1W"
b0000000000000000 !#
b11 )#
0q#
1y#
b0001101001110100 +$
b0000000000000000 3$
b0000000000000000 K$
1E%
#107
1q#
0y#
#108
b0000000000001010 E!
b000 M!
b00000000 U!
b0000000000001010 ]!
1e!
b01 '"
0W"
b0001101001110100 o"
b00 )#
1y#
b0000000000001010 C$
b0001101001110100 =%
0E%
#109
0y#
#110
b110 M!
b0010100000000000 ]!
0e!
1m!
0u!
b101 }!
b11 '"
b0000000000001010 w"
b01 )#
1y#
b0000000000001010 ;$
b0010100000000000 C$
b0000000000001010 S$
#111
0y#
#112
b0010100000001010 E!
b00000001 U!
0m!
1u!
b000 }!
b00 '"
1/"
b0000000000001010 !#
b11 )#
0q#
1y#
b0111010110101001 +$
b0000000000001010 3$
b0000000000001010 K$
1E%
#113
1q#
0y#
#114
b0000000000010000 E!
b011 M!
b00000000 U!
b0000000000000110 ]!
1e!
b01 '"
0/"
b0111010110101001 o"
b00 )#
1y#
b0000000000000110 C$
b0111010110101001 =%
0E%
#115
0y#
#116
b0000000000000000 E!
b101 M!
b0000000000000000 ]!
0e!
1m!
0u!
b010 }!
b11 '"
b0000000000000110 w"
b01 )#
1y#
b0000000000000110 ;$
b0000000000000000 C$
b0000000000000110 S$
#117
0y#
#118
b0000000000000110 E!
b00001000 U!
0m!
1u!
b000 }!
b00 '"
1G"
b0000000000000000 !#
b11 )#
0q#
1y#
b0010010100110001 +$
b0000000000000000 3$
b0000000000000000 K$
1E%
#119
1q#
0y#
#120
b0000000000000000 &
b0000000000000000 {
b1111111111111100 E!
b001 M!
b00000000 U!
b1111111111110110 ]!
1e!
b01 '"
0G"
b0010010100110001 o"
b00 )#
b0000000000000000 I#
1y#
b1111111111110110 C$
b0000000000000000 s$
b0010010100110001 =%
0E%
#121
0y#
#122
b0000000000000000 E!
0e!
1m!
0u!
b100 }!
b11 '"
b1111111111110110 w"
b01 )#
1y#
b1111111111110110 ;$
b1111111111110110 S$
#123
0y#
#124
b1111111111101100 E!
b00000010 U!
0m!
1u!
b000 }!
b00 '"
17"
b11 )#
0q#
1y#
b0000100011111111 +$
1E%
#125
1q#
0y#
#126
b0000000000000000 $
b0000000000000000 k
b0000000000000000 E!
b000 M!
b00000000 U!
b0000000000001010 ]!
1e!
b01 '"
07"
b0000100011111111 o"
b00 )#
b0000000000000000 9#
1y#
b0000000000001010 C$
b0000000000000000 c$
b0000100011111111 =%
0E%
#127
0y#
#128
b0000000000000010 E!
b010 M!
b0000000000010100 ]!
0e!
1m!
0u!
b111 }!
b11 '"
b0000000000001010 w"
b01 )#
1y#
b0000000000001010 ;$
b0000000000010100 C$
b0000000000001010 S$
#129
0y#
#130
b0000000000011110 E!
b00000001 U!
0m!
1u!
b000 }!
b00 '"
1/"
b0000000000000010 !#
b11 )#
0q#
1y#
b1101111101110111 +$
b0000000000000010 3$
b0000000000000010 K$
1E%
#131
1q#
0y#
#132
b0000000000000010 #
b0000000000000010 c
b0010100000001010 E!
b110 M!
b00000000 U!
b0010100000000000 ]!
1e!
b01 '"
0/"
b1101111101110111 o"
b00 )#
b0000000000000010 1#
1y#
b0010100000000000 C$
b0000000000000010 [$
b1101111101110111 =%
0E%
#133
0y#
#134
b0010100000000000 E!
b111 M!
b0000000000000000 ]!
0e!
1m!
0u!
b101 }!
b11 '"
b0010100000000000 w"
b01 )#
1y#
b0010100000000000 ;$
b0000000000000000 C$
b0010100000000000 S$
#135
0y#
#136
b01000000 U!
0m!
1u!
b000 }!
b00 '"
1_"
b0010100000000000 !#
b11 )#
0q#
1y#
b1010101001111100 +$
b0010100000000000 3$
b0010100000000000 K$
1E%
#137
1q#
0y#
#138
b101 M!
b00000000 U!
1e!
b01 '"
0_"
b1010101001111100 o"
b00 )#
1y#
b1010101001111100 =%
0E%
#139
0y#
#140
b0000000000000010 E!
b010 M!
b0000000000010100 ]!
0e!
1m!
0u!
b111 }!
b11 '"
b0000000000000000 w"
b01 )#
1y#
b0000000000000000 ;$
b0000000000010100 C$
b0000000000000000 S$
#141
0y#
#142
b0000000000010100 E!
b00100000 U!
0m!
1u!
b000 }!
b00 '"
1W"
b0000000000000010 !#
b11 )#
0q#
1y#
b0010001110000100 +$
b0000000000000010 3$
b0000000000000010 K$
1E%
#143
1q#
0y#
#144
b0000000000000010 (
b0000000000000010 -!
b0000000000000000 E!
b001 M!
b00000000 U!
b0000000000000000 ]!
1e!
b01 '"
0W"
b0010001110000100 o"
b00 )#
b0000000000000010 Y#
1y#
b0000000000000000 C$
b0000000000000010 %%
b0010001110000100 =%
0E%
#145
0y#
#146
b1111111111111110 E!
b000 M!
b0000000000000010 ]!
0e!
1m!
0u!
b001 }!
b11 '"
b01 )#
1y#
b0000000000000010 C$
#147
0y#
#148
b0000000000000010 E!
b00000010 U!
0m!
1u!
b000 }!
b00 '"
17"
b1111111111111110 !#
b11 )#
0q#
1y#
b0101100010101100 +$
b1111111111111110 3$
b1111111111111110 K$
1E%
#149
1q#
0y#
#150
b1111111111111110 $
b1111111111111110 k
b0000000000010100 E!
b010 M!
b00000000 U!
b0000000000010100 ]!
1e!
b01 '"
07"
b0101100010101100 o"
b00 )#
b1111111111111110 9#
1y#
b0000000000010100 C$
b1111111111111110 c$
b0101100010101100 =%
0E%
#151
0y#
#152
b0010100000010100 E!
b110 M!
b0010100000000000 ]!
0e!
1m!
0u!
b011 }!
b11 '"
b0000000000010100 w"
b01 )#
1y#
b0000000000010100 ;$
b0010100000000000 C$
b0000000000010100 S$
#153
0y#
#154
b00000100 U!
0m!
1u!
b000 }!
b00 '"
1?"
b0010100000010100 !#
b11 )#
0q#
1y#
b0000100111001011 +$
b0010100000010100 3$
b0010100000010100 K$
1E%
#155
1q#
0y#
#156
b0010100000010100 %
b0010100000010100 s
b0000000000010110 E!
b000 M!
b00000000 U!
b0000000000000010 ]!
1e!
b01 '"
0?"
b0000100111001011 o"
b00 )#
b0010100000010100 A#
1y#
b0000000000000010 C$
b0010100000010100 k$
b0000100111001011 =%
0E%
#157
0y#
#158
b0000000000000000 E!
b010 M!
b0010100000010100 ]!
0e!
1m!
0u!
b010 }!
b11 '"
b0000000000000010 w"
b01 )#
1y#
b0000000000000010 ;$
b0010100000010100 C$
b0000000000000010 S$
#159
0y#
#160
b0010100000010110 E!
b00000001 U!
0m!
1u!
b000 }!
b00 '"
1/"
b0000000000000000 !#
b11 )#
0q#
1y#
b1000000001010000 +$
b0000000000000000 3$
b0000000000000000 K$
1E%
#161
1q#
0y#
#162
b0000000000000000 #
b0000000000000000 c
b0000000000001100 E!
b100 M!
b00000000 U!
b0000000000001010 ]!
1e!
b01 '"
0/"
b1000000001010000 o"
b00 )#
b0000000000000000 1#
1y#
b0000000000001010 C$
b0000000000000000 [$
b1000000001010000 =%
0E%
#163
0y#
#164
b0000000000001010 E!
b000 M!
b0000000000000000 ]!
0e!
1m!
0u!
b100 }!
b11 '"
b0000000000001010 w"
b01 )#
1y#
b0000000000001010 ;$
b0000000000000000 C$
b0000000000001010 S$
#165
0y#
#166
b00010000 U!
0m!
1u!
b000 }!
b00 '"
1O"
b0000000000001010 !#
b11 )#
0q#
1y#
b0100001000010000 +$
b0000000000001010 3$
b0000000000001010 K$
1E%
#167
1q#
0y#
#168
b0010100000011110 E!
b010 M!
b00000000 U!
b0010100000010100 ]!
1e!
b01 '"
0O"
b0100001000010000 o"
b00 )#
1y#
b0010100000010100 C$
b0100001000010000 =%
0E%
#169
0y#
#170
b0010100000010100 E!
b000 M!
b0000000000000000 ]!
0e!
1m!
0u!
b100 }!
b11 '"
b0010100000010100 w"
b01 )#
1y#
b0010100000010100 ;$
b0000000000000000 C$
b0010100000010100 S$
#171
0y#
#172
b00000100 U!
0m!
1u!
b000 }!
b00 '"
1?"
b0010100000010100 !#
b11 )#
0q#
1y#
b1111001110001110 +$
b0010100000010100 3$
b0010100000010100 K$
1E%
#173
1q#
0y#
#174
b111 M!
b00000000 U!
1e!
b01 '"
0?"
b1111001110001110 o"
b00 )#
1y#
b1111001110001110 =%
0E%
#175
0y#
#176
b0000000000001010 E!
b100 M!
b0000000000001010 ]!
0e!
1m!
0u!
b011 }!
b11 '"
b0000000000000000 w"
b01 )#
1y#
b0000000000000000 ;$
b0000000000001010 C$
b0000000000000000 S$
#177
0y#
#178
b10000000 U!
0m!
1u!
b000 }!
b00 '"
1g"
b0000000000001010 !#
b11 )#
0q#
1y#
b0000011001110001 +$
b0000000000001010 3$
b0000000000001010 K$
1E%
#179
1q#
0y#
#180
b0000000000001010 *
b0000000000001010 =!
b0000000000000000 E!
b000 M!
b00000000 U!
b0000000000000000 ]!
1e!
b01 '"
0g"
b0000011001110001 o"
b00 )#
b0000000000001010 i#
1y#
b0000000000000000 C$
b0000000000001010 5%
b0000011001110001 =%
0E%
#181
0y#
#182
b1111111111111110 E!
b001 M!
b1111111111111110 ]!
0e!
1m!
0u!
b100 }!
b11 '"
b01 )#
1y#
b1111111111111110 C$
#183
0y#
#184
b00000001 U!
0m!
1u!
b000 }!
b00 '"
1/"
b1111111111111110 !#
b11 )#
0q#
1y#
b0111001100000010 +$
b1111111111111110 3$
b1111111111111110 K$
1E%
#185
1q#
0y#
#186
b1111111111111110 #
b1111111111111110 c
b0000000000000000 E!
b011 M!
b00000000 U!
b0000000000000000 ]!
1e!
b01 '"
0/"
b0111001100000010 o"
b00 )#
b1111111111111110 1#
1y#
b0000000000000000 C$
b1111111111111110 [$
b0111001100000010 =%
0E%
#187
0y#
#188
b0000000000001010 E!
b100 M!
b0000000000001010 ]!
0e!
1m!
0u!
b11 '"
b01 )#
1y#
b0000000000001010 C$
#189
0y#
#190
b00001000 U!
0m!
1u!
b00 '"
1G"
b0000000000001010 !#
b11 )#
0q#
1y#
b0100100111010001 +$
b0000000000001010 3$
b0000000000001010 K$
1E%
#191
1q#
0y#
